SM#2218_Task2/ADC/simulation/qsim/ADC.msim.vcd
$comment
	File created using the following command:
		vcd file ADC.msim.vcd -direction
$end
$date
	Fri Nov 20 21:24:59 2020
$end
$version
	ModelSim Version 10.5b
$end
$timescale
	1ps
$end

$scope module ADC_vlg_vec_tst $end
$var reg 1 ! dout $end
$var reg 1 " rst $end
$var reg 1 # sclk $end
$var wire 1 $ ADC_DATA_CH1 [11] $end
$var wire 1 % ADC_DATA_CH1 [10] $end
$var wire 1 & ADC_DATA_CH1 [9] $end
$var wire 1 ' ADC_DATA_CH1 [8] $end
$var wire 1 ( ADC_DATA_CH1 [7] $end
$var wire 1 ) ADC_DATA_CH1 [6] $end
$var wire 1 * ADC_DATA_CH1 [5] $end
$var wire 1 + ADC_DATA_CH1 [4] $end
$var wire 1 , ADC_DATA_CH1 [3] $end
$var wire 1 - ADC_DATA_CH1 [2] $end
$var wire 1 . ADC_DATA_CH1 [1] $end
$var wire 1 / ADC_DATA_CH1 [0] $end
$var wire 1 0 ADC_DATA_CH2 [11] $end
$var wire 1 1 ADC_DATA_CH2 [10] $end
$var wire 1 2 ADC_DATA_CH2 [9] $end
$var wire 1 3 ADC_DATA_CH2 [8] $end
$var wire 1 4 ADC_DATA_CH2 [7] $end
$var wire 1 5 ADC_DATA_CH2 [6] $end
$var wire 1 6 ADC_DATA_CH2 [5] $end
$var wire 1 7 ADC_DATA_CH2 [4] $end
$var wire 1 8 ADC_DATA_CH2 [3] $end
$var wire 1 9 ADC_DATA_CH2 [2] $end
$var wire 1 : ADC_DATA_CH2 [1] $end
$var wire 1 ; ADC_DATA_CH2 [0] $end
$var wire 1 < ADC_DATA_CH3 [11] $end
$var wire 1 = ADC_DATA_CH3 [10] $end
$var wire 1 > ADC_DATA_CH3 [9] $end
$var wire 1 ? ADC_DATA_CH3 [8] $end
$var wire 1 @ ADC_DATA_CH3 [7] $end
$var wire 1 A ADC_DATA_CH3 [6] $end
$var wire 1 B ADC_DATA_CH3 [5] $end
$var wire 1 C ADC_DATA_CH3 [4] $end
$var wire 1 D ADC_DATA_CH3 [3] $end
$var wire 1 E ADC_DATA_CH3 [2] $end
$var wire 1 F ADC_DATA_CH3 [1] $end
$var wire 1 G ADC_DATA_CH3 [0] $end
$var wire 1 H CS_n $end
$var wire 1 I din $end

$scope module i1 $end
$var wire 1 J gnd $end
$var wire 1 K vcc $end
$var wire 1 L unknown $end
$var tri1 1 M devclrn $end
$var tri1 1 N devpor $end
$var tri1 1 O devoe $end
$var wire 1 P din~output_o $end
$var wire 1 Q CS_n~output_o $end
$var wire 1 R ADC_DATA_CH1[0]~output_o $end
$var wire 1 S ADC_DATA_CH1[1]~output_o $end
$var wire 1 T ADC_DATA_CH1[2]~output_o $end
$var wire 1 U ADC_DATA_CH1[3]~output_o $end
$var wire 1 V ADC_DATA_CH1[4]~output_o $end
$var wire 1 W ADC_DATA_CH1[5]~output_o $end
$var wire 1 X ADC_DATA_CH1[6]~output_o $end
$var wire 1 Y ADC_DATA_CH1[7]~output_o $end
$var wire 1 Z ADC_DATA_CH1[8]~output_o $end
$var wire 1 [ ADC_DATA_CH1[9]~output_o $end
$var wire 1 \ ADC_DATA_CH1[10]~output_o $end
$var wire 1 ] ADC_DATA_CH1[11]~output_o $end
$var wire 1 ^ ADC_DATA_CH2[0]~output_o $end
$var wire 1 _ ADC_DATA_CH2[1]~output_o $end
$var wire 1 ` ADC_DATA_CH2[2]~output_o $end
$var wire 1 a ADC_DATA_CH2[3]~output_o $end
$var wire 1 b ADC_DATA_CH2[4]~output_o $end
$var wire 1 c ADC_DATA_CH2[5]~output_o $end
$var wire 1 d ADC_DATA_CH2[6]~output_o $end
$var wire 1 e ADC_DATA_CH2[7]~output_o $end
$var wire 1 f ADC_DATA_CH2[8]~output_o $end
$var wire 1 g ADC_DATA_CH2[9]~output_o $end
$var wire 1 h ADC_DATA_CH2[10]~output_o $end
$var wire 1 i ADC_DATA_CH2[11]~output_o $end
$var wire 1 j ADC_DATA_CH3[0]~output_o $end
$var wire 1 k ADC_DATA_CH3[1]~output_o $end
$var wire 1 l ADC_DATA_CH3[2]~output_o $end
$var wire 1 m ADC_DATA_CH3[3]~output_o $end
$var wire 1 n ADC_DATA_CH3[4]~output_o $end
$var wire 1 o ADC_DATA_CH3[5]~output_o $end
$var wire 1 p ADC_DATA_CH3[6]~output_o $end
$var wire 1 q ADC_DATA_CH3[7]~output_o $end
$var wire 1 r ADC_DATA_CH3[8]~output_o $end
$var wire 1 s ADC_DATA_CH3[9]~output_o $end
$var wire 1 t ADC_DATA_CH3[10]~output_o $end
$var wire 1 u ADC_DATA_CH3[11]~output_o $end
$var wire 1 v sclk~input_o $end
$var wire 1 w sclk~inputclkctrl_outclk $end
$var wire 1 x Add0~0_combout $end
$var wire 1 y sclk_count[0]~feeder_combout $end
$var wire 1 z rst~input_o $end
$var wire 1 { rst~inputclkctrl_outclk $end
$var wire 1 | Add0~1 $end
$var wire 1 } Add0~2_combout $end
$var wire 1 ~ sclk_count[1]~feeder_combout $end
$var wire 1 !! Add0~3 $end
$var wire 1 "! Add0~4_combout $end
$var wire 1 #! Add0~5 $end
$var wire 1 $! Add0~6_combout $end
$var wire 1 %! Equal3~0_combout $end
$var wire 1 &! Add0~7 $end
$var wire 1 '! Add0~8_combout $end
$var wire 1 (! sclk_count~0_combout $end
$var wire 1 )! Equal0~0_combout $end
$var wire 1 *! rtl~0_combout $end
$var wire 1 +! rtl~0clkctrl_outclk $end
$var wire 1 ,! sample_addr[0]~1_combout $end
$var wire 1 -! sample_addr[1]~0_combout $end
$var wire 1 .! Selector0~0_combout $end
$var wire 1 /! Selector0~1_combout $end
$var wire 1 0! Selector0~2_combout $end
$var wire 1 1! din~reg0_q $end
$var wire 1 2! dout~input_o $end
$var wire 1 3! register[0]~feeder_combout $end
$var wire 1 4! WideNor3~0_combout $end
$var wire 1 5! ADC_DATA_CH1[0]~reg0feeder_combout $end
$var wire 1 6! Decoder0~0_combout $end
$var wire 1 7! ADC_DATA_CH1[0]~reg0_q $end
$var wire 1 8! register[1]~feeder_combout $end
$var wire 1 9! ADC_DATA_CH1[1]~reg0feeder_combout $end
$var wire 1 :! ADC_DATA_CH1[1]~reg0_q $end
$var wire 1 ;! register[2]~feeder_combout $end
$var wire 1 <! ADC_DATA_CH1[2]~reg0feeder_combout $end
$var wire 1 =! ADC_DATA_CH1[2]~reg0_q $end
$var wire 1 >! register[3]~feeder_combout $end
$var wire 1 ?! ADC_DATA_CH1[3]~reg0feeder_combout $end
$var wire 1 @! ADC_DATA_CH1[3]~reg0_q $end
$var wire 1 A! register[4]~feeder_combout $end
$var wire 1 B! ADC_DATA_CH1[4]~reg0feeder_combout $end
$var wire 1 C! ADC_DATA_CH1[4]~reg0_q $end
$var wire 1 D! register[5]~feeder_combout $end
$var wire 1 E! ADC_DATA_CH1[5]~reg0feeder_combout $end
$var wire 1 F! ADC_DATA_CH1[5]~reg0_q $end
$var wire 1 G! register[6]~feeder_combout $end
$var wire 1 H! ADC_DATA_CH1[6]~reg0feeder_combout $end
$var wire 1 I! ADC_DATA_CH1[6]~reg0_q $end
$var wire 1 J! register[7]~feeder_combout $end
$var wire 1 K! ADC_DATA_CH1[7]~reg0feeder_combout $end
$var wire 1 L! ADC_DATA_CH1[7]~reg0_q $end
$var wire 1 M! register[8]~feeder_combout $end
$var wire 1 N! ADC_DATA_CH1[8]~reg0feeder_combout $end
$var wire 1 O! ADC_DATA_CH1[8]~reg0_q $end
$var wire 1 P! register[9]~feeder_combout $end
$var wire 1 Q! ADC_DATA_CH1[9]~reg0feeder_combout $end
$var wire 1 R! ADC_DATA_CH1[9]~reg0_q $end
$var wire 1 S! register[10]~feeder_combout $end
$var wire 1 T! ADC_DATA_CH1[10]~reg0feeder_combout $end
$var wire 1 U! ADC_DATA_CH1[10]~reg0_q $end
$var wire 1 V! register[11]~feeder_combout $end
$var wire 1 W! ADC_DATA_CH1[11]~reg0feeder_combout $end
$var wire 1 X! ADC_DATA_CH1[11]~reg0_q $end
$var wire 1 Y! ADC_DATA_CH2[0]~reg0feeder_combout $end
$var wire 1 Z! Decoder0~1_combout $end
$var wire 1 [! ADC_DATA_CH2[0]~reg0_q $end
$var wire 1 \! ADC_DATA_CH2[1]~reg0feeder_combout $end
$var wire 1 ]! ADC_DATA_CH2[1]~reg0_q $end
$var wire 1 ^! ADC_DATA_CH2[2]~reg0feeder_combout $end
$var wire 1 _! ADC_DATA_CH2[2]~reg0_q $end
$var wire 1 `! ADC_DATA_CH2[3]~reg0feeder_combout $end
$var wire 1 a! ADC_DATA_CH2[3]~reg0_q $end
$var wire 1 b! ADC_DATA_CH2[4]~reg0feeder_combout $end
$var wire 1 c! ADC_DATA_CH2[4]~reg0_q $end
$var wire 1 d! ADC_DATA_CH2[5]~reg0feeder_combout $end
$var wire 1 e! ADC_DATA_CH2[5]~reg0_q $end
$var wire 1 f! ADC_DATA_CH2[6]~reg0feeder_combout $end
$var wire 1 g! ADC_DATA_CH2[6]~reg0_q $end
$var wire 1 h! ADC_DATA_CH2[7]~reg0feeder_combout $end
$var wire 1 i! ADC_DATA_CH2[7]~reg0_q $end
$var wire 1 j! ADC_DATA_CH2[8]~reg0feeder_combout $end
$var wire 1 k! ADC_DATA_CH2[8]~reg0_q $end
$var wire 1 l! ADC_DATA_CH2[9]~reg0feeder_combout $end
$var wire 1 m! ADC_DATA_CH2[9]~reg0_q $end
$var wire 1 n! ADC_DATA_CH2[10]~reg0feeder_combout $end
$var wire 1 o! ADC_DATA_CH2[10]~reg0_q $end
$var wire 1 p! ADC_DATA_CH2[11]~reg0feeder_combout $end
$var wire 1 q! ADC_DATA_CH2[11]~reg0_q $end
$var wire 1 r! ADC_DATA_CH3[0]~reg0feeder_combout $end
$var wire 1 s! Decoder0~2_combout $end
$var wire 1 t! ADC_DATA_CH3[0]~reg0_q $end
$var wire 1 u! ADC_DATA_CH3[1]~reg0feeder_combout $end
$var wire 1 v! ADC_DATA_CH3[1]~reg0_q $end
$var wire 1 w! ADC_DATA_CH3[2]~reg0feeder_combout $end
$var wire 1 x! ADC_DATA_CH3[2]~reg0_q $end
$var wire 1 y! ADC_DATA_CH3[3]~reg0feeder_combout $end
$var wire 1 z! ADC_DATA_CH3[3]~reg0_q $end
$var wire 1 {! ADC_DATA_CH3[4]~reg0feeder_combout $end
$var wire 1 |! ADC_DATA_CH3[4]~reg0_q $end
$var wire 1 }! ADC_DATA_CH3[5]~reg0feeder_combout $end
$var wire 1 ~! ADC_DATA_CH3[5]~reg0_q $end
$var wire 1 !" ADC_DATA_CH3[6]~reg0feeder_combout $end
$var wire 1 "" ADC_DATA_CH3[6]~reg0_q $end
$var wire 1 #" ADC_DATA_CH3[7]~reg0feeder_combout $end
$var wire 1 $" ADC_DATA_CH3[7]~reg0_q $end
$var wire 1 %" ADC_DATA_CH3[8]~reg0_q $end
$var wire 1 &" ADC_DATA_CH3[9]~reg0feeder_combout $end
$var wire 1 '" ADC_DATA_CH3[9]~reg0_q $end
$var wire 1 (" ADC_DATA_CH3[10]~reg0feeder_combout $end
$var wire 1 )" ADC_DATA_CH3[10]~reg0_q $end
$var wire 1 *" ADC_DATA_CH3[11]~reg0feeder_combout $end
$var wire 1 +" ADC_DATA_CH3[11]~reg0_q $end
$var wire 1 ," register [11] $end
$var wire 1 -" register [10] $end
$var wire 1 ." register [9] $end
$var wire 1 /" register [8] $end
$var wire 1 0" register [7] $end
$var wire 1 1" register [6] $end
$var wire 1 2" register [5] $end
$var wire 1 3" register [4] $end
$var wire 1 4" register [3] $end
$var wire 1 5" register [2] $end
$var wire 1 6" register [1] $end
$var wire 1 7" register [0] $end
$var wire 1 8" sample_addr [1] $end
$var wire 1 9" sample_addr [0] $end
$var wire 1 :" sclk_count [4] $end
$var wire 1 ;" sclk_count [3] $end
$var wire 1 <" sclk_count [2] $end
$var wire 1 =" sclk_count [1] $end
$var wire 1 >" sclk_count [0] $end
$upscope $end
$upscope $end
$enddefinitions $end
#0
$dumpvars
1!
0"
0#
0/
0.
0-
0,
0+
0*
0)
0(
0'
0&
0%
0$
0;
0:
09
08
07
06
05
04
03
02
01
00
0G
0F
0E
0D
0C
0B
0A
0@
0?
0>
0=
0<
0H
0I
0J
1K
xL
1M
1N
1O
0P
0Q
0R
0S
0T
0U
0V
0W
0X
0Y
0Z
0[
0\
0]
0^
0_
0`
0a
0b
0c
0d
0e
0f
0g
0h
0i
0j
0k
0l
0m
0n
0o
0p
0q
0r
0s
0t
0u
0v
0w
1x
1y
0z
0{
0|
0}
0~
1!!
0"!
0#!
0$!
0%!
1&!
0'!
0(!
1)!
0*!
0+!
1,!
0-!
0.!
0/!
00!
01!
12!
13!
04!
05!
06!
07!
08!
09!
0:!
0;!
0<!
0=!
0>!
0?!
0@!
0A!
0B!
0C!
0D!
0E!
0F!
0G!
0H!
0I!
0J!
0K!
0L!
0M!
0N!
0O!
0P!
0Q!
0R!
0S!
0T!
0U!
0V!
0W!
0X!
0Y!
0Z!
0[!
0\!
0]!
0^!
0_!
0`!
0a!
0b!
0c!
0d!
0e!
0f!
0g!
0h!
0i!
0j!
0k!
0l!
0m!
0n!
0o!
0p!
0q!
0r!
0s!
0t!
0u!
0v!
0w!
0x!
0y!
0z!
0{!
0|!
0}!
0~!
0!"
0""
0#"
0$"
0%"
0&"
0'"
0("
0)"
0*"
0+"
07"
06"
05"
04"
03"
02"
01"
00"
0/"
0."
0-"
0,"
09"
08"
0>"
0="
0<"
0;"
0:"
$end
#10000
1#
1v
1w
1>"
1/!
1*!
1|
0x
1+!
1}
0y
1~
19"
1-!
0,!
#20000
0!
0#
02!
0v
0w
03!
#30000
1#
1v
1w
1="
0>"
0*!
0!!
0}
0|
1x
0+!
1!!
1}
1"!
0~
1y
0"!
1~
#40000
0#
0v
0w
#50000
1#
1v
1w
1>"
1|
0x
0!!
0}
0y
1"!
0~
#60000
1!
0#
12!
0v
0w
13!
#70000
1#
1v
1w
1<"
0="
0>"
14!
1.!
1#!
1!!
1}
0|
1x
0"!
0#!
0}
10!
1$!
1"!
1~
1y
0$!
0~
#80000
0!
0#
02!
0v
0w
03!
11!
1P
1I
#90000
1#
1v
1w
1>"
0.!
1|
0x
1}
00!
0y
1~
#100000
0#
0v
0w
01!
0P
0I
#110000
1#
1v
1w
1="
0>"
0!!
0}
0|
1x
1#!
1!!
1}
0"!
0~
1y
0#!
1$!
1"!
1~
0$!
#120000
0#
0v
0w
#130000
1#
1v
1w
1>"
1|
0x
0!!
0}
0y
1#!
0"!
0~
1$!
#140000
1!
0#
12!
0v
0w
13!
#150000
1#
1v
1w
1;"
0<"
0="
17"
0>"
0)!
0&!
0#!
1!!
1}
0|
1x
0$!
1"!
1r!
1Y!
18!
15!
1'!
1&!
0}
1$!
0"!
1~
1y
0'!
1(!
0~
0(!
#160000
0!
0#
02!
0v
0w
03!
#170000
1#
1v
1w
16"
07"
1>"
1|
0x
1u!
1\!
1;!
19!
0r!
0Y!
08!
05!
1}
0y
1~
#180000
1!
0#
12!
0v
0w
13!
#190000
1#
1v
1w
1="
15"
06"
17"
0>"
0!!
0}
0|
1x
1w!
1^!
1>!
1<!
0u!
0\!
0;!
09!
1r!
1Y!
18!
15!
1!!
1}
1"!
0~
1y
0"!
1~
#200000
0#
0v
0w
#210000
1#
1v
1w
14"
05"
16"
1>"
1%!
1|
0x
1y!
1`!
1A!
1?!
0w!
0^!
0>!
0<!
1u!
1\!
1;!
19!
0!!
0}
0y
1"!
0~
#220000
0!
0#
02!
0v
0w
03!
#230000
1#
1v
1w
1<"
0="
13"
04"
15"
07"
0>"
1s!
1.!
1#!
0%!
1!!
1}
0|
1x
1(!
0"!
1{!
1b!
1D!
1B!
0y!
0`!
0A!
0?!
1w!
1^!
1>!
1<!
0r!
0Y!
08!
05!
0&!
0s!
0#!
0}
0$!
0(!
1"!
1~
1y
1'!
1&!
1$!
0~
0'!
1(!
0(!
#240000
0#
0v
0w
#250000
1#
1v
1w
12"
03"
14"
06"
1>"
0.!
1|
0x
1}!
1d!
1G!
1E!
0{!
0b!
0D!
0B!
1y!
1`!
1A!
1?!
0u!
0\!
0;!
09!
1}
0y
1~
#260000
0#
0v
0w
#270000
1#
1v
1w
1="
11"
02"
13"
05"
0>"
0!!
0}
0|
1x
1!"
1f!
1J!
1H!
0}!
0d!
0G!
0E!
1{!
1b!
1D!
1B!
0w!
0^!
0>!
0<!
1#!
1!!
1}
0"!
0~
1y
0&!
0#!
0$!
1"!
1~
1'!
1&!
1$!
0'!
1(!
0(!
#280000
1!
0#
12!
0v
0w
13!
#290000
1#
1v
1w
10"
01"
12"
04"
17"
1>"
1%!
1|
0x
1#"
1h!
1M!
1K!
0!"
0f!
0J!
0H!
1}!
1d!
1G!
1E!
0y!
0`!
0A!
0?!
1r!
1Y!
18!
15!
1s!
0!!
0}
1(!
0y
1#!
0"!
0~
0&!
0$!
1'!
0(!
#300000
0!
0#
02!
0v
0w
03!
#310000
1#
1v
1w
0;"
0<"
0="
1/"
00"
11"
03"
16"
07"
0>"
1$"
1~!
1|!
1t!
1j
1n
1o
1q
04!
1)!
0%!
1&!
0s!
0#!
1!!
1}
0|
1x
1@
1B
1C
1G
1$!
1(!
1"!
1j!
1P!
1N!
0#"
0h!
0M!
0K!
1!"
1f!
1J!
1H!
0{!
0b!
0D!
0B!
1u!
1\!
1;!
19!
0r!
0Y!
08!
05!
0'!
0}
0$!
0"!
1~
1y
0(!
0~
#320000
0#
0v
0w
#330000
1#
1v
1w
1>"
1*!
1|
0x
1+!
1}
0y
1~
18"
09"
1,!
#340000
0#
0v
0w
#350000
1#
1v
1w
1="
0>"
0*!
0!!
0}
0/!
0|
1x
0+!
1!!
1}
1"!
0~
1y
0"!
1~
#360000
1!
0#
12!
0v
0w
13!
#370000
1#
1v
1w
1>"
1/!
1.!
1|
0x
0!!
0}
10!
0y
1"!
0~
#380000
0#
0v
0w
11!
1P
1I
#390000
1#
1v
1w
1<"
0="
0>"
14!
1#!
1!!
1}
0/!
0|
1x
0"!
0#!
0}
1$!
1"!
1~
00!
1y
0$!
0~
#400000
0!
0#
02!
0v
0w
03!
01!
0P
0I
#410000
1#
1v
1w
1."
0/"
10"
02"
15"
06"
1>"
1/!
0.!
1|
0x
1&"
1l!
1S!
1Q!
0j!
0P!
0N!
1#"
1h!
1M!
1K!
0}!
0d!
0G!
0E!
1w!
1^!
1>!
1<!
0u!
0\!
0;!
09!
1}
0y
1~
#420000
1!
0#
12!
0v
0w
13!
#430000
1#
1v
1w
1="
1-"
0."
1/"
01"
14"
05"
17"
0>"
0!!
0}
0/!
0|
1x
1("
1n!
1V!
1T!
0&"
0l!
0S!
0Q!
1j!
1P!
1N!
0!"
0f!
0J!
0H!
1y!
1`!
1A!
1?!
0w!
0^!
0>!
0<!
1r!
1Y!
18!
15!
1#!
1!!
1}
0"!
0~
1y
0#!
1$!
1"!
1~
0$!
#440000
0!
0#
02!
0v
0w
03!
#450000
1#
1v
1w
1,"
0-"
1."
00"
13"
04"
16"
07"
1>"
1/!
1|
0x
1*"
1p!
1W!
0("
0n!
0V!
0T!
1&"
1l!
1S!
1Q!
0#"
0h!
0M!
0K!
1{!
1b!
1D!
1B!
0y!
0`!
0A!
0?!
1u!
1\!
1;!
19!
0r!
0Y!
08!
05!
0!!
0}
0y
1#!
0"!
0~
1$!
#460000
1!
0#
12!
0v
0w
13!
#470000
1#
1v
1w
1;"
0<"
0="
0,"
1-"
0/"
12"
03"
15"
06"
17"
0>"
0)!
0&!
0#!
1!!
1}
0/!
0|
1x
0$!
1"!
0*"
0p!
0W!
1("
1n!
1V!
1T!
0j!
0P!
0N!
1}!
1d!
1G!
1E!
0{!
0b!
0D!
0B!
1w!
1^!
1>!
1<!
0u!
0\!
0;!
09!
1r!
1Y!
18!
15!
1'!
1&!
0}
1$!
0"!
1~
1y
0'!
1(!
0~
0(!
#480000
0#
0v
0w
#490000
1#
1v
1w
1,"
0."
11"
02"
14"
05"
16"
1>"
1/!
1|
0x
1*"
1p!
1W!
0&"
0l!
0S!
0Q!
1!"
1f!
1J!
1H!
0}!
0d!
0G!
0E!
1y!
1`!
1A!
1?!
0w!
0^!
0>!
0<!
1u!
1\!
1;!
19!
1}
0y
1~
#500000
0!
0#
02!
0v
0w
03!
#510000
1#
1v
1w
1="
0-"
10"
01"
13"
04"
15"
07"
0>"
0!!
0}
0/!
0|
1x
0("
0n!
0V!
0T!
1#"
1h!
1M!
1K!
0!"
0f!
0J!
0H!
1{!
1b!
1D!
1B!
0y!
0`!
0A!
0?!
1w!
1^!
1>!
1<!
0r!
0Y!
08!
05!
1!!
1}
1"!
0~
1y
0"!
1~
#520000
1!
0#
12!
0v
0w
13!
#530000
1#
1v
1w
0,"
1/"
00"
12"
03"
14"
06"
17"
1>"
1/!
1.!
1%!
1|
0x
0*"
0p!
0W!
1j!
1P!
1N!
0#"
0h!
0M!
0K!
1}!
1d!
1G!
1E!
0{!
0b!
0D!
0B!
1y!
1`!
1A!
1?!
0u!
0\!
0;!
09!
1r!
1Y!
18!
15!
0!!
0}
0y
1"!
0~
#540000
0!
0#
02!
0v
0w
03!
#550000
1#
1v
1w
1<"
0="
1."
0/"
11"
02"
13"
05"
16"
07"
0>"
16!
1#!
0%!
1!!
1}
0/!
0|
1x
1(!
0"!
1&"
1l!
1S!
1Q!
0j!
0P!
0N!
1!"
1f!
1J!
1H!
0}!
0d!
0G!
0E!
1{!
1b!
1D!
1B!
0w!
0^!
0>!
0<!
1u!
1\!
1;!
19!
0r!
0Y!
08!
05!
0&!
06!
0#!
0}
0$!
0(!
1"!
1~
1y
1'!
1&!
1$!
0~
0'!
1(!
0(!
#560000
1!
0#
12!
0v
0w
13!
#570000
1#
1v
1w
1-"
0."
10"
01"
12"
04"
15"
06"
17"
1>"
1/!
0.!
1|
0x
1("
1n!
1V!
1T!
0&"
0l!
0S!
0Q!
1#"
1h!
1M!
1K!
0!"
0f!
0J!
0H!
1}!
1d!
1G!
1E!
0y!
0`!
0A!
0?!
1w!
1^!
1>!
1<!
0u!
0\!
0;!
09!
1r!
1Y!
18!
15!
1}
0y
1~
#580000
0#
0v
0w
#590000
1#
1v
1w
1="
1,"
0-"
1/"
00"
11"
03"
14"
05"
16"
0>"
0!!
0}
0/!
0|
1x
1*"
1p!
1W!
0("
0n!
0V!
0T!
1j!
1P!
1N!
0#"
0h!
0M!
0K!
1!"
1f!
1J!
1H!
0{!
0b!
0D!
0B!
1y!
1`!
1A!
1?!
0w!
0^!
0>!
0<!
1u!
1\!
1;!
19!
1#!
1!!
1}
0"!
0~
1y
0&!
0#!
0$!
1"!
1~
1'!
1&!
1$!
0'!
1(!
0(!
#600000
0#
0v
0w
#610000
1#
1v
1w
0,"
1."
0/"
10"
02"
13"
04"
15"
1>"
1/!
1%!
1|
0x
0*"
0p!
0W!
1&"
1l!
1S!
1Q!
0j!
0P!
0N!
1#"
1h!
1M!
1K!
0}!
0d!
0G!
0E!
1{!
1b!
1D!
1B!
0y!
0`!
0A!
0?!
1w!
1^!
1>!
1<!
16!
0!!
0}
1(!
0y
1#!
0"!
0~
0&!
0$!
1'!
0(!
#620000
0!
0#
02!
0v
0w
03!
#630000
1#
1v
1w
0;"
0<"
0="
1-"
0."
1/"
01"
12"
03"
14"
07"
0>"
1R!
1L!
1I!
1C!
1=!
1:!
17!
1R
1S
1T
1V
1X
1Y
1[
04!
1)!
0%!
1&!
06!
0#!
1!!
1}
0/!
0|
1x
1&
1(
1)
1+
1-
1.
1/
1$!
1(!
1"!
1("
1n!
1V!
1T!
0&"
0l!
0S!
0Q!
1j!
1P!
1N!
0!"
0f!
0J!
0H!
1}!
1d!
1G!
1E!
0{!
0b!
0D!
0B!
1y!
1`!
1A!
1?!
0r!
0Y!
08!
05!
0'!
0}
0$!
0"!
1~
1y
0(!
0~
#640000
0#
0v
0w
#650000
1#
1v
1w
1>"
1/!
1*!
1|
0x
1+!
1}
0y
1~
19"
0-!
0,!
#660000
1!
0#
12!
0v
0w
13!
#670000
1#
1v
1w
1="
0>"
0*!
0!!
0}
0|
1x
0+!
1!!
1}
1"!
0~
1y
0"!
1~
#680000
0!
0#
02!
0v
0w
03!
#690000
1#
1v
1w
1>"
1.!
1|
0x
0!!
0}
10!
0y
1"!
0~
#700000
0#
0v
0w
11!
1P
1I
#710000
1#
1v
1w
1<"
0="
0>"
14!
1#!
1!!
1}
0|
1x
0"!
0#!
0}
1$!
1"!
1~
1y
0$!
0~
#720000
0#
0v
0w
#730000
1#
1v
1w
1,"
0-"
1."
00"
11"
02"
13"
06"
1>"
0.!
1|
0x
1*"
1p!
1W!
0("
0n!
0V!
0T!
1&"
1l!
1S!
1Q!
0#"
0h!
0M!
0K!
1!"
1f!
1J!
1H!
0}!
0d!
0G!
0E!
1{!
1b!
1D!
1B!
0u!
0\!
0;!
09!
1}
00!
0y
1~
#740000
0#
0v
0w
01!
0P
0I
#750000
1#
1v
1w
1="
0,"
1-"
0/"
10"
01"
12"
05"
0>"
0!!
0}
0|
1x
0*"
0p!
0W!
1("
1n!
1V!
1T!
0j!
0P!
0N!
1#"
1h!
1M!
1K!
0!"
0f!
0J!
0H!
1}!
1d!
1G!
1E!
0w!
0^!
0>!
0<!
1#!
1!!
1}
0"!
0~
1y
0#!
1$!
1"!
1~
0$!
#760000
1!
0#
12!
0v
0w
13!
#770000
1#
1v
1w
1,"
0."
1/"
00"
11"
04"
17"
1>"
1|
0x
1*"
1p!
1W!
0&"
0l!
0S!
0Q!
1j!
1P!
1N!
0#"
0h!
0M!
0K!
1!"
1f!
1J!
1H!
0y!
0`!
0A!
0?!
1r!
1Y!
18!
15!
0!!
0}
0y
1#!
0"!
0~
1$!
#780000
0!
0#
02!
0v
0w
03!
#790000
1#
1v
1w
1;"
0<"
0="
0-"
1."
0/"
10"
03"
16"
07"
0>"
0)!
0&!
0#!
1!!
1}
0|
1x
0$!
1"!
0("
0n!
0V!
0T!
1&"
1l!
1S!
1Q!
0j!
0P!
0N!
1#"
1h!
1M!
1K!
0{!
0b!
0D!
0B!
1u!
1\!
1;!
19!
0r!
0Y!
08!
05!
1'!
1&!
0}
1$!
0"!
1~
1y
0'!
1(!
0~
0(!
#800000
1!
0#
12!
0v
0w
13!
#810000
1#
1v
1w
0,"
1-"
0."
1/"
02"
15"
06"
17"
1>"
1|
0x
0*"
0p!
0W!
1("
1n!
1V!
1T!
0&"
0l!
0S!
0Q!
1j!
1P!
1N!
0}!
0d!
0G!
0E!
1w!
1^!
1>!
1<!
0u!
0\!
0;!
09!
1r!
1Y!
18!
15!
1}
0y
1~
#820000
0!
0#
02!
0v
0w
03!
#830000
1#
1v
1w
1="
1,"
0-"
1."
01"
14"
05"
16"
07"
0>"
0!!
0}
0|
1x
1*"
1p!
1W!
0("
0n!
0V!
0T!
1&"
1l!
1S!
1Q!
0!"
0f!
0J!
0H!
1y!
1`!
1A!
1?!
0w!
0^!
0>!
0<!
1u!
1\!
1;!
19!
0r!
0Y!
08!
05!
1!!
1}
1"!
0~
1y
0"!
1~
#840000
0#
0v
0w
#850000
1#
1v
1w
0,"
1-"
00"
13"
04"
15"
06"
1>"
1.!
1%!
1|
0x
0*"
0p!
0W!
1("
1n!
1V!
1T!
0#"
0h!
0M!
0K!
1{!
1b!
1D!
1B!
0y!
0`!
0A!
0?!
1w!
1^!
1>!
1<!
0u!
0\!
0;!
09!
0!!
0}
0y
1"!
0~
#860000
1!
0#
12!
0v
0w
13!
#870000
1#
1v
1w
1<"
0="
1,"
0/"
12"
03"
14"
05"
17"
0>"
1Z!
1#!
0%!
1!!
1}
0|
1x
1(!
0"!
1*"
1p!
1W!
0j!
0P!
0N!
1}!
1d!
1G!
1E!
0{!
0b!
0D!
0B!
1y!
1`!
1A!
1?!
0w!
0^!
0>!
0<!
1r!
1Y!
18!
15!
0&!
0Z!
0#!
0}
0$!
0(!
1"!
1~
1y
1'!
1&!
1$!
0~
0'!
1(!
0(!
#880000
0#
0v
0w
#890000
1#
1v
1w
0."
11"
02"
13"
04"
16"
1>"
0.!
1|
0x
0&"
0l!
0S!
0Q!
1!"
1f!
1J!
1H!
0}!
0d!
0G!
0E!
1{!
1b!
1D!
1B!
0y!
0`!
0A!
0?!
1u!
1\!
1;!
19!
1}
0y
1~
#900000
0!
0#
02!
0v
0w
03!
#910000
1#
1v
1w
1="
0-"
10"
01"
12"
03"
15"
07"
0>"
0!!
0}
0|
1x
0("
0n!
0V!
0T!
1#"
1h!
1M!
1K!
0!"
0f!
0J!
0H!
1}!
1d!
1G!
1E!
0{!
0b!
0D!
0B!
1w!
1^!
1>!
1<!
0r!
0Y!
08!
05!
1#!
1!!
1}
0"!
0~
1y
0&!
0#!
0$!
1"!
1~
1'!
1&!
1$!
0'!
1(!
0(!
#920000
0#
0v
0w
#930000
1#
1v
1w
0,"
1/"
00"
11"
02"
14"
06"
1>"
1%!
1|
0x
0*"
0p!
0W!
1j!
1P!
1N!
0#"
0h!
0M!
0K!
1!"
1f!
1J!
1H!
0}!
0d!
0G!
0E!
1y!
1`!
1A!
1?!
0u!
0\!
0;!
09!
1Z!
0!!
0}
1(!
0y
1#!
0"!
0~
0&!
0$!
1'!
0(!
#940000
0#
0v
0w
