SM#2218_Task1/4_Bit_Comparator/simulation/qsim/4_Bit_Comparator.msim.vcd
$comment
	File created using the following command:
		vcd file 4_Bit_Comparator.msim.vcd -direction
$end
$date
	Wed Oct 28 17:12:39 2020
$end
$version
	ModelSim Version 10.5b
$end
$timescale
	1ps
$end

$scope module Two_Bit_Comparator_vlg_vec_tst $end
$var reg 1 ! A0 $end
$var reg 1 " A1 $end
$var reg 1 # B0 $end
$var reg 1 $ B1 $end
$var wire 1 % A_Greater $end
$var wire 1 & B_Greater $end
$var wire 1 ' Equal $end

$scope module i1 $end
$var wire 1 ( gnd $end
$var wire 1 ) vcc $end
$var wire 1 * unknown $end
$var tri1 1 + devclrn $end
$var tri1 1 , devpor $end
$var tri1 1 - devoe $end
$var wire 1 . A_Greater~output_o $end
$var wire 1 / Equal~output_o $end
$var wire 1 0 B_Greater~output_o $end
$var wire 1 1 A1~input_o $end
$var wire 1 2 B1~input_o $end
$var wire 1 3 A0~input_o $end
$var wire 1 4 B0~input_o $end
$var wire 1 5 A_Greater~0_combout $end
$var wire 1 6 Equal~0_combout $end
$var wire 1 7 B_Greater~0_combout $end
$upscope $end
$upscope $end
$enddefinitions $end
#0
$dumpvars
0!
0"
0#
0$
0%
0&
1'
0(
1)
x*
1+
1,
1-
0.
1/
00
01
02
03
04
05
06
07
$end
#25000
1$
12
16
17
10
0/
0'
1&
#50000
1"
0$
11
02
07
15
1.
00
0&
1%
#75000
1#
1$
14
12
17
05
0.
10
1&
0%
#100000
1!
0"
0$
13
01
02
06
07
00
1/
1'
0&
#125000
1$
12
16
17
10
0/
0'
1&
#150000
0#
1"
0$
04
11
02
07
15
1.
00
0&
1%
#175000
1$
12
#200000
0!
0"
0$
03
01
02
06
05
0.
1/
1'
0%
#225000
1#
1$
14
12
16
17
10
0/
0'
1&
#250000
1"
0$
11
02
07
15
1.
00
0&
1%
#275000
1$
12
17
05
0.
10
1&
0%
#300000
1!
0#
0"
0$
13
04
01
02
07
15
1.
00
0&
1%
#325000
1$
12
17
05
0.
10
1&
0%
#350000
1"
0$
11
02
07
15
1.
00
0&
1%
#375000
1#
1$
14
12
06
05
0.
1/
1'
0%
#400000
0!
0"
0$
03
01
02
16
17
10
0/
0'
1&
#425000
1$
12
#450000
0#
1"
0$
04
11
02
07
15
1.
00
0&
1%
#475000
1$
12
06
05
0.
1/
1'
0%
#500000
1!
0"
0$
13
01
02
16
15
1.
0/
0'
1%
#525000
1#
1$
14
12
17
05
0.
10
1&
0%
#550000
1"
0$
11
02
07
15
1.
00
0&
1%
#575000
1$
12
06
05
0.
1/
1'
0%
#600000
0!
0#
0"
0$
03
04
01
02
#625000
1$
12
16
17
10
0/
0'
1&
#650000
1"
0$
11
02
07
15
1.
00
0&
1%
#675000
1#
1$
14
12
17
05
0.
10
1&
0%
#700000
1!
0"
0$
13
01
02
06
07
00
1/
1'
0&
#725000
1$
12
16
17
10
0/
0'
1&
#750000
0#
1"
0$
04
11
02
07
15
1.
00
0&
1%
#775000
1$
12
#800000
0!
0"
0$
03
01
02
06
05
0.
1/
1'
0%
#825000
1#
1$
14
12
16
17
10
0/
0'
1&
#850000
1"
0$
11
02
07
15
1.
00
0&
1%
#875000
1$
12
17
05
0.
10
1&
0%
#900000
1!
0#
0"
0$
13
04
01
02
07
15
1.
00
0&
1%
#925000
1$
12
17
05
0.
10
1&
0%
#950000
1"
0$
11
02
07
15
1.
00
0&
1%
#975000
1#
1$
14
12
06
05
0.
1/
1'
0%
