SM#2218_Task2/UART/simulation/qsim/UART_Transmitter.msim.vcd
$comment
	File created using the following command:
		vcd file UART_Transmitter.msim.vcd -direction
$end
$date
	Mon Nov 23 17:57:39 2020
$end
$version
	ModelSim Version 10.5b
$end
$timescale
	1ps
$end

$scope module UART_Transmitter_vlg_vec_tst $end
$var reg 1 ! CLOCK $end
$var reg 8 " TX_BYTE [7:0] $end
$var reg 1 # TX_DATA_VALID $end
$var wire 1 $ O_TX_DONE $end
$var wire 1 % O_TX_SERIAL $end

$scope module i1 $end
$var wire 1 & gnd $end
$var wire 1 ' vcc $end
$var wire 1 ( unknown $end
$var tri1 1 ) devclrn $end
$var tri1 1 * devpor $end
$var tri1 1 + devoe $end
$var wire 1 , TX_BYTE[0]~input_o $end
$var wire 1 - TX_BYTE[1]~input_o $end
$var wire 1 . TX_BYTE[2]~input_o $end
$var wire 1 / TX_BYTE[3]~input_o $end
$var wire 1 0 TX_BYTE[4]~input_o $end
$var wire 1 1 TX_BYTE[5]~input_o $end
$var wire 1 2 TX_BYTE[6]~input_o $end
$var wire 1 3 TX_BYTE[7]~input_o $end
$var wire 1 4 O_TX_SERIAL~output_o $end
$var wire 1 5 O_TX_DONE~output_o $end
$var wire 1 6 CLOCK~input_o $end
$var wire 1 7 CLOCK~inputclkctrl_outclk $end
$var wire 1 8 r_state~9_combout $end
$var wire 1 9 r_state.CLEANUP~q $end
$var wire 1 : next[0]~0_combout $end
$var wire 1 ; next[1]~2_combout $end
$var wire 1 < next[2]~1_combout $end
$var wire 1 = TX_DATA_VALID~input_o $end
$var wire 1 > Selector14~0_combout $end
$var wire 1 ? r_state.IDLE~q $end
$var wire 1 @ Selector16~0_combout $end
$var wire 1 A Selector9~0_combout $end
$var wire 1 B Selector9~1_combout $end
$var wire 1 C Selector16~1_combout $end
$var wire 1 D r_state.TX_DATA_BITS~q $end
$var wire 1 E Selector9~2_combout $end
$var wire 1 F r_clock_count[8]~2_combout $end
$var wire 1 G Add0~0_combout $end
$var wire 1 H Add0~21_combout $end
$var wire 1 I Add0~1 $end
$var wire 1 J Add0~2_combout $end
$var wire 1 K Add0~22_combout $end
$var wire 1 L Add0~3 $end
$var wire 1 M Add0~4_combout $end
$var wire 1 N Add0~23_combout $end
$var wire 1 O Add0~5 $end
$var wire 1 P Add0~6_combout $end
$var wire 1 Q Add0~24_combout $end
$var wire 1 R Add0~7 $end
$var wire 1 S Add0~8_combout $end
$var wire 1 T Add0~19_combout $end
$var wire 1 U Add0~9 $end
$var wire 1 V Add0~10_combout $end
$var wire 1 W Add0~20_combout $end
$var wire 1 X Add0~11 $end
$var wire 1 Y Add0~12_combout $end
$var wire 1 Z Add0~18_combout $end
$var wire 1 [ Add0~13 $end
$var wire 1 \ Add0~14_combout $end
$var wire 1 ] r_clock_count[7]~3_combout $end
$var wire 1 ^ Add0~15 $end
$var wire 1 _ Add0~16_combout $end
$var wire 1 ` r_clock_count[8]~4_combout $end
$var wire 1 a LessThan1~0_combout $end
$var wire 1 b LessThan1~1_combout $end
$var wire 1 c LessThan1~2_combout $end
$var wire 1 d Selector15~0_combout $end
$var wire 1 e Selector15~1_combout $end
$var wire 1 f r_state.TX_START_BIT~q $end
$var wire 1 g Selector11~0_combout $end
$var wire 1 h r_bit_index~2_combout $end
$var wire 1 i Selector11~1_combout $end
$var wire 1 j r_state.TX_STOP_BIT~1_combout $end
$var wire 1 k r_state.TX_STOP_BIT~0_combout $end
$var wire 1 l r_state.TX_STOP_BIT~2_combout $end
$var wire 1 m r_state.TX_STOP_BIT~q $end
$var wire 1 n Selector10~0_combout $end
$var wire 1 o Selector10~1_combout $end
$var wire 1 p Equal0~0_combout $end
$var wire 1 q Equal0~1_combout $end
$var wire 1 r Selector12~2_combout $end
$var wire 1 s Selector12~1_combout $end
$var wire 1 t r_data_bits~1_combout $end
$var wire 1 u Equal1~0_combout $end
$var wire 1 v r_data_bits~0_combout $end
$var wire 1 w Mux0~0_combout $end
$var wire 1 x Mux0~1_combout $end
$var wire 1 y Selector12~0_combout $end
$var wire 1 z Selector12~3_combout $end
$var wire 1 { O_TX_SERIAL~reg0_q $end
$var wire 1 | Selector13~0_combout $end
$var wire 1 } Selector13~1_combout $end
$var wire 1 ~ r_TX_DONE~q $end
$var wire 1 !! r_data_bits [7] $end
$var wire 1 "! r_data_bits [6] $end
$var wire 1 #! r_data_bits [5] $end
$var wire 1 $! r_data_bits [4] $end
$var wire 1 %! r_data_bits [3] $end
$var wire 1 &! r_data_bits [2] $end
$var wire 1 '! r_data_bits [1] $end
$var wire 1 (! r_data_bits [0] $end
$var wire 1 )! r_bit_index [2] $end
$var wire 1 *! r_bit_index [1] $end
$var wire 1 +! r_bit_index [0] $end
$var wire 1 ,! r_clock_count [8] $end
$var wire 1 -! r_clock_count [7] $end
$var wire 1 .! r_clock_count [6] $end
$var wire 1 /! r_clock_count [5] $end
$var wire 1 0! r_clock_count [4] $end
$var wire 1 1! r_clock_count [3] $end
$var wire 1 2! r_clock_count [2] $end
$var wire 1 3! r_clock_count [1] $end
$var wire 1 4! r_clock_count [0] $end
$var wire 1 5! next [2] $end
$var wire 1 6! next [1] $end
$var wire 1 7! next [0] $end
$upscope $end
$upscope $end
$enddefinitions $end
#0
$dumpvars
0!
b0 "
1#
0$
0%
0&
1'
x(
1)
1*
1+
0,
0-
0.
0/
00
01
02
03
04
05
06
07
08
09
0:
0;
0<
1=
1>
0?
0@
0A
0B
0C
0D
1E
1F
1G
0H
0I
0J
0K
1L
0M
0N
0O
0P
0Q
1R
0S
0T
0U
0V
0W
1X
0Y
0Z
0[
0\
0]
1^
0_
0`
0a
1b
0c
1d
1e
0f
0g
1h
0i
0j
0k
0l
0m
0n
0o
1p
1q
0r
1s
0t
0u
1v
0w
0x
0y
1z
0{
0|
1}
0~
0(!
0'!
0&!
0%!
z$!
z#!
0"!
z!!
0+!
0*!
0)!
04!
03!
02!
01!
00!
0/!
0.!
0-!
0,!
07!
06!
05!
$end
#20000
1!
16
17
1f
1?
1~
1{
14
15
0E
0s
0d
0F
1$
1%
0}
0z
1H
#40000
0!
06
07
#60000
1!
16
17
14!
0~
0{
04
05
0b
1I
0G
0$
0%
1J
0H
1K
#80000
0!
06
07
#100000
1!
16
17
13!
04!
0L
0J
0I
1G
1M
1L
1J
0K
1H
0M
1N
1K
0N
#120000
0!
06
07
#140000
1!
16
17
14!
1I
0G
0L
0J
0H
1M
0K
1N
#160000
0!
06
07
#180000
1!
16
17
12!
03!
04!
1O
0M
1L
1J
0I
1G
1P
0O
1M
0J
0N
1K
1H
0P
1Q
1N
0K
0Q
#200000
0!
06
07
#220000
1!
16
17
14!
1I
0G
1J
0H
1K
#240000
0!
06
07
#260000
1!
16
17
13!
04!
0L
0J
0I
1G
1O
0M
1L
1J
0K
1H
1P
0O
1M
0N
1K
0P
1Q
1N
0Q
#280000
0!
06
07
#300000
1!
16
17
14!
1I
0G
0L
0J
0H
1O
0M
0K
1P
0N
1Q
#320000
0!
06
07
#340000
1!
16
17
11!
02!
03!
04!
0R
0P
0O
1M
1L
1J
0I
1G
1S
1R
1P
0M
0J
0Q
1N
1K
1H
0S
1T
1Q
0N
0K
0T
#360000
0!
06
07
#380000
1!
16
17
14!
1I
0G
1J
0H
1K
#400000
0!
06
07
#420000
1!
16
17
13!
04!
0L
0J
0I
1G
1M
1L
1J
0K
1H
0M
1N
1K
0N
#440000
0!
06
07
#460000
1!
16
17
14!
1I
0G
0L
0J
0H
1M
0K
1N
#480000
0!
06
07
#500000
1!
16
17
12!
03!
04!
1O
0M
1L
1J
0I
1G
0R
0P
0O
1M
0J
0N
1K
1H
1S
1R
1P
0Q
1N
0K
0S
1T
1Q
0T
#520000
0!
06
07
#540000
1!
16
17
14!
1I
0G
1J
0H
1K
#560000
0!
06
07
#580000
1!
16
17
13!
04!
0L
0J
0I
1G
1O
0M
1L
1J
0K
1H
0R
0P
0O
1M
0N
1K
1S
1R
1P
0Q
1N
0S
1T
1Q
0T
#600000
0!
06
07
#620000
1!
16
17
14!
1I
0G
0L
0J
0H
1O
0M
0K
0R
0P
0N
1S
0Q
1T
#640000
0!
06
07
#660000
1!
16
17
10!
01!
02!
03!
04!
1U
0S
1b
1R
1P
0O
1M
1L
1J
0I
1G
1V
0U
1S
0P
0M
0J
0T
1Q
1N
1K
1H
0V
1W
1T
0Q
0N
0K
0W
#680000
0!
06
07
#700000
1!
16
17
14!
0b
1I
0G
1J
0H
1K
#720000
0!
06
07
#740000
1!
16
17
13!
04!
0L
0J
0I
1G
1M
1L
1J
0K
1H
0M
1N
1K
0N
#760000
0!
06
07
#780000
1!
16
17
14!
1I
0G
0L
0J
0H
1M
0K
1N
#800000
0!
06
07
#820000
1!
16
17
12!
03!
04!
1O
0M
1L
1J
0I
1G
1P
0O
1M
0J
0N
1K
1H
0P
1Q
1N
0K
0Q
#840000
0!
06
07
#860000
1!
16
17
14!
1I
0G
1J
0H
1K
#880000
0!
06
07
#900000
1!
16
17
13!
04!
0L
0J
0I
1G
1O
0M
1L
1J
0K
1H
1P
0O
1M
0N
1K
0P
1Q
1N
0Q
#920000
0!
06
07
#940000
1!
16
17
14!
1I
0G
0L
0J
0H
1O
0M
0K
1P
0N
1Q
#960000
0!
06
07
#980000
1!
16
17
11!
02!
03!
04!
0R
0P
0O
1M
1L
1J
0I
1G
1U
0S
1R
1P
0M
0J
0Q
1N
1K
1H
1V
0U
1S
0T
1Q
0N
0K
0V
1W
1T
0W
#1000000
0!
06
07
#1020000
1!
16
17
14!
1I
0G
1J
0H
1K
#1040000
0!
06
07
#1060000
1!
16
17
13!
04!
0L
0J
0I
1G
1M
1L
1J
0K
1H
0M
1N
1K
0N
#1080000
0!
06
07
#1100000
1!
16
17
14!
1I
0G
0L
0J
0H
1M
0K
1N
#1120000
0!
06
07
#1140000
1!
16
17
12!
03!
04!
1O
0M
1L
1J
0I
1G
0R
0P
0O
1M
0J
0N
1K
1H
1U
0S
1R
1P
0Q
1N
0K
1V
0U
1S
0T
1Q
0V
1W
1T
0W
#1160000
0!
06
07
#1180000
1!
16
17
14!
1I
0G
1J
0H
1K
#1200000
0!
06
07
#1220000
1!
16
17
13!
04!
0L
0J
0I
1G
1O
0M
1L
1J
0K
1H
0R
0P
0O
1M
0N
1K
1U
0S
1R
1P
0Q
1N
1V
0U
1S
0T
1Q
0V
1W
1T
0W
#1240000
0!
06
07
#1260000
1!
16
17
14!
1I
0G
0L
0J
0H
1O
0M
0K
0R
0P
0N
1U
0S
0Q
1V
0T
1W
#1280000
0!
06
07
#1300000
1!
16
17
1/!
00!
01!
02!
03!
04!
0X
0V
0U
1S
1b
1R
1P
0O
1M
1L
1J
0I
1G
1Y
1X
1V
0S
0P
0M
0J
0W
1T
1Q
1N
1K
1H
0Y
1Z
1W
0T
0Q
0N
0K
0Z
#1320000
0!
06
07
#1340000
1!
16
17
14!
0b
1I
0G
1J
0H
1K
#1360000
0!
06
07
#1380000
1!
16
17
13!
04!
0L
0J
0I
1G
1M
1L
1J
0K
1H
0M
1N
1K
0N
#1400000
0!
06
07
#1420000
1!
16
17
14!
1I
0G
0L
0J
0H
1M
0K
1N
#1440000
0!
06
07
#1460000
1!
16
17
12!
03!
04!
1O
0M
1L
1J
0I
1G
1P
0O
1M
0J
0N
1K
1H
0P
1Q
1N
0K
0Q
#1480000
0!
06
07
#1500000
1!
16
17
14!
1I
0G
1J
0H
1K
#1520000
0!
06
07
#1540000
1!
16
17
13!
04!
0L
0J
0I
1G
1O
0M
1L
1J
0K
1H
1P
0O
1M
0N
1K
0P
1Q
1N
0Q
#1560000
0!
06
07
#1580000
1!
16
17
14!
1I
0G
0L
0J
0H
1O
0M
0K
1P
0N
1Q
#1600000
0!
06
07
#1620000
1!
16
17
11!
02!
03!
04!
0R
0P
0O
1M
1L
1J
0I
1G
1S
1R
1P
0M
0J
0Q
1N
1K
1H
0S
1T
1Q
0N
0K
0T
#1640000
0!
06
07
#1660000
1!
16
17
14!
1I
0G
1J
0H
1K
#1680000
0!
06
07
#1700000
1!
16
17
13!
04!
0L
0J
0I
1G
1M
1L
1J
0K
1H
0M
1N
1K
0N
#1720000
0!
06
07
#1740000
1!
16
17
14!
1I
0G
0L
0J
0H
1M
0K
1N
#1760000
0!
06
07
#1780000
1!
16
17
12!
03!
04!
1O
0M
1L
1J
0I
1G
0R
0P
0O
1M
0J
0N
1K
1H
1S
1R
1P
0Q
1N
0K
0S
1T
1Q
0T
#1800000
0!
06
07
#1820000
1!
16
17
14!
1I
0G
1J
0H
1K
#1840000
0!
06
07
#1860000
1!
16
17
13!
04!
0L
0J
0I
1G
1O
0M
1L
1J
0K
1H
0R
0P
0O
1M
0N
1K
1S
1R
1P
0Q
1N
0S
1T
1Q
0T
#1880000
0!
06
07
#1900000
1!
16
17
14!
1I
0G
0L
0J
0H
1O
0M
0K
0R
0P
0N
1S
0Q
1T
#1920000
0!
06
07
#1940000
1!
16
17
10!
01!
02!
03!
04!
1U
0S
1b
1R
1P
0O
1M
1L
1J
0I
1G
0X
0V
0U
1S
0P
0M
0J
0T
1Q
1N
1K
1H
1Y
1X
1V
0W
1T
0Q
0N
0K
0Y
1Z
1W
0Z
#1960000
0!
06
07
#1980000
1!
16
17
14!
0b
1I
0G
1J
0H
1K
#2000000
0!
06
07
#2020000
1!
16
17
13!
04!
0L
0J
0I
1G
1M
1L
1J
0K
1H
0M
1N
1K
0N
#2040000
0!
06
07
#2060000
1!
16
17
14!
1I
0G
0L
0J
0H
1M
0K
1N
#2080000
0!
06
07
#2100000
1!
16
17
12!
03!
04!
1O
0M
1L
1J
0I
1G
1P
0O
1M
0J
0N
1K
1H
0P
1Q
1N
0K
0Q
#2120000
0!
06
07
#2140000
1!
16
17
14!
1I
0G
1J
0H
1K
#2160000
0!
06
07
#2180000
1!
16
17
13!
04!
0L
0J
0I
1G
1O
0M
1L
1J
0K
1H
1P
0O
1M
0N
1K
0P
1Q
1N
0Q
#2200000
0!
06
07
#2220000
1!
16
17
14!
1I
0G
0L
0J
0H
1O
0M
0K
1P
0N
1Q
#2240000
0!
06
07
#2260000
1!
16
17
11!
02!
03!
04!
0R
0P
0O
1M
1L
1J
0I
1G
1U
0S
1R
1P
0M
0J
0Q
1N
1K
1H
0X
0V
0U
1S
0T
1Q
0N
0K
1Y
1X
1V
0W
1T
0Y
1Z
1W
0Z
#2280000
0!
06
07
#2300000
1!
16
17
14!
1I
0G
1J
0H
1K
#2320000
0!
06
07
#2340000
1!
16
17
13!
04!
0L
0J
0I
1G
1M
1L
1J
0K
1H
0M
1N
1K
0N
#2360000
0!
06
07
#2380000
1!
16
17
14!
1I
0G
0L
0J
0H
1M
0K
1N
#2400000
0!
06
07
#2420000
1!
16
17
12!
03!
04!
1O
0M
1L
1J
0I
1G
0R
0P
0O
1M
0J
0N
1K
1H
1U
0S
1R
1P
0Q
1N
0K
0X
0V
0U
1S
0T
1Q
1Y
1X
1V
0W
1T
0Y
1Z
1W
0Z
#2440000
0!
06
07
#2460000
1!
16
17
14!
1I
0G
1J
0H
1K
#2480000
0!
06
07
#2500000
1!
16
17
13!
04!
0L
0J
0I
1G
1O
0M
1L
1J
0K
1H
0R
0P
0O
1M
0N
1K
1U
0S
1R
1P
0Q
1N
0X
0V
0U
1S
0T
1Q
1Y
1X
1V
0W
1T
0Y
1Z
1W
0Z
#2520000
0!
06
07
#2540000
1!
16
17
14!
1I
0G
0L
0J
0H
1O
0M
0K
0R
0P
0N
1U
0S
0Q
0X
0V
0T
1Y
0W
1Z
#2560000
0!
06
07
#2580000
1!
16
17
1.!
0/!
00!
01!
02!
03!
04!
1[
0Y
1X
1V
0U
1S
1b
1R
1P
0O
1M
1L
1J
0I
1G
1\
0[
1Y
0V
0S
0P
0M
0J
0Z
1W
1T
1Q
1N
1K
1H
0\
1]
1Z
0W
0T
0Q
0N
0K
0]
#2600000
0!
06
07
#2620000
1!
16
17
14!
0b
1I
0G
1J
0H
1K
#2640000
0!
06
07
#2660000
1!
16
17
13!
04!
0L
0J
0I
1G
1M
1L
1J
0K
1H
0M
1N
1K
0N
#2680000
0!
06
07
#2700000
1!
16
17
14!
1I
0G
0L
0J
0H
1M
0K
1N
#2720000
0!
06
07
#2740000
1!
16
17
12!
03!
04!
1O
0M
1L
1J
0I
1G
1P
0O
1M
0J
0N
1K
1H
0P
1Q
1N
0K
0Q
#2760000
0!
06
07
#2780000
1!
16
17
14!
1I
0G
1J
0H
1K
#2800000
0!
06
07
#2820000
1!
16
17
13!
04!
0L
0J
0I
1G
1O
0M
1L
1J
0K
1H
1P
0O
1M
0N
1K
0P
1Q
1N
0Q
#2840000
0!
06
07
#2860000
1!
16
17
14!
1I
0G
0L
0J
0H
1O
0M
0K
1P
0N
1Q
#2880000
0!
06
07
#2900000
1!
16
17
11!
02!
03!
04!
0R
0P
0O
1M
1L
1J
0I
1G
1S
1R
1P
0M
0J
0Q
1N
1K
1H
0S
1T
1Q
0N
0K
0T
#2920000
0!
06
07
#2940000
1!
16
17
14!
1I
0G
1J
0H
1K
#2960000
0!
06
07
#2980000
1!
16
17
13!
04!
0L
0J
0I
1G
1M
1L
1J
0K
1H
0M
1N
1K
0N
#3000000
0!
06
07
#3020000
1!
16
17
14!
1I
0G
0L
0J
0H
1M
0K
1N
#3040000
0!
06
07
#3060000
1!
16
17
12!
03!
04!
1O
0M
1L
1J
0I
1G
0R
0P
0O
1M
0J
0N
1K
1H
1S
1R
1P
0Q
1N
0K
0S
1T
1Q
0T
#3080000
0!
06
07
#3100000
1!
16
17
14!
1I
0G
1J
0H
1K
#3120000
0!
06
07
#3140000
1!
16
17
13!
04!
0L
0J
0I
1G
1O
0M
1L
1J
0K
1H
0R
0P
0O
1M
0N
1K
1S
1R
1P
0Q
1N
0S
1T
1Q
0T
#3160000
0!
06
07
#3180000
1!
16
17
14!
1I
0G
0L
0J
0H
1O
0M
0K
0R
0P
0N
1S
0Q
1T
#3200000
0!
06
07
#3220000
1!
16
17
10!
01!
02!
03!
04!
1U
0S
1b
1R
1P
0O
1M
1L
1J
0I
1G
1V
0U
1S
0P
0M
0J
0T
1Q
1N
1K
1H
0V
1W
1T
0Q
0N
0K
0W
#3240000
0!
06
07
#3260000
1!
16
17
14!
0b
1I
0G
1J
0H
1K
#3280000
0!
06
07
#3300000
1!
16
17
13!
04!
0L
0J
0I
1G
1M
1L
1J
0K
1H
0M
1N
1K
0N
#3320000
0!
06
07
#3340000
1!
16
17
14!
1I
0G
0L
0J
0H
1M
0K
1N
#3360000
0!
06
07
#3380000
1!
16
17
12!
03!
04!
1O
0M
1L
1J
0I
1G
1P
0O
1M
0J
0N
1K
1H
0P
1Q
1N
0K
0Q
#3400000
0!
06
07
#3420000
1!
16
17
14!
1I
0G
1J
0H
1K
#3440000
0!
06
07
#3460000
1!
16
17
13!
04!
0L
0J
0I
1G
1O
0M
1L
1J
0K
1H
1P
0O
1M
0N
1K
0P
1Q
1N
0Q
#3480000
0!
06
07
#3500000
1!
16
17
14!
1I
0G
0L
0J
0H
1O
0M
0K
1P
0N
1Q
#3520000
0!
06
07
#3540000
1!
16
17
11!
02!
03!
04!
0R
0P
0O
1M
1L
1J
0I
1G
1U
0S
1R
1P
0M
0J
0Q
1N
1K
1H
1V
0U
1S
0T
1Q
0N
0K
0V
1W
1T
0W
#3560000
0!
06
07
#3580000
1!
16
17
14!
1I
0G
1J
0H
1K
#3600000
0!
06
07
#3620000
1!
16
17
13!
04!
0L
0J
0I
1G
1M
1L
1J
0K
1H
0M
1N
1K
0N
#3640000
0!
06
07
#3660000
1!
16
17
14!
1I
0G
0L
0J
0H
1M
0K
1N
#3680000
0!
06
07
#3700000
1!
16
17
12!
03!
04!
1O
0M
1L
1J
0I
1G
0R
0P
0O
1M
0J
0N
1K
1H
1U
0S
1R
1P
0Q
1N
0K
1V
0U
1S
0T
1Q
0V
1W
1T
0W
#3720000
0!
06
07
#3740000
1!
16
17
14!
1I
0G
1J
0H
1K
#3760000
0!
06
07
#3780000
1!
16
17
13!
04!
0L
0J
0I
1G
1O
0M
1L
1J
0K
1H
0R
0P
0O
1M
0N
1K
1U
0S
1R
1P
0Q
1N
1V
0U
1S
0T
1Q
0V
1W
1T
0W
#3800000
0!
06
07
#3820000
1!
16
17
14!
1I
0G
0L
0J
0H
1O
0M
0K
0R
0P
0N
1U
0S
0Q
1V
0T
1W
#3840000
0!
06
07
#3860000
1!
16
17
1/!
00!
01!
02!
03!
04!
0X
0V
0U
1S
1b
1R
1P
0O
1M
1L
1J
0I
1G
1[
0Y
1X
1V
0S
0P
0M
0J
0W
1T
1Q
1N
1K
1H
1\
0[
1Y
0Z
1W
0T
0Q
0N
0K
0\
1]
1Z
0]
#3880000
0!
06
07
#3900000
1!
16
17
14!
0b
1I
0G
1J
0H
1K
#3920000
0!
06
07
#3940000
1!
16
17
13!
04!
0L
0J
0I
1G
1M
1L
1J
0K
1H
0M
1N
1K
0N
#3960000
0!
06
07
#3980000
1!
16
17
14!
1I
0G
0L
0J
0H
1M
0K
1N
#4000000
0!
06
07
#4020000
1!
16
17
12!
03!
04!
1O
0M
1L
1J
0I
1G
1P
0O
1M
0J
0N
1K
1H
0P
1Q
1N
0K
0Q
#4040000
0!
06
07
#4060000
1!
16
17
14!
1I
0G
1J
0H
1K
#4080000
0!
06
07
#4100000
1!
16
17
13!
04!
0L
0J
0I
1G
1O
0M
1L
1J
0K
1H
1P
0O
1M
0N
1K
0P
1Q
1N
0Q
#4120000
0!
06
07
#4140000
1!
16
17
14!
1I
0G
0L
0J
0H
1O
0M
0K
1P
0N
1Q
#4160000
0!
06
07
#4180000
1!
16
17
11!
02!
03!
04!
0R
0P
0O
1M
1L
1J
0I
1G
1S
1R
1P
0M
0J
0Q
1N
1K
1H
0S
1T
1Q
0N
0K
0T
#4200000
0!
06
07
#4220000
1!
16
17
14!
1I
0G
1J
0H
1K
#4240000
0!
06
07
#4260000
1!
16
17
13!
04!
0L
0J
0I
1G
1M
1L
1J
0K
1H
0M
1N
1K
0N
#4280000
0!
06
07
#4300000
1!
16
17
14!
1I
0G
0L
0J
0H
1M
0K
1N
#4320000
0!
06
07
#4340000
1!
16
17
12!
03!
04!
1O
0M
1L
1J
0I
1G
0R
0P
0O
1M
0J
0N
1K
1H
1S
1R
1P
0Q
1N
0K
0S
1T
1Q
0T
#4360000
0!
06
07
#4380000
1!
16
17
14!
1I
0G
1J
0H
1K
#4400000
0!
06
07
#4420000
1!
16
17
13!
04!
0L
0J
0I
1G
1O
0M
1L
1J
0K
1H
0R
0P
0O
1M
0N
1K
1S
1R
1P
0Q
1N
0S
1T
1Q
0T
#4440000
0!
06
07
#4460000
1!
16
17
14!
1I
0G
0L
0J
0H
1O
0M
0K
0R
0P
0N
1S
0Q
1T
#4480000
0!
06
07
#4500000
1!
16
17
10!
01!
02!
03!
04!
1U
0S
1b
1R
1P
0O
1M
1L
1J
0I
1G
0X
0V
0U
1S
0P
0M
0J
0T
1Q
1N
1K
1H
1[
0Y
1X
1V
0W
1T
0Q
0N
0K
1\
0[
1Y
0Z
1W
0\
1]
1Z
0]
#4520000
0!
06
07
#4540000
1!
16
17
14!
0b
1I
0G
1J
0H
1K
#4560000
0!
06
07
#4580000
1!
16
17
13!
04!
0L
0J
0I
1G
1M
1L
1J
0K
1H
0M
1N
1K
0N
#4600000
0!
06
07
#4620000
1!
16
17
14!
1I
0G
0L
0J
0H
1M
0K
1N
#4640000
0!
06
07
#4660000
1!
16
17
12!
03!
04!
1O
0M
1L
1J
0I
1G
1P
0O
1M
0J
0N
1K
1H
0P
1Q
1N
0K
0Q
#4680000
0!
06
07
#4700000
1!
16
17
14!
1I
0G
1J
0H
1K
#4720000
0!
06
07
#4740000
1!
16
17
13!
04!
0L
0J
0I
1G
1O
0M
1L
1J
0K
1H
1P
0O
1M
0N
1K
0P
1Q
1N
0Q
#4760000
0!
06
07
#4780000
1!
16
17
14!
1I
0G
0L
0J
0H
1O
0M
0K
1P
0N
1Q
#4800000
0!
06
07
#4820000
1!
16
17
11!
02!
03!
04!
0R
0P
0O
1M
1L
1J
0I
1G
1U
0S
1R
1P
0M
0J
0Q
1N
1K
1H
0X
0V
0U
1S
0T
1Q
0N
0K
1[
0Y
1X
1V
0W
1T
1\
0[
1Y
0Z
1W
0\
1]
1Z
0]
#4840000
0!
06
07
#4860000
1!
16
17
14!
1I
0G
1J
0H
1K
#4880000
0!
06
07
#4900000
1!
16
17
13!
04!
0L
0J
0I
1G
1M
1L
1J
0K
1H
0M
1N
1K
0N
#4920000
0!
06
07
#4940000
1!
16
17
14!
1I
0G
0L
0J
0H
1M
0K
1N
#4960000
0!
06
07
#4980000
1!
16
17
12!
03!
04!
1O
0M
1L
1J
0I
1G
0R
0P
0O
1M
0J
0N
1K
1H
1U
0S
1R
1P
0Q
1N
0K
0X
0V
0U
1S
0T
1Q
1[
0Y
1X
1V
0W
1T
1\
0[
1Y
0Z
1W
0\
1]
1Z
0]
#5000000
0!
06
07
#5020000
1!
16
17
14!
1I
0G
1J
0H
1K
#5040000
0!
06
07
#5060000
1!
16
17
13!
04!
0L
0J
0I
1G
1O
0M
1L
1J
0K
1H
0R
0P
0O
1M
0N
1K
1U
0S
1R
1P
0Q
1N
0X
0V
0U
1S
0T
1Q
1[
0Y
1X
1V
0W
1T
1\
0[
1Y
0Z
1W
0\
1]
1Z
0]
#5080000
0!
06
07
#5100000
1!
16
17
14!
1I
0G
0L
0J
0H
1O
0M
0K
0R
0P
0N
1U
0S
0Q
0X
0V
0T
1[
0Y
0W
1\
0Z
1]
#5120000
0!
06
07
#5140000
1!
16
17
1-!
0.!
0/!
00!
01!
02!
03!
04!
0^
0\
0[
1Y
1X
1V
0U
1S
1b
1R
1P
0O
1M
1L
1J
0I
1G
1_
1^
1\
0Y
0V
0S
0P
0M
0J
0]
1Z
1W
1T
1Q
1N
1K
1H
0_
1`
1]
0Z
0W
0T
0Q
0N
0K
0`
#5160000
0!
06
07
#5180000
1!
16
17
14!
0b
1I
0G
1J
0H
1K
#5200000
0!
06
07
#5220000
1!
16
17
13!
04!
0L
0J
0I
1G
1M
1L
1J
0K
1H
0M
1N
1K
0N
#5240000
0!
06
07
#5260000
1!
16
17
14!
1I
0G
0L
0J
0H
1M
0K
1N
#5280000
0!
06
07
#5300000
1!
16
17
12!
03!
04!
1O
0M
1L
1J
0I
1G
1P
0O
1M
0J
0N
1K
1H
0P
1Q
1N
0K
0Q
#5320000
0!
06
07
#5340000
1!
16
17
14!
1I
0G
1J
0H
1K
#5360000
0!
06
07
#5380000
1!
16
17
13!
04!
0L
0J
0I
1G
1O
0M
1L
1J
0K
1H
1P
0O
1M
0N
1K
0P
1Q
1N
0Q
#5400000
0!
06
07
#5420000
1!
16
17
14!
1I
0G
0L
0J
0H
1O
0M
0K
1P
0N
1Q
#5440000
0!
06
07
#5460000
1!
16
17
11!
02!
03!
04!
0R
0P
0O
1M
1L
1J
0I
1G
1S
1R
1P
0M
0J
0Q
1N
1K
1H
0S
1T
1Q
0N
0K
0T
#5480000
0!
06
07
#5500000
1!
16
17
14!
1I
0G
1J
0H
1K
#5520000
0!
06
07
#5540000
1!
16
17
13!
04!
0L
0J
0I
1G
1M
1L
1J
0K
1H
0M
1N
1K
0N
#5560000
0!
06
07
#5580000
1!
16
17
14!
1I
0G
0L
0J
0H
1M
0K
1N
#5600000
0!
06
07
#5620000
1!
16
17
12!
03!
04!
1O
0M
1L
1J
0I
1G
0R
0P
0O
1M
0J
0N
1K
1H
1S
1R
1P
0Q
1N
0K
0S
1T
1Q
0T
#5640000
0!
06
07
#5660000
1!
16
17
14!
1I
0G
1J
0H
1K
#5680000
0!
06
07
#5700000
1!
16
17
13!
04!
0L
0J
0I
1G
1O
0M
1L
1J
0K
1H
0R
0P
0O
1M
0N
1K
1S
1R
1P
0Q
1N
0S
1T
1Q
0T
#5720000
0!
06
07
#5740000
1!
16
17
14!
1I
0G
0L
0J
0H
1O
0M
0K
0R
0P
0N
1S
0Q
1T
#5760000
0!
06
07
#5780000
1!
16
17
10!
01!
02!
03!
04!
1U
0S
1b
1R
1P
0O
1M
1L
1J
0I
1G
1V
0U
1S
0P
0M
0J
0T
1Q
1N
1K
1H
0V
1W
1T
0Q
0N
0K
0W
#5800000
0!
06
07
#5820000
1!
16
17
14!
0b
1I
0G
1J
0H
1K
#5840000
0!
06
07
#5860000
1!
16
17
13!
04!
0L
0J
0I
1G
1M
1L
1J
0K
1H
0M
1N
1K
0N
#5880000
0!
06
07
#5900000
1!
16
17
14!
1I
0G
0L
0J
0H
1M
0K
1N
#5920000
0!
06
07
#5940000
1!
16
17
12!
03!
04!
1O
0M
1L
1J
0I
1G
1P
0O
1M
0J
0N
1K
1H
0P
1Q
1N
0K
0Q
#5960000
0!
06
07
#5980000
1!
16
17
14!
1I
0G
1J
0H
1K
#6000000
0!
06
07
#6020000
1!
16
17
13!
04!
0L
0J
0I
1G
1O
0M
1L
1J
0K
1H
1P
0O
1M
0N
1K
0P
1Q
1N
0Q
#6040000
0!
06
07
#6060000
1!
16
17
14!
1I
0G
0L
0J
0H
1O
0M
0K
1P
0N
1Q
#6080000
0!
06
07
#6100000
1!
16
17
11!
02!
03!
04!
0R
0P
0O
1M
1L
1J
0I
1G
1U
0S
1R
1P
0M
0J
0Q
1N
1K
1H
1V
0U
1S
0T
1Q
0N
0K
0V
1W
1T
0W
#6120000
0!
06
07
#6140000
1!
16
17
14!
1I
0G
1J
0H
1K
#6160000
0!
06
07
#6180000
1!
16
17
13!
04!
0L
0J
0I
1G
1M
1L
1J
0K
1H
0M
1N
1K
0N
#6200000
0!
06
07
#6220000
1!
16
17
14!
1I
0G
0L
0J
0H
1M
0K
1N
