SM#2218_Task2/UART/simulation/qsim/UART_Transmitter.msim.vcd
$comment
	File created using the following command:
		vcd file UART_Transmitter.msim.vcd -direction
$end
$date
	Fri Nov 20 23:33:46 2020
$end
$version
	ModelSim Version 10.5b
$end
$timescale
	1ps
$end

$scope module UART_Transmitter_vlg_vec_tst $end
$var reg 1 ! CLOCK $end
$var reg 8 " TX_BYTE [7:0] $end
$var reg 1 # TX_DATA_VALID $end
$var wire 1 $ O_TX_DONE $end
$var wire 1 % O_TX_SERIAL $end

$scope module i1 $end
$var wire 1 & gnd $end
$var wire 1 ' vcc $end
$var wire 1 ( unknown $end
$var tri1 1 ) devclrn $end
$var tri1 1 * devpor $end
$var tri1 1 + devoe $end
$var wire 1 , TX_BYTE[0]~input_o $end
$var wire 1 - TX_BYTE[1]~input_o $end
$var wire 1 . TX_BYTE[2]~input_o $end
$var wire 1 / TX_BYTE[3]~input_o $end
$var wire 1 0 TX_BYTE[4]~input_o $end
$var wire 1 1 TX_BYTE[5]~input_o $end
$var wire 1 2 TX_BYTE[6]~input_o $end
$var wire 1 3 TX_BYTE[7]~input_o $end
$var wire 1 4 O_TX_SERIAL~output_o $end
$var wire 1 5 O_TX_DONE~output_o $end
$var wire 1 6 CLOCK~input_o $end
$var wire 1 7 CLOCK~inputclkctrl_outclk $end
$var wire 1 8 TX_DATA_VALID~input_o $end
$var wire 1 9 Selector9~2_combout $end
$var wire 1 : r_clock_count[8]~0_combout $end
$var wire 1 ; Add0~0_combout $end
$var wire 1 < Add0~8_combout $end
$var wire 1 = Add0~1 $end
$var wire 1 > Add0~2_combout $end
$var wire 1 ? Add0~9_combout $end
$var wire 1 @ Add0~3 $end
$var wire 1 A Add0~4_combout $end
$var wire 1 B r_clock_count[8]~1_combout $end
$var wire 1 C r_clock_count[2]~2_combout $end
$var wire 1 D Add0~5 $end
$var wire 1 E Add0~6_combout $end
$var wire 1 F r_clock_count[3]~3_combout $end
$var wire 1 G Add0~7 $end
$var wire 1 H Add0~10_combout $end
$var wire 1 I r_clock_count[4]~5_combout $end
$var wire 1 J Add0~11 $end
$var wire 1 K Add0~12_combout $end
$var wire 1 L r_clock_count[5]~6_combout $end
$var wire 1 M Add0~13 $end
$var wire 1 N Add0~14_combout $end
$var wire 1 O r_clock_count[6]~7_combout $end
$var wire 1 P Add0~15 $end
$var wire 1 Q Add0~16_combout $end
$var wire 1 R r_clock_count[7]~8_combout $end
$var wire 1 S LessThan0~1_combout $end
$var wire 1 T LessThan0~0_combout $end
$var wire 1 U LessThan0~2_combout $end
$var wire 1 V Selector11~0_combout $end
$var wire 1 W Equal3~0_combout $end
$var wire 1 X r_bit_index~2_combout $end
$var wire 1 Y Selector11~1_combout $end
$var wire 1 Z Selector10~0_combout $end
$var wire 1 [ Selector10~1_combout $end
$var wire 1 \ r_state.TX_STOP_BIT~1_combout $end
$var wire 1 ] r_state.TX_STOP_BIT~2_combout $end
$var wire 1 ^ r_state.TX_STOP_BIT~q $end
$var wire 1 _ Add0~17 $end
$var wire 1 ` Add0~18_combout $end
$var wire 1 a r_clock_count[8]~4_combout $end
$var wire 1 b r_state~9_combout $end
$var wire 1 c r_state.CLEANUP~feeder_combout $end
$var wire 1 d r_state.CLEANUP~q $end
$var wire 1 e Selector14~0_combout $end
$var wire 1 f r_state.IDLE~q $end
$var wire 1 g Selector15~0_combout $end
$var wire 1 h r_state.TX_START_BIT~q $end
$var wire 1 i Selector16~0_combout $end
$var wire 1 j Selector16~1_combout $end
$var wire 1 k r_state.TX_DATA_BITS~q $end
$var wire 1 l Selector9~0_combout $end
$var wire 1 m Selector9~1_combout $end
$var wire 1 n r_state.TX_STOP_BIT~0_combout $end
$var wire 1 o next[0]~0_combout $end
$var wire 1 p next[1]~2_combout $end
$var wire 1 q next[2]~1_combout $end
$var wire 1 r Equal0~0_combout $end
$var wire 1 s Equal0~1_combout $end
$var wire 1 t Selector12~2_combout $end
$var wire 1 u Selector12~1_combout $end
$var wire 1 v Equal1~0_combout $end
$var wire 1 w r_data_bits~1_combout $end
$var wire 1 x r_data_bits~0_combout $end
$var wire 1 y Mux0~0_combout $end
$var wire 1 z Mux0~1_combout $end
$var wire 1 { Selector12~0_combout $end
$var wire 1 | Selector12~3_combout $end
$var wire 1 } O_TX_SERIAL~reg0_q $end
$var wire 1 ~ Selector13~0_combout $end
$var wire 1 !! Selector13~1_combout $end
$var wire 1 "! r_TX_DONE~q $end
$var wire 1 #! r_data_bits [7] $end
$var wire 1 $! r_data_bits [6] $end
$var wire 1 %! r_data_bits [5] $end
$var wire 1 &! r_data_bits [4] $end
$var wire 1 '! r_data_bits [3] $end
$var wire 1 (! r_data_bits [2] $end
$var wire 1 )! r_data_bits [1] $end
$var wire 1 *! r_data_bits [0] $end
$var wire 1 +! r_bit_index [2] $end
$var wire 1 ,! r_bit_index [1] $end
$var wire 1 -! r_bit_index [0] $end
$var wire 1 .! r_clock_count [8] $end
$var wire 1 /! r_clock_count [7] $end
$var wire 1 0! r_clock_count [6] $end
$var wire 1 1! r_clock_count [5] $end
$var wire 1 2! r_clock_count [4] $end
$var wire 1 3! r_clock_count [3] $end
$var wire 1 4! r_clock_count [2] $end
$var wire 1 5! r_clock_count [1] $end
$var wire 1 6! r_clock_count [0] $end
$var wire 1 7! next [2] $end
$var wire 1 8! next [1] $end
$var wire 1 9! next [0] $end
$upscope $end
$upscope $end
$enddefinitions $end
#0
$dumpvars
0!
b0 "
1#
0$
0%
0&
1'
x(
1)
1*
1+
0,
0-
0.
0/
00
01
02
03
04
05
06
07
18
19
1:
1;
0<
0=
0>
0?
1@
0A
0B
0C
0D
0E
0F
1G
0H
0I
0J
0K
0L
1M
0N
0O
0P
0Q
0R
0S
0T
0U
0V
0W
1X
0Y
0Z
0[
0\
0]
0^
1_
0`
0a
0b
0c
0d
1e
0f
1g
0h
0i
0j
0k
0l
0m
0n
0o
0p
0q
1r
1s
0t
1u
0v
0w
1x
0y
0z
0{
1|
0}
0~
1!!
0"!
0*!
0)!
0(!
0'!
z&!
z%!
0$!
z#!
0-!
0,!
0+!
06!
05!
04!
03!
02!
01!
00!
0/!
0.!
09!
08!
07!
$end
#20000
1!
16
17
1h
1f
1"!
1}
14
15
09
0u
0:
1$
1%
0!!
1B
0|
1<
#40000
0!
06
07
#60000
1!
16
17
16!
0"!
0}
04
05
1=
0;
0$
0%
1>
0<
1?
#80000
0!
06
07
#100000
1!
16
17
15!
06!
0@
0>
0=
1;
1A
1@
1>
0?
1<
0A
1C
1?
0C
#120000
0!
06
07
#140000
1!
16
17
16!
1T
1=
0;
1i
0X
1U
0@
0>
0<
1:
1A
1j
0g
0?
0B
1C
0C
#160000
0!
06
07
#180000
1!
16
17
1*!
1$!
1)!
1k
0h
05!
06!
1y
1t
0i
0T
1@
1>
0=
1;
1Y
1z
1X
0U
0A
0>
1{
0:
0Y
1B
1|
1<
#200000
0!
06
07
#220000
1!
16
17
16!
1}
14
1=
0;
1%
1>
0<
1?
#240000
0!
06
07
#260000
1!
16
17
15!
06!
0@
0>
0=
1;
1A
1@
1>
0?
1<
0A
1C
1?
0C
#280000
0!
06
07
#300000
1!
16
17
16!
1T
1=
0;
0X
1U
0@
0>
0<
1:
1A
1Y
0?
0B
1C
0C
#320000
0!
06
07
#340000
1!
16
17
1-!
05!
06!
0t
1Z
0T
1@
1>
0=
1;
0Y
1X
0U
0A
0>
1[
0Z
0:
1Y
1B
0[
1<
#360000
0!
06
07
#380000
1!
16
17
16!
1=
0;
1>
0<
1?
#400000
0!
06
07
#420000
1!
16
17
15!
06!
0@
0>
0=
1;
1A
1@
1>
0?
1<
0A
1C
1?
0C
#440000
0!
06
07
#460000
1!
16
17
16!
1T
1=
0;
0X
1U
0@
0>
0<
1Z
1:
1A
0Y
0?
0B
1[
1C
0C
#480000
0!
06
07
#500000
1!
16
17
1,!
0-!
05!
06!
0z
0y
1t
0T
1@
1>
0=
1;
1Y
0{
1X
0U
0A
0>
0:
0|
0Y
1B
1<
#520000
0!
06
07
#540000
1!
16
17
16!
0}
04
1=
0;
0%
1>
0<
1?
#560000
0!
06
07
#580000
1!
16
17
15!
06!
0@
0>
0=
1;
1A
1@
1>
0?
1<
0A
1C
1?
0C
#600000
0!
06
07
#620000
1!
16
17
16!
1T
1=
0;
0X
1U
0@
0>
0<
1:
1A
1Y
0?
0B
1C
0C
#640000
0!
06
07
#660000
1!
16
17
1-!
05!
06!
1y
0t
1\
0Z
0T
1@
1>
0=
1;
0Y
1X
0U
0A
0>
1m
0[
1Z
0\
0:
1Y
1B
1[
0m
1<
#680000
0!
06
07
#700000
1!
16
17
16!
1=
0;
1>
0<
1?
#720000
0!
06
07
#740000
1!
16
17
15!
06!
0@
0>
0=
1;
1A
1@
1>
0?
1<
0A
1C
1?
0C
#760000
0!
06
07
#780000
1!
16
17
16!
1T
1=
0;
0X
1U
0@
0>
0<
0Z
1\
1:
1A
0Y
0?
0B
0[
1m
1C
0C
#800000
0!
06
07
#820000
1!
16
17
1+!
0,!
0-!
05!
06!
1n
1l
1z
1t
0\
0T
1@
1>
0=
1;
0j
1Y
1X
0U
0A
0>
1|
1j
0:
0Y
1B
1<
#840000
0!
06
07
#860000
1!
16
17
16!
1}
14
1=
0;
1%
1>
0<
1?
#880000
0!
06
07
#900000
1!
16
17
15!
06!
0@
0>
0=
1;
1A
1@
1>
0?
1<
0A
1C
1?
0C
#920000
0!
06
07
#940000
1!
16
17
16!
1T
1=
0;
0X
1U
0@
0>
0<
1:
1A
1Y
0?
0B
1C
0C
#960000
0!
06
07
#980000
1!
16
17
1-!
05!
06!
0t
1Z
0T
1@
1>
0=
1;
0Y
1X
0U
0A
0>
0|
1[
0Z
0:
1Y
1B
0[
1<
#1000000
0!
06
07
#1020000
1!
16
17
16!
0}
04
1=
0;
0%
1>
0<
1?
#1040000
0!
06
07
#1060000
1!
16
17
15!
06!
0@
0>
0=
1;
1A
1@
1>
0?
1<
0A
1C
1?
0C
#1080000
0!
06
07
#1100000
1!
16
17
16!
1T
1=
0;
0X
1U
0@
0>
0<
1Z
1:
1A
0Y
0?
0B
1[
1C
0C
#1120000
0!
06
07
#1140000
1!
16
17
1,!
0-!
05!
06!
0z
0y
1t
0T
1@
1>
0=
1;
1Y
1X
0U
0A
0>
1|
0:
0Y
1B
1<
#1160000
0!
06
07
#1180000
1!
16
17
16!
1}
14
1=
0;
1%
1>
0<
1?
#1200000
0!
06
07
#1220000
1!
16
17
15!
06!
0@
0>
0=
1;
1A
1@
1>
0?
1<
0A
1C
1?
0C
#1240000
0!
06
07
#1260000
1!
16
17
16!
1T
1=
0;
0X
1U
0@
0>
0<
1:
1A
1Y
0?
0B
1C
0C
#1280000
0!
06
07
#1300000
1!
16
17
1-!
05!
06!
1y
0t
1\
0Z
1W
0T
1@
1>
0=
1;
0Y
1X
0U
0A
0>
0|
0j
1]
0[
1Z
0\
0:
1Y
1B
1[
1j
0]
1<
#1320000
0!
06
07
#1340000
1!
16
17
16!
0}
04
1=
0;
0%
1>
0<
1?
#1360000
0!
06
07
#1380000
1!
16
17
15!
06!
0@
0>
0=
1;
1A
1@
1>
0?
1<
0A
1C
1?
0C
#1400000
0!
06
07
#1420000
1!
16
17
16!
1T
1=
0;
1U
0@
0>
0<
1\
1:
1A
0?
0B
0j
1]
1C
0C
#1440000
0!
06
07
#1460000
1!
16
17
0k
1^
05!
06!
0n
0Z
19
1u
1b
1V
0T
1@
1>
0=
1;
0Y
1!!
0:
0b
0U
0A
0>
1|
0]
1c
1Y
1B
0\
1<
0c
1]
#1480000
0!
06
07
#1500000
1!
16
17
16!
1"!
1}
14
15
1=
0;
1$
1%
1>
0<
1?
#1520000
0!
06
07
#1540000
1!
16
17
15!
06!
0@
0>
0=
1;
1A
1@
1>
0?
1<
0A
1C
1?
0C
#1560000
0!
06
07
#1580000
1!
16
17
16!
1T
1=
0;
1b
1U
0@
0>
0<
1\
0B
1A
1c
0]
0?
#1600000
0!
06
07
#1620000
1!
16
17
1d
0^
1~
1:
0l
0b
0V
1B
1o
0e
0!!
0[
0B
1!!
0m
0c
0Y
1C
0C
#1640000
0!
06
07
#1660000
1!
16
17
19!
0+!
0f
0d
0,!
0-!
05!
06!
0W
0~
1z
1t
0\
0T
1@
1>
0=
1;
1w
1v
0r
1g
1e
0U
0A
0>
#1680000
0!
06
07
#1700000
1!
16
17
1h
1f
09
0u
0:
0!!
1B
0|
1<
#1720000
0!
06
07
#1740000
1!
16
17
16!
0"!
0}
04
05
1=
0;
0$
0%
1>
0<
1?
#1760000
0!
06
07
#1780000
1!
16
17
15!
06!
0@
0>
0=
1;
1A
1@
1>
0?
1<
0A
1C
1?
0C
#1800000
0!
06
07
#1820000
1!
16
17
16!
1T
1=
0;
1i
0X
1U
0@
0>
0<
1:
1A
1j
0g
0?
0B
1C
0C
#1840000
0!
06
07
#1860000
1!
16
17
1'!
1(!
0)!
1k
0h
05!
06!
0t
1{
0i
0T
1@
1>
0=
1;
1Y
1X
0U
0A
0>
1|
0:
0Y
1B
1<
#1880000
0!
06
07
#1900000
1!
16
17
16!
1}
14
1=
0;
1%
1>
0<
1?
#1920000
0!
06
07
#1940000
1!
16
17
15!
06!
0@
0>
0=
1;
1A
1@
1>
0?
1<
0A
1C
1?
0C
#1960000
0!
06
07
#1980000
1!
16
17
16!
1T
1=
0;
0X
1U
0@
0>
0<
1:
1A
1Y
0?
0B
1C
0C
#2000000
0!
06
07
#2020000
1!
16
17
1-!
05!
06!
0y
1Z
0T
1@
1>
0=
1;
0Y
0z
1X
0U
0A
0>
1[
0{
0Z
0:
1Y
1B
0|
0[
1<
#2040000
0!
06
07
#2060000
1!
16
17
16!
0}
04
1=
0;
0%
1>
0<
1?
#2080000
0!
06
07
#2100000
1!
16
17
15!
06!
0@
0>
0=
1;
1A
1@
1>
0?
1<
0A
1C
1?
0C
#2120000
0!
06
07
#2140000
1!
16
17
16!
1T
1=
0;
0X
1U
0@
0>
0<
1Z
1:
1A
0Y
0?
0B
1[
1C
0C
#2160000
0!
06
07
#2180000
1!
16
17
1,!
0-!
05!
06!
1z
1t
0T
1@
1>
0=
1;
1Y
1{
1X
0U
0A
0>
0:
1|
0Y
1B
1<
#2200000
0!
06
07
#2220000
1!
16
17
16!
1}
14
1=
0;
1%
1>
0<
1?
#2240000
0!
06
07
#2260000
1!
16
17
15!
06!
0@
0>
0=
1;
1A
1@
1>
0?
1<
0A
1C
1?
0C
#2280000
0!
06
07
#2300000
1!
16
17
16!
1T
1=
0;
0X
1U
0@
0>
0<
1:
1A
1Y
0?
0B
1C
0C
#2320000
0!
06
07
#2340000
1!
16
17
1-!
05!
06!
1y
0t
1\
0Z
0T
1@
1>
0=
1;
0Y
1X
0U
0A
0>
1m
0[
1Z
0\
0:
1Y
1B
1[
0m
1<
#2360000
0!
06
07
#2380000
1!
16
17
16!
1=
0;
1>
0<
1?
#2400000
0!
06
07
#2420000
1!
16
17
15!
06!
0@
0>
0=
1;
1A
1@
1>
0?
1<
0A
1C
1?
0C
#2440000
0!
06
07
#2460000
1!
16
17
16!
1T
1=
0;
0X
1U
0@
0>
0<
0Z
1\
1:
1A
0Y
0?
0B
0[
1m
1C
0C
#2480000
0!
06
07
#2500000
1!
16
17
1+!
0,!
0-!
05!
06!
0{
1n
1l
0\
0T
1@
1>
0=
1;
0j
1Y
1X
0U
0A
0>
0|
1j
0:
0Y
1B
1<
#2520000
0!
06
07
#2540000
1!
16
17
16!
0}
04
1=
0;
0%
1>
0<
1?
#2560000
0!
06
07
#2580000
1!
16
17
15!
06!
0@
0>
0=
1;
1A
1@
1>
0?
1<
0A
1C
1?
0C
#2600000
0!
06
07
#2620000
1!
16
17
16!
1T
1=
0;
0X
1U
0@
0>
0<
1:
1A
1Y
0?
0B
1C
0C
#2640000
0!
06
07
#2660000
1!
16
17
1-!
05!
06!
0y
1Z
0T
1@
1>
0=
1;
0Y
0z
1X
0U
0A
0>
1[
0Z
0:
1Y
1B
0[
1<
#2680000
0!
06
07
#2700000
1!
16
17
16!
1=
0;
1>
0<
1?
#2720000
0!
06
07
#2740000
1!
16
17
15!
06!
0@
0>
0=
1;
1A
1@
1>
0?
1<
0A
1C
1?
0C
#2760000
0!
06
07
#2780000
1!
16
17
16!
1T
1=
0;
0X
1U
0@
0>
0<
1Z
1:
1A
0Y
0?
0B
1[
1C
0C
#2800000
0!
06
07
#2820000
1!
16
17
1,!
0-!
05!
06!
1z
1t
0T
1@
1>
0=
1;
1Y
1X
0U
0A
0>
1|
0:
0Y
1B
1<
#2840000
0!
06
07
#2860000
1!
16
17
16!
1}
14
1=
0;
1%
1>
0<
1?
#2880000
0!
06
07
#2900000
1!
16
17
15!
06!
0@
0>
0=
1;
1A
1@
1>
0?
1<
0A
1C
1?
0C
#2920000
0!
06
07
#2940000
1!
16
17
16!
1T
1=
0;
0X
1U
0@
0>
0<
1:
1A
1Y
0?
0B
1C
0C
#2960000
0!
06
07
#2980000
1!
16
17
1-!
05!
06!
1y
0t
1\
0Z
1W
0T
1@
1>
0=
1;
0Y
1X
0U
0A
0>
0|
0j
1]
0[
1Z
0\
0:
1Y
1B
1[
1j
0]
1<
#3000000
0!
06
07
#3020000
1!
16
17
16!
0}
04
1=
0;
0%
1>
0<
1?
#3040000
0!
06
07
#3060000
1!
16
17
15!
06!
0@
0>
0=
1;
1A
1@
1>
0?
1<
0A
1C
1?
0C
#3080000
0!
06
07
#3100000
1!
16
17
16!
1T
1=
0;
1U
0@
0>
0<
1\
1:
1A
0?
0B
0j
1]
1C
0C
#3120000
0!
06
07
#3140000
1!
16
17
0k
1^
05!
06!
0n
0Z
19
1u
1b
1V
0T
1@
1>
0=
1;
0Y
1!!
0:
0b
0U
0A
0>
1|
0]
1c
1Y
1B
0\
1<
0c
1]
#3160000
0!
06
07
#3180000
1!
16
17
16!
1"!
1}
14
15
1=
0;
1$
1%
1>
0<
1?
#3200000
0!
06
07
#3220000
1!
16
17
15!
06!
0@
0>
0=
1;
1A
1@
1>
0?
1<
0A
1C
1?
0C
#3240000
0!
06
07
#3260000
1!
16
17
16!
1T
1=
0;
1b
1U
0@
0>
0<
1\
0B
1A
1c
0]
0?
#3280000
0!
06
07
#3300000
1!
16
17
1d
0^
1~
1:
0l
0b
0V
1B
1p
0o
0e
0!!
0[
0B
1!!
0m
0c
0Y
1C
0C
#3320000
0!
06
07
#3340000
1!
16
17
18!
09!
0+!
0f
0d
0,!
0-!
05!
06!
0W
0~
0\
0T
1@
1>
0=
1;
0v
0s
0w
1g
1e
0U
0A
0>
#3360000
0!
06
07
#3380000
1!
16
17
1h
1f
09
0u
0:
0!!
1B
0|
1<
#3400000
0!
06
07
#3420000
1!
16
17
16!
0"!
0}
04
05
1=
0;
0$
0%
1>
0<
1?
#3440000
0!
06
07
#3460000
1!
16
17
15!
06!
0@
0>
0=
1;
1A
1@
1>
0?
1<
0A
1C
1?
0C
#3480000
0!
06
07
#3500000
1!
16
17
16!
1T
1=
0;
1i
0X
1U
0@
0>
0<
1:
1A
1j
0g
0?
0B
1C
0C
#3520000
0!
06
07
#3540000
1!
16
17
0'!
0(!
0$!
1k
0h
05!
06!
1{
0i
0T
1@
1>
0=
1;
1Y
1X
0U
0A
0>
1|
0:
0Y
1B
1<
#3560000
0!
06
07
#3580000
1!
16
17
16!
1}
14
1=
0;
1%
1>
0<
1?
#3600000
0!
06
07
#3620000
1!
16
17
15!
06!
0@
0>
0=
1;
1A
1@
1>
0?
1<
0A
1C
1?
0C
#3640000
0!
06
07
#3660000
1!
16
17
16!
1T
1=
0;
0X
1U
0@
0>
0<
1:
1A
1Y
0?
0B
1C
0C
#3680000
0!
06
07
#3700000
1!
16
17
1-!
05!
06!
0y
1Z
0T
1@
1>
0=
1;
0Y
0z
1X
0U
0A
0>
1[
0{
0Z
0:
1Y
1B
0|
0[
1<
#3720000
0!
06
07
#3740000
1!
16
17
16!
0}
04
1=
0;
0%
1>
0<
1?
#3760000
0!
06
07
#3780000
1!
16
17
15!
06!
0@
0>
0=
1;
1A
1@
1>
0?
1<
0A
1C
1?
0C
#3800000
0!
06
07
#3820000
1!
16
17
16!
1T
1=
0;
0X
1U
0@
0>
0<
1Z
1:
1A
0Y
0?
0B
1[
1C
0C
#3840000
0!
06
07
#3860000
1!
16
17
1,!
0-!
05!
06!
0T
1@
1>
0=
1;
1Y
1X
0U
0A
0>
0:
0Y
1B
1<
#3880000
0!
06
07
#3900000
1!
16
17
16!
1=
0;
1>
0<
1?
#3920000
0!
06
07
#3940000
1!
16
17
15!
06!
0@
0>
0=
1;
1A
1@
1>
0?
1<
0A
1C
1?
0C
#3960000
0!
06
07
#3980000
1!
16
17
16!
1T
1=
0;
0X
1U
0@
0>
0<
1:
1A
1Y
0?
0B
1C
0C
#4000000
0!
06
07
#4020000
1!
16
17
1-!
05!
06!
1y
1\
0Z
0T
1@
1>
0=
1;
0Y
1X
0U
0A
0>
1m
0[
1Z
0\
0:
1Y
1B
1[
0m
1<
#4040000
0!
06
07
#4060000
1!
16
17
16!
1=
0;
1>
0<
1?
#4080000
0!
06
07
#4100000
1!
16
17
15!
06!
0@
0>
0=
1;
1A
1@
1>
0?
1<
0A
1C
1?
0C
#4120000
0!
06
07
#4140000
1!
16
17
16!
1T
1=
0;
0X
1U
0@
0>
0<
0Z
1\
1:
1A
0Y
0?
0B
0[
1m
1C
0C
#4160000
0!
06
07
#4180000
1!
16
17
1+!
0,!
0-!
05!
06!
1n
1l
1z
0\
0T
1@
1>
0=
1;
0j
1Y
1X
0U
0A
0>
1j
0:
0Y
1B
1<
#4200000
0!
06
07
#4220000
1!
16
17
16!
1=
0;
1>
0<
1?
#4240000
0!
06
07
#4260000
1!
16
17
15!
06!
0@
0>
0=
1;
1A
1@
1>
0?
1<
0A
1C
1?
0C
#4280000
0!
06
07
#4300000
1!
16
17
16!
1T
1=
0;
0X
1U
0@
0>
0<
1:
1A
1Y
0?
0B
1C
0C
#4320000
0!
06
07
#4340000
1!
16
17
1-!
05!
06!
0y
1Z
0T
1@
1>
0=
1;
0Y
0z
1X
0U
0A
0>
1[
0Z
0:
1Y
1B
0[
1<
#4360000
0!
06
07
#4380000
1!
16
17
16!
1=
0;
1>
0<
1?
#4400000
0!
06
07
#4420000
1!
16
17
15!
06!
0@
0>
0=
1;
1A
1@
1>
0?
1<
0A
1C
1?
0C
#4440000
0!
06
07
#4460000
1!
16
17
16!
1T
1=
0;
0X
1U
0@
0>
0<
1Z
1:
1A
0Y
0?
0B
1[
1C
0C
#4480000
0!
06
07
#4500000
1!
16
17
1,!
0-!
05!
06!
0T
1@
1>
0=
1;
1Y
1X
0U
0A
0>
0:
0Y
1B
1<
#4520000
0!
06
07
#4540000
1!
16
17
16!
1=
0;
1>
0<
1?
#4560000
0!
06
07
#4580000
1!
16
17
15!
06!
0@
0>
0=
1;
1A
1@
1>
0?
1<
0A
1C
1?
0C
#4600000
0!
06
07
#4620000
1!
16
17
16!
1T
1=
0;
0X
1U
0@
0>
0<
1:
1A
1Y
0?
0B
1C
0C
#4640000
0!
06
07
#4660000
1!
16
17
1-!
05!
06!
1y
1\
0Z
1W
0T
1@
1>
0=
1;
0Y
1X
0U
0A
0>
0j
1]
0[
1Z
0\
0:
1Y
1B
1[
1j
0]
1<
#4680000
0!
06
07
#4700000
1!
16
17
16!
1=
0;
1>
0<
1?
#4720000
0!
06
07
#4740000
1!
16
17
15!
06!
0@
0>
0=
1;
1A
1@
1>
0?
1<
0A
1C
1?
0C
#4760000
0!
06
07
#4780000
1!
16
17
16!
1T
1=
0;
1U
0@
0>
0<
1\
1:
1A
0?
0B
0j
1]
1C
0C
#4800000
0!
06
07
#4820000
1!
16
17
0k
1^
05!
06!
0n
0Z
19
1u
1b
1V
0T
1@
1>
0=
1;
0Y
1!!
0:
0b
0U
0A
0>
1|
0]
1c
1Y
1B
0\
1<
0c
1]
#4840000
0!
06
07
#4860000
1!
16
17
16!
1"!
1}
14
15
1=
0;
1$
1%
1>
0<
1?
#4880000
0!
06
07
#4900000
1!
16
17
15!
06!
0@
0>
0=
1;
1A
1@
1>
0?
1<
0A
1C
1?
0C
#4920000
0!
06
07
#4940000
1!
16
17
16!
1T
1=
0;
1b
1U
0@
0>
0<
1\
0B
1A
1c
0]
0?
#4960000
0!
06
07
#4980000
1!
16
17
1d
0^
1~
1:
0l
0b
0V
1B
1o
0e
0!!
0[
0B
1!!
0m
0c
0Y
1C
0C
