Task4/simulation/qsim/Task4.msim.vcd
$comment
	File created using the following command:
		vcd file Task4.msim.vcd -direction
$end
$date
	Thu Jan 21 19:13:47 2021
$end
$version
	ModelSim Version 10.5b
$end
$timescale
	1ps
$end

$scope module custom_xbee_test_vlg_vec_tst $end
$var reg 1 ! c_clk $end
$var reg 1 " inp_clk $end
$var wire 1 # LED $end
$var wire 1 $ out_s2 $end
$var wire 1 % out_s3 $end
$var wire 1 & serial $end

$scope module i1 $end
$var wire 1 ' gnd $end
$var wire 1 ( vcc $end
$var wire 1 ) unknown $end
$var tri1 1 * devclrn $end
$var tri1 1 + devpor $end
$var tri1 1 , devoe $end
$var wire 1 - ~ALTERA_ASDO_DATA1~~ibuf_o $end
$var wire 1 . ~ALTERA_ASDO_DATA1~~padout $end
$var wire 1 / ~ALTERA_FLASH_nCE_nCSO~~ibuf_o $end
$var wire 1 0 ~ALTERA_FLASH_nCE_nCSO~~padout $end
$var wire 1 1 ~ALTERA_DCLK~~padout $end
$var wire 1 2 ~ALTERA_DATA0~~ibuf_o $end
$var wire 1 3 ~ALTERA_DATA0~~padout $end
$var wire 1 4 ~ALTERA_nCEO~~padout $end
$var wire 1 5 ~ALTERA_DCLK~~obuf_o $end
$var wire 1 6 ~ALTERA_nCEO~~obuf_o $end
$var wire 1 7 inp_clk~input_o $end
$var wire 1 8 inst3|altpll_component|auto_generated|wire_pll1_fbout $end
$var wire 1 9 inst3|altpll_component|auto_generated|wire_pll1_clk[0]~clkctrl_outclk $end
$var wire 1 : inst3|altpll_component|auto_generated|wire_pll1_clk[1]~clkctrl_outclk $end
$var wire 1 ; inst2|counter[0]~9_combout $end
$var wire 1 < c_clk~input_o $end
$var wire 1 = inst2|c_counter[0]~9_combout $end
$var wire 1 > inst2|Equal1~0_combout $end
$var wire 1 ? inst2|counter[7]~25 $end
$var wire 1 @ inst2|counter[8]~26_combout $end
$var wire 1 A inst2|Selector7~0_combout $end
$var wire 1 B inst2|r_state.BLUE_READ~q $end
$var wire 1 C inst2|c_counter[1]~12 $end
$var wire 1 D inst2|c_counter[2]~13_combout $end
$var wire 1 E inst2|c_counter[2]~14 $end
$var wire 1 F inst2|c_counter[3]~15_combout $end
$var wire 1 G inst2|c_counter[3]~16 $end
$var wire 1 H inst2|c_counter[4]~17_combout $end
$var wire 1 I inst2|c_counter[4]~18 $end
$var wire 1 J inst2|c_counter[5]~19_combout $end
$var wire 1 K inst2|c_counter[5]~20 $end
$var wire 1 L inst2|c_counter[6]~21_combout $end
$var wire 1 M inst2|c_counter[6]~22 $end
$var wire 1 N inst2|c_counter[7]~23_combout $end
$var wire 1 O inst2|c_counter[7]~24 $end
$var wire 1 P inst2|c_counter[8]~25_combout $end
$var wire 1 Q inst2|always0~1_combout $end
$var wire 1 R inst2|always0~0_combout $end
$var wire 1 S inst2|always0~2_combout $end
$var wire 1 T inst2|r_state~12_combout $end
$var wire 1 U inst2|r_state.IDLE~q $end
$var wire 1 V inst2|always0~3_combout $end
$var wire 1 W inst2|Equal0~0_combout $end
$var wire 1 X inst2|LessThan1~0_combout $end
$var wire 1 Y inst2|Selector2~0_combout $end
$var wire 1 Z inst2|Selector2~1_combout $end
$var wire 1 [ inst2|r_state.RED_START~q $end
$var wire 1 \ inst2|Selector3~0_combout $end
$var wire 1 ] inst2|r_state.RED_READ~q $end
$var wire 1 ^ inst2|Selector4~0_combout $end
$var wire 1 _ inst2|Selector4~1_combout $end
$var wire 1 ` inst2|r_state.GREEN_START~q $end
$var wire 1 a inst2|Selector5~0_combout $end
$var wire 1 b inst2|r_state.GREEN_READ~q $end
$var wire 1 c inst2|WideOr0~combout $end
$var wire 1 d inst2|counter[1]~23_combout $end
$var wire 1 e inst2|Equal1~1_combout $end
$var wire 1 f inst2|Equal1~2_combout $end
$var wire 1 g inst2|c_counter[0]~10 $end
$var wire 1 h inst2|c_counter[1]~11_combout $end
$var wire 1 i inst2|Equal0~1_combout $end
$var wire 1 j inst2|Selector6~0_combout $end
$var wire 1 k inst2|Selector6~1_combout $end
$var wire 1 l inst2|r_state.BLUE_START~q $end
$var wire 1 m inst2|WideOr7~combout $end
$var wire 1 n inst2|counter[0]~10 $end
$var wire 1 o inst2|counter[1]~11_combout $end
$var wire 1 p inst2|counter[1]~12 $end
$var wire 1 q inst2|counter[2]~13_combout $end
$var wire 1 r inst2|counter[2]~14 $end
$var wire 1 s inst2|counter[3]~15_combout $end
$var wire 1 t inst2|counter[3]~16 $end
$var wire 1 u inst2|counter[4]~17_combout $end
$var wire 1 v inst2|counter[4]~18 $end
$var wire 1 w inst2|counter[5]~19_combout $end
$var wire 1 x inst2|counter[5]~20 $end
$var wire 1 y inst2|counter[6]~21_combout $end
$var wire 1 z inst2|counter[6]~22 $end
$var wire 1 { inst2|counter[7]~24_combout $end
$var wire 1 | inst2|LessThan0~0_combout $end
$var wire 1 } inst2|LessThan0~1_combout $end
$var wire 1 ~ inst2|Selector18~0_combout $end
$var wire 1 !! inst2|Selector18~1_combout $end
$var wire 1 "! inst2|Selector17~0_combout $end
$var wire 1 #! inst2|Selector17~1_combout $end
$var wire 1 $! inst2|Selector17~2_combout $end
$var wire 1 %! inst|Selector21~0_combout $end
$var wire 1 &! inst|Add0~0_combout $end
$var wire 1 '! inst|Add0~8_combout $end
$var wire 1 (! inst|Add0~1 $end
$var wire 1 )! inst|Add0~2_combout $end
$var wire 1 *! inst|Add0~9_combout $end
$var wire 1 +! inst|Add0~3 $end
$var wire 1 ,! inst|Add0~4_combout $end
$var wire 1 -! inst|Add0~10_combout $end
$var wire 1 .! inst|Add0~5 $end
$var wire 1 /! inst|Add0~6_combout $end
$var wire 1 0! inst|r_clock_count[3]~2_combout $end
$var wire 1 1! inst|LessThan2~0_combout $end
$var wire 1 2! inst|Add0~7 $end
$var wire 1 3! inst|Add0~11_combout $end
$var wire 1 4! inst|r_clock_count[4]~4_combout $end
$var wire 1 5! inst|Add0~12 $end
$var wire 1 6! inst|Add0~13_combout $end
$var wire 1 7! inst|r_clock_count[5]~5_combout $end
$var wire 1 8! inst|Add0~14 $end
$var wire 1 9! inst|Add0~16 $end
$var wire 1 :! inst|Add0~17_combout $end
$var wire 1 ;! inst|r_clock_count[7]~7_combout $end
$var wire 1 <! inst|Add0~18 $end
$var wire 1 =! inst|Add0~19_combout $end
$var wire 1 >! inst|r_clock_count[8]~3_combout $end
$var wire 1 ?! inst|Selector14~2_combout $end
$var wire 1 @! inst|next[0]~0_combout $end
$var wire 1 A! inst|Selector20~0_combout $end
$var wire 1 B! inst|Add2~0_combout $end
$var wire 1 C! inst|Selector18~0_combout $end
$var wire 1 D! inst|LessThan0~0_combout $end
$var wire 1 E! inst|Selector13~0_combout $end
$var wire 1 F! inst|Selector9~0_combout $end
$var wire 1 G! inst|Selector10~0_combout $end
$var wire 1 H! inst|Selector10~1_combout $end
$var wire 1 I! inst|r_bit_index~0_combout $end
$var wire 1 J! inst|Selector11~0_combout $end
$var wire 1 K! inst|r_state.TX_STOP_BIT~1_combout $end
$var wire 1 L! inst|Selector9~1_combout $end
$var wire 1 M! inst|Selector16~0_combout $end
$var wire 1 N! inst|Selector16~1_combout $end
$var wire 1 O! inst|r_state.TX_DATA_BITS~q $end
$var wire 1 P! inst|Selector13~1_combout $end
$var wire 1 Q! inst|r_TX_DONE~q $end
$var wire 1 R! inst4|r_color[1]~feeder_combout $end
$var wire 1 S! inst4|r_state~7_combout $end
$var wire 1 T! inst4|r_state~8_combout $end
$var wire 1 U! inst4|r_state.CHANGEC~q $end
$var wire 1 V! inst4|Selector0~0_combout $end
$var wire 1 W! inst4|detect~q $end
$var wire 1 X! inst|Selector14~4_combout $end
$var wire 1 Y! inst|r_state.IDLE~q $end
$var wire 1 Z! inst|Selector14~3_combout $end
$var wire 1 [! inst|Selector15~0_combout $end
$var wire 1 \! inst|r_state.TX_START_BIT~q $end
$var wire 1 ]! inst|r_clock_count[3]~0_combout $end
$var wire 1 ^! inst|r_clock_count[8]~1_combout $end
$var wire 1 _! inst|Add0~15_combout $end
$var wire 1 `! inst|r_clock_count[6]~6_combout $end
$var wire 1 a! inst|LessThan2~1_combout $end
$var wire 1 b! inst|LessThan2~2_combout $end
$var wire 1 c! inst|r_state.TX_STOP_BIT~0_combout $end
$var wire 1 d! inst|r_state.TX_STOP_BIT~2_combout $end
$var wire 1 e! inst|r_state.TX_STOP_BIT~q $end
$var wire 1 f! inst|Selector19~0_combout $end
$var wire 1 g! inst|r_data_bits~16_combout $end
$var wire 1 h! inst|r_data_bits~17_combout $end
$var wire 1 i! inst|r_data_bits~15_combout $end
$var wire 1 j! inst|Selector12~1_combout $end
$var wire 1 k! inst|r_data_bits~18_combout $end
$var wire 1 l! inst|Selector12~2_combout $end
$var wire 1 m! inst|r_data_bits~1_combout $end
$var wire 1 n! inst|r_data_bits~2_combout $end
$var wire 1 o! inst|r_data_bits~3_combout $end
$var wire 1 p! inst|r_data_bits~4_combout $end
$var wire 1 q! inst|r_data_bits~5_combout $end
$var wire 1 r! inst|r_data_bits~6_combout $end
$var wire 1 s! inst|r_data_bits~7_combout $end
$var wire 1 t! inst|r_data_bits~8_combout $end
$var wire 1 u! inst|r_data_bits~9_combout $end
$var wire 1 v! inst|r_data_bits~10_combout $end
$var wire 1 w! inst|r_data_bits~11_combout $end
$var wire 1 x! inst|r_data_bits[0]~0_combout $end
$var wire 1 y! inst|r_data_bits~12_combout $end
$var wire 1 z! inst|Mux0~0_combout $end
$var wire 1 {! inst|r_data_bits~13_combout $end
$var wire 1 |! inst|r_data_bits~14_combout $end
$var wire 1 }! inst|Mux0~1_combout $end
$var wire 1 ~! inst|Selector12~0_combout $end
$var wire 1 !" inst|Selector12~3_combout $end
$var wire 1 "" inst|r_TX_SERIAL~q $end
$var wire 1 #" inst2|Selector0~0_combout $end
$var wire 1 $" inst2|s2~q $end
$var wire 1 %" inst2|Selector1~0_combout $end
$var wire 1 &" inst2|s3~q $end
$var wire 1 '" inst2|always1~2_combout $end
$var wire 1 (" inst2|always1~0_combout $end
$var wire 1 )" inst2|always1~1_combout $end
$var wire 1 *" inst2|always1~3_combout $end
$var wire 1 +" inst2|LED~q $end
$var wire 1 ," inst4|r_color [2] $end
$var wire 1 -" inst4|r_color [1] $end
$var wire 1 ." inst4|r_color [0] $end
$var wire 1 /" inst2|out_color [1] $end
$var wire 1 0" inst2|out_color [0] $end
$var wire 1 1" inst|next [3] $end
$var wire 1 2" inst|next [2] $end
$var wire 1 3" inst|next [1] $end
$var wire 1 4" inst|next [0] $end
$var wire 1 5" inst|r_clock_count [8] $end
$var wire 1 6" inst|r_clock_count [7] $end
$var wire 1 7" inst|r_clock_count [6] $end
$var wire 1 8" inst|r_clock_count [5] $end
$var wire 1 9" inst|r_clock_count [4] $end
$var wire 1 :" inst|r_clock_count [3] $end
$var wire 1 ;" inst|r_clock_count [2] $end
$var wire 1 <" inst|r_clock_count [1] $end
$var wire 1 =" inst|r_clock_count [0] $end
$var wire 1 >" inst2|counter [8] $end
$var wire 1 ?" inst2|counter [7] $end
$var wire 1 @" inst2|counter [6] $end
$var wire 1 A" inst2|counter [5] $end
$var wire 1 B" inst2|counter [4] $end
$var wire 1 C" inst2|counter [3] $end
$var wire 1 D" inst2|counter [2] $end
$var wire 1 E" inst2|counter [1] $end
$var wire 1 F" inst2|counter [0] $end
$var wire 1 G" inst2|c_counter [8] $end
$var wire 1 H" inst2|c_counter [7] $end
$var wire 1 I" inst2|c_counter [6] $end
$var wire 1 J" inst2|c_counter [5] $end
$var wire 1 K" inst2|c_counter [4] $end
$var wire 1 L" inst2|c_counter [3] $end
$var wire 1 M" inst2|c_counter [2] $end
$var wire 1 N" inst2|c_counter [1] $end
$var wire 1 O" inst2|c_counter [0] $end
$var wire 1 P" inst|r_bit_index [2] $end
$var wire 1 Q" inst|r_bit_index [1] $end
$var wire 1 R" inst|r_bit_index [0] $end
$var wire 1 S" inst3|altpll_component|auto_generated|wire_pll1_clk [4] $end
$var wire 1 T" inst3|altpll_component|auto_generated|wire_pll1_clk [3] $end
$var wire 1 U" inst3|altpll_component|auto_generated|wire_pll1_clk [2] $end
$var wire 1 V" inst3|altpll_component|auto_generated|wire_pll1_clk [1] $end
$var wire 1 W" inst3|altpll_component|auto_generated|wire_pll1_clk [0] $end
$var wire 1 X" inst|r_data_bits [7] $end
$var wire 1 Y" inst|r_data_bits [6] $end
$var wire 1 Z" inst|r_data_bits [5] $end
$var wire 1 [" inst|r_data_bits [4] $end
$var wire 1 \" inst|r_data_bits [3] $end
$var wire 1 ]" inst|r_data_bits [2] $end
$var wire 1 ^" inst|r_data_bits [1] $end
$var wire 1 _" inst|r_data_bits [0] $end
$var wire 1 `" inst3|altpll_component|auto_generated|pll1_CLK_bus [4] $end
$var wire 1 a" inst3|altpll_component|auto_generated|pll1_CLK_bus [3] $end
$var wire 1 b" inst3|altpll_component|auto_generated|pll1_CLK_bus [2] $end
$var wire 1 c" inst3|altpll_component|auto_generated|pll1_CLK_bus [1] $end
$var wire 1 d" inst3|altpll_component|auto_generated|pll1_CLK_bus [0] $end
$upscope $end
$upscope $end
$enddefinitions $end
#0
$dumpvars
0!
0"
0#
1$
0%
1&
0'
1(
x)
1*
1+
1,
z-
z.
z/
z0
z1
z2
z3
z4
z5
z6
07
x8
x9
x:
1;
0<
1=
1>
1?
0@
0A
0B
1C
0D
0E
0F
1G
0H
0I
0J
1K
0L
0M
0N
1O
0P
0Q
0R
0S
1T
0U
1V
1W
0X
0Y
1Z
0[
0\
0]
0^
0_
0`
0a
0b
0c
0d
1e
1f
0g
0h
1i
0j
0k
0l
0m
0n
0o
1p
0q
0r
0s
1t
0u
0v
0w
1x
0y
0z
0{
1|
1}
0~
0!!
0"!
0#!
0$!
1%!
1&!
0'!
0(!
0)!
0*!
1+!
0,!
0-!
0.!
0/!
00!
01!
12!
03!
04!
05!
06!
07!
18!
09!
0:!
0;!
1<!
0=!
0>!
1?!
0@!
0A!
1B!
1C!
1D!
0E!
1F!
0G!
0H!
1I!
0J!
0K!
0L!
0M!
0N!
0O!
0P!
0Q!
0R!
0S!
0T!
0U!
0V!
0W!
0X!
0Y!
1Z!
0[!
0\!
1]!
0^!
0_!
0`!
0a!
0b!
0c!
0d!
0e!
0f!
0g!
0h!
0i!
0j!
0k!
0l!
0m!
0n!
1o!
0p!
0q!
0r!
0s!
0t!
0u!
0v!
0w!
0x!
0y!
0z!
1{!
0|!
0}!
0~!
0!"
0""
0#"
0$"
0%"
0&"
0'"
1("
1)"
0*"
0+"
0."
0-"
z,"
00"
0/"
04"
03"
02"
01"
0="
0<"
0;"
0:"
09"
08"
07"
06"
05"
0F"
0E"
0D"
0C"
0B"
0A"
0@"
0?"
0>"
0O"
0N"
0M"
0L"
0K"
0J"
0I"
0H"
0G"
0R"
0Q"
0P"
xW"
xV"
xU"
xT"
xS"
0_"
0^"
0]"
0\"
0["
0Z"
0Y"
zX"
xd"
xc"
xb"
xa"
x`"
$end
#833
18
#10833
08
#20000
1"
17
#20833
18
#30833
08
#40000
0"
07
#40833
18
#50833
08
#60000
1"
17
#60833
18
#80000
0"
07
#80833
08
#98000
1!
1<
#100000
1"
17
#100833
18
#120000
0"
07
#120833
08
#140000
1"
17
#140833
18
#160000
0"
07
#160416
08
#180000
1"
17
18
0`"
0a"
0b"
0c"
1d"
1W"
0V"
0U"
0T"
0S"
0:
19
#196000
0!
0<
#200000
0"
07
0d"
0W"
09
08
#206666
1c"
1V"
1:
1[
1U
1m
1d
1\
0Z
1#"
#220000
1"
17
1d"
1W"
19
18
#240000
0"
07
0c"
0d"
0W"
0V"
0:
09
08
#260000
1"
17
1d"
1W"
19
18
#273333
1c"
1V"
1:
1$"
1]
0[
0$
1c
1^
0m
#280000
0"
07
0d"
0W"
09
08
#294000
1!
1<
#300000
1"
17
1d"
1W"
19
18
#306666
0c"
0V"
0:
#320000
0"
07
0d"
0W"
09
08
#340000
1"
17
1c"
1d"
1W"
1V"
1:
19
18
1F"
0e
1n
0;
0f
1o
#360000
0"
07
0d"
0W"
09
08
#373333
0c"
0V"
0:
#380000
1"
17
1d"
1W"
19
18
#392000
0!
0<
#400000
0"
07
0d"
0W"
09
08
#406666
1c"
1V"
1:
1E"
0F"
0p
0o
1e
0n
1;
1q
1p
1o
0q
#420000
1"
17
1d"
1W"
19
18
#440000
0"
07
0c"
0d"
0W"
0V"
0:
09
08
#460000
1"
17
1d"
1W"
19
18
#473333
1c"
1V"
1:
1F"
0e
1n
0;
0p
0o
1q
#480000
0"
07
0d"
0W"
09
08
#490000
1!
1<
1O"
0i
1g
0=
1h
#500000
1"
17
1d"
1W"
19
18
#506666
0c"
0V"
0:
#520000
0"
07
0d"
0W"
09
08
#540000
1"
17
1c"
1d"
1W"
1V"
1:
19
18
1D"
0E"
0F"
1r
0q
1p
1o
1e
0n
1;
1s
0r
1q
0o
0s
#560000
0"
07
0d"
0W"
09
08
#573333
0c"
0V"
0:
#580000
1"
17
1d"
1W"
19
18
#588000
0!
0<
#600000
0"
07
0d"
0W"
09
08
#606666
1c"
1V"
1:
1F"
0e
1n
0;
1o
#620000
1"
17
1d"
1W"
19
18
#640000
0"
07
0c"
0d"
0W"
0V"
0:
09
08
#660000
1"
17
1d"
1W"
19
18
#673333
1c"
1V"
1:
1E"
0F"
0p
0o
1e
0n
1;
1r
0q
1p
1o
1s
0r
1q
0s
#680000
0"
07
0d"
0W"
09
08
#686000
1!
1<
1N"
0O"
0C
0g
0h
1=
1C
1D
1h
0D
#700000
1"
17
1d"
1W"
19
18
#706666
0c"
0V"
0:
#720000
0"
07
0d"
0W"
09
08
#740000
1"
17
1c"
1d"
1W"
1V"
1:
19
18
1F"
0e
1n
0;
0p
0o
1r
0q
1s
#760000
0"
07
0d"
0W"
09
08
#773333
0c"
0V"
0:
#780000
1"
17
1d"
1W"
19
18
#784000
0!
0<
#800000
0"
07
0d"
0W"
09
08
#806666
1c"
1V"
1:
1C"
0D"
0E"
0F"
0t
0s
0r
1q
1p
1o
0n
1;
1u
1t
1s
0q
0o
0u
#820000
1"
17
1d"
1W"
19
18
#840000
0"
07
0c"
0d"
0W"
0V"
0:
09
08
#860000
1"
17
1d"
1W"
19
18
#873333
1c"
1V"
1:
1F"
1n
0;
1o
#880000
0"
07
0d"
0W"
09
08
#882000
1!
1<
1O"
1X
1g
0=
1~
0^
0C
0h
1D
#900000
1"
17
1d"
1W"
19
18
#906666
0c"
0V"
0:
#920000
0"
07
0d"
0W"
09
08
#940000
1"
17
1c"
1d"
1W"
1V"
1:
19
18
1E"
0F"
0p
0o
0n
1;
1q
1p
1o
0q
#960000
0"
07
0d"
0W"
09
08
#973333
0c"
0V"
0:
#980000
0!
1"
0<
17
1d"
1W"
19
18
#1000000
0"
07
0d"
0W"
09
08
#1006666
1c"
1V"
1:
1F"
1n
0;
0p
0o
1q
#1020000
1"
17
1d"
1W"
19
18
#1040000
0"
07
0c"
0d"
0W"
0V"
0:
09
08
#1060000
1"
17
1d"
1W"
19
18
#1073333
1c"
1V"
1:
1D"
0E"
0F"
1r
0q
1p
1o
0n
1;
0t
0s
0r
1q
0o
1u
1t
1s
0u
#1078000
1!
1<
0N"
0O"
1M"
1i
0X
1R
1C
0g
0W
1E
1h
1=
0D
0~
1^
0E
0i
1X
1D
0h
1F
1~
0^
0F
#1080000
0"
07
0d"
0W"
09
08
#1100000
1"
17
1d"
1W"
19
18
#1106666
0c"
0V"
0:
#1120000
0"
07
0d"
0W"
09
08
#1140000
1"
17
1c"
1d"
1W"
1V"
1:
19
18
1F"
1n
0;
1o
#1160000
0"
07
0d"
0W"
09
08
#1173333
0c"
0V"
0:
#1176000
0!
0<
#1180000
1"
17
1d"
1W"
19
18
#1200000
0"
07
0d"
0W"
09
08
#1206666
1c"
1V"
1:
1E"
0F"
0p
0o
0n
1;
1r
0q
1p
1o
0t
0s
0r
1q
1u
1t
1s
0u
#1220000
1"
17
1d"
1W"
19
18
#1240000
0"
07
0c"
0d"
0W"
0V"
0:
09
08
#1260000
1"
17
1d"
1W"
19
18
#1273333
1c"
1V"
1:
1F"
1n
0;
0p
0o
1r
0q
0t
0s
1u
#1274000
1!
1<
1O"
1g
0=
1h
#1280000
0"
07
0d"
0W"
09
08
#1300000
1"
17
1d"
1W"
19
18
#1306666
0c"
0V"
0:
#1320000
0"
07
0d"
0W"
09
08
#1340000
1"
17
1c"
1d"
1W"
1V"
1:
19
18
1B"
0C"
0D"
0E"
0F"
1v
0u
0>
1t
1s
1e
0r
1q
1p
1o
0n
1;
1w
0v
1u
0s
0q
0o
0w
#1360000
0"
07
0d"
0W"
09
08
#1372000
0!
0<
#1373333
0c"
0V"
0:
#1380000
1"
17
1d"
1W"
19
18
#1400000
0"
07
0d"
0W"
09
08
#1406666
1c"
1V"
1:
1F"
0e
1n
0;
1o
#1420000
1"
17
1d"
1W"
19
18
#1440000
0"
07
0c"
0d"
0W"
0V"
0:
09
08
#1460000
1"
17
1d"
1W"
19
18
#1470000
1!
1<
1N"
0O"
0C
0g
0h
1=
1E
1C
0D
1h
0E
1F
1D
0F
#1473333
1c"
1V"
1:
1E"
0F"
0p
0o
1e
0n
1;
1q
1p
1o
0q
#1480000
0"
07
0d"
0W"
09
08
#1500000
1"
17
1d"
1W"
19
18
#1506666
0c"
0V"
0:
#1520000
0"
07
0d"
0W"
09
08
#1540000
1"
17
1c"
1d"
1W"
1V"
1:
19
18
1F"
0e
1n
0;
0p
0o
1q
#1560000
0"
07
0d"
0W"
09
08
#1568000
0!
0<
#1573333
0c"
0V"
0:
#1580000
1"
17
1d"
1W"
19
18
#1600000
0"
07
0d"
0W"
09
08
#1606666
1c"
1V"
1:
1D"
0E"
0F"
1r
0q
1p
1o
1e
0n
1;
1s
0r
1q
0o
0s
#1620000
1"
17
1d"
1W"
19
18
#1640000
0"
07
0c"
0d"
0W"
0V"
0:
09
08
#1660000
1"
17
1d"
1W"
19
18
#1666000
1!
1<
1O"
1g
0=
0C
0h
1E
0D
1F
#1673333
1c"
1V"
1:
1F"
0e
1n
0;
1o
#1680000
0"
07
0d"
0W"
09
08
#1700000
1"
17
1d"
1W"
19
18
#1706666
0c"
0V"
0:
#1720000
0"
07
0d"
0W"
09
08
#1740000
1"
17
1c"
1d"
1W"
1V"
1:
19
18
1E"
0F"
0p
0o
1e
0n
1;
1r
0q
1p
1o
1s
0r
1q
0s
#1760000
0"
07
0d"
0W"
09
08
#1764000
0!
0<
#1773333
0c"
0V"
0:
#1780000
1"
17
1d"
1W"
19
18
#1800000
0"
07
0d"
0W"
09
08
#1806666
1c"
1V"
1:
1F"
0e
1n
0;
0p
0o
1r
0q
1s
#1820000
1"
17
1d"
1W"
19
18
#1840000
0"
07
0c"
0d"
0W"
0V"
0:
09
08
#1860000
1"
17
1d"
1W"
19
18
#1862000
1!
1<
0N"
0O"
1L"
0M"
1C
0g
0G
0E
1h
1=
0F
1D
1G
0D
0h
1H
1F
0H
#1873333
1c"
1V"
1:
1C"
0D"
0E"
0F"
0t
0s
0r
1q
1p
1o
0n
1;
1v
0u
1t
1s
0q
0o
1w
0v
1u
0w
#1880000
0"
07
0d"
0W"
09
08
#1900000
1"
17
1d"
1W"
19
18
#1906666
0c"
0V"
0:
#1920000
0"
07
0d"
0W"
09
08
#1940000
1"
17
1c"
1d"
1W"
1V"
1:
19
18
1F"
1n
0;
1o
#1960000
0!
0"
0<
07
0d"
0W"
09
08
#1973333
0c"
0V"
0:
#1980000
1"
17
1d"
1W"
19
18
#2000000
0"
07
0d"
0W"
09
08
#2006666
1c"
1V"
1:
1E"
0F"
0p
0o
0n
1;
1q
1p
1o
0q
#2020000
1"
17
1d"
1W"
19
18
#2040000
0"
07
0c"
0d"
0W"
0V"
0:
09
08
#2058000
1!
1<
1O"
1g
0=
1h
#2060000
1"
17
1d"
1W"
19
18
#2073333
1c"
1V"
1:
1F"
1n
0;
0p
0o
1q
#2080000
0"
07
0d"
0W"
09
08
#2100000
1"
17
1d"
1W"
19
18
#2106666
0c"
0V"
0:
#2120000
0"
07
0d"
0W"
09
08
#2140000
1"
17
1c"
1d"
1W"
1V"
1:
19
18
1D"
0E"
0F"
1r
0q
1p
1o
0n
1;
0t
0s
0r
1q
0o
1v
0u
1t
1s
1w
0v
1u
0w
#2156000
0!
0<
#2160000
0"
07
0d"
0W"
09
08
#2173333
0c"
0V"
0:
#2180000
1"
17
1d"
1W"
19
18
#2200000
0"
07
0d"
0W"
09
08
#2206666
1c"
1V"
1:
1F"
1n
0;
1o
#2220000
1"
17
1d"
1W"
19
18
#2240000
0"
07
0c"
0d"
0W"
0V"
0:
09
08
#2254000
1!
1<
1N"
0O"
0C
0g
0h
1=
1C
1D
1h
0D
#2260000
1"
17
1d"
1W"
19
18
#2273333
1c"
1V"
1:
1E"
0F"
0p
0o
0n
1;
1r
0q
1p
1o
0t
0s
0r
1q
1v
0u
1t
1s
1w
0v
1u
0w
#2280000
0"
07
0d"
0W"
09
08
#2300000
1"
17
1d"
1W"
19
18
#2306666
0c"
0V"
0:
#2320000
0"
07
0d"
0W"
09
08
#2340000
1"
17
1c"
1d"
1W"
1V"
1:
19
18
1F"
1n
0;
0p
0o
1r
0q
0t
0s
1v
0u
1w
#2352000
0!
0<
#2360000
0"
07
0d"
0W"
09
08
#2373333
0c"
0V"
0:
#2380000
1"
17
1d"
1W"
19
18
#2400000
0"
07
0d"
0W"
09
08
#2406666
1c"
1V"
1:
1A"
0B"
0C"
0D"
0E"
0F"
0x
0w
0v
1u
1>
1t
1s
0r
1q
1p
1o
0n
1;
1y
1x
1w
0u
0s
0q
0o
0y
#2420000
1"
17
1d"
1W"
19
18
#2440000
0"
07
0c"
0d"
0W"
0V"
0:
09
08
#2450000
1!
1<
1O"
0("
1g
0=
0)"
0C
0h
1*"
1D
#2460000
1"
17
1d"
1W"
19
18
#2473333
1c"
1V"
1:
1F"
1n
0;
1o
#2480000
0"
07
0d"
0W"
09
08
#2500000
1"
17
1d"
1W"
19
18
#2506666
0c"
0V"
0:
#2520000
0"
07
0d"
0W"
09
08
#2540000
1"
17
1c"
1d"
1W"
1V"
1:
19
18
1E"
0F"
0p
0o
0n
1;
1q
1p
1o
0q
#2548000
0!
0<
#2560000
0"
07
0d"
0W"
09
08
#2573333
0c"
0V"
0:
#2580000
1"
17
1d"
1W"
19
18
#2600000
0"
07
0d"
0W"
09
08
#2606666
1c"
1V"
1:
1F"
1n
0;
0p
0o
1q
#2620000
1"
17
1d"
1W"
19
18
#2640000
0"
07
0c"
0d"
0W"
0V"
0:
09
08
#2646000
1!
1<
0N"
0O"
1M"
1+"
1#
1C
0g
1E
1h
1=
0D
0E
0G
1D
0h
0F
1G
1F
1H
0H
#2660000
1"
17
1d"
1W"
19
18
#2673333
1c"
1V"
1:
1D"
0E"
0F"
1r
0q
1p
1o
0n
1;
1s
0r
1q
0o
0s
#2680000
0"
07
0d"
0W"
09
08
#2700000
1"
17
1d"
1W"
19
18
#2706666
0c"
0V"
0:
#2720000
0"
07
0d"
0W"
09
08
#2740000
1"
17
1c"
1d"
1W"
1V"
1:
19
18
1F"
1n
0;
1o
#2744000
0!
0<
#2760000
0"
07
0d"
0W"
09
08
#2773333
0c"
0V"
0:
#2780000
1"
17
1d"
1W"
19
18
#2800000
0"
07
0d"
0W"
09
08
#2806666
1c"
1V"
1:
1E"
0F"
0p
0o
0n
1;
1r
0q
1p
1o
1s
0r
1q
0s
#2820000
1"
17
1d"
1W"
19
18
#2840000
0"
07
0c"
0d"
0W"
0V"
0:
09
08
#2842000
1!
1<
1O"
1g
0=
1h
#2860000
1"
17
1d"
1W"
19
18
#2873333
1c"
1V"
1:
1F"
1n
0;
0p
0o
1r
0q
1s
#2880000
0"
07
0d"
0W"
09
08
#2900000
1"
17
1d"
1W"
19
18
#2906666
0c"
0V"
0:
#2920000
0"
07
0d"
0W"
09
08
#2940000
0!
1"
0<
17
1c"
1d"
1W"
1V"
1:
19
18
1C"
0D"
0E"
0F"
0t
0s
0r
1q
1p
1o
0n
1;
1u
1t
1s
0q
0o
0u
#2960000
0"
07
0d"
0W"
09
08
#2973333
0c"
0V"
0:
#2980000
1"
17
1d"
1W"
19
18
#3000000
0"
07
0d"
0W"
09
08
#3006666
1c"
1V"
1:
1F"
1n
0;
1o
#3020000
1"
17
1d"
1W"
19
18
#3038000
1!
1<
1N"
0O"
0C
0g
0h
1=
1E
1C
0D
1h
0G
0E
0F
1D
1G
1H
1F
0H
#3040000
0"
07
0c"
0d"
0W"
0V"
0:
09
08
#3060000
1"
17
1d"
1W"
19
18
#3073333
1c"
1V"
1:
1E"
0F"
0p
0o
0n
1;
1q
1p
1o
0q
#3080000
0"
07
0d"
0W"
09
08
#3100000
1"
17
1d"
1W"
19
18
#3106666
0c"
0V"
0:
#3120000
0"
07
0d"
0W"
09
08
#3136000
0!
0<
#3140000
1"
17
1c"
1d"
1W"
1V"
1:
19
18
1F"
1n
0;
0p
0o
1q
#3160000
0"
07
0d"
0W"
09
08
#3173333
0c"
0V"
0:
#3180000
1"
17
1d"
1W"
19
18
#3200000
0"
07
0d"
0W"
09
08
#3206666
1c"
1V"
1:
1D"
0E"
0F"
1r
0q
1p
1o
0n
1;
0t
0s
0r
1q
0o
1u
1t
1s
0u
#3220000
1"
17
1d"
1W"
19
18
#3234000
1!
1<
1O"
0R
1g
0=
0C
0h
1E
0D
0G
0F
1H
#3240000
0"
07
0c"
0d"
0W"
0V"
0:
09
08
#3260000
1"
17
1d"
1W"
19
18
#3273333
1c"
1V"
1:
1F"
1n
0;
1o
#3280000
0"
07
0d"
0W"
09
08
#3300000
1"
17
1d"
1W"
19
18
#3306666
0c"
0V"
0:
#3320000
0"
07
0d"
0W"
09
08
