SM_bot/simulation/qsim/SM_bot.msim.vcd
$comment
	File created using the following command:
		vcd file SM_bot.msim.vcd -direction
$end
$date
	Fri Jan 08 02:44:30 2021
$end
$version
	ModelSim Version 10.5b
$end
$timescale
	1ps
$end

$scope module custom_pwm_vlg_vec_tst $end
$var reg 1 ! clk $end
$var wire 1 " l_1 $end
$var wire 1 # l_2 $end
$var wire 1 $ r_1 $end
$var wire 1 % r_2 $end

$scope module i1 $end
$var wire 1 & gnd $end
$var wire 1 ' vcc $end
$var wire 1 ( unknown $end
$var tri1 1 ) devclrn $end
$var tri1 1 * devpor $end
$var tri1 1 + devoe $end
$var wire 1 , l_1~output_o $end
$var wire 1 - l_2~output_o $end
$var wire 1 . r_1~output_o $end
$var wire 1 / r_2~output_o $end
$var wire 1 0 clk~input_o $end
$var wire 1 1 clk~inputclkctrl_outclk $end
$var wire 1 2 Add0~19 $end
$var wire 1 3 Add0~20_combout $end
$var wire 1 4 Add0~0_combout $end
$var wire 1 5 Equal0~3_combout $end
$var wire 1 6 Equal0~4_combout $end
$var wire 1 7 counter~2_combout $end
$var wire 1 8 Add0~1 $end
$var wire 1 9 Add0~2_combout $end
$var wire 1 : Add0~3 $end
$var wire 1 ; Add0~4_combout $end
$var wire 1 < Add0~5 $end
$var wire 1 = Add0~6_combout $end
$var wire 1 > Equal0~0_combout $end
$var wire 1 ? Equal0~1_combout $end
$var wire 1 @ Equal0~2_combout $end
$var wire 1 A counter~0_combout $end
$var wire 1 B Add0~21 $end
$var wire 1 C Add0~22_combout $end
$var wire 1 D Add0~23 $end
$var wire 1 E Add0~24_combout $end
$var wire 1 F Add0~25 $end
$var wire 1 G Add0~26_combout $end
$var wire 1 H counter~3_combout $end
$var wire 1 I counter~4_combout $end
$var wire 1 J Add0~7 $end
$var wire 1 K Add0~8_combout $end
$var wire 1 L Add0~9 $end
$var wire 1 M Add0~10_combout $end
$var wire 1 N Add0~11 $end
$var wire 1 O Add0~12_combout $end
$var wire 1 P counter~1_combout $end
$var wire 1 Q Add0~13 $end
$var wire 1 R Add0~14_combout $end
$var wire 1 S Add0~15 $end
$var wire 1 T Add0~16_combout $end
$var wire 1 U Add0~17 $end
$var wire 1 V Add0~18_combout $end
$var wire 1 W LessThan0~1_combout $end
$var wire 1 X LessThan0~2_combout $end
$var wire 1 Y LessThan0~0_combout $end
$var wire 1 Z LessThan0~3_combout $end
$var wire 1 [ l_1~reg0feeder_combout $end
$var wire 1 \ l_1~reg0_q $end
$var wire 1 ] r_1~reg0_q $end
$var wire 1 ^ counter [13] $end
$var wire 1 _ counter [12] $end
$var wire 1 ` counter [11] $end
$var wire 1 a counter [10] $end
$var wire 1 b counter [9] $end
$var wire 1 c counter [8] $end
$var wire 1 d counter [7] $end
$var wire 1 e counter [6] $end
$var wire 1 f counter [5] $end
$var wire 1 g counter [4] $end
$var wire 1 h counter [3] $end
$var wire 1 i counter [2] $end
$var wire 1 j counter [1] $end
$var wire 1 k counter [0] $end
$upscope $end
$upscope $end
$enddefinitions $end
#0
$dumpvars
0!
0"
0#
0$
0%
0&
1'
x(
1)
1*
1+
0,
0-
0.
0/
00
01
12
03
14
05
16
07
08
09
1:
0;
0<
0=
0>
1?
0@
0A
0B
0C
1D
0E
0F
0G
1H
0I
1J
0K
0L
0M
1N
0O
0P
0Q
0R
1S
0T
0U
0V
0W
0X
1Y
1Z
1[
0\
0]
0k
0j
0i
0h
0g
0f
0e
0d
0c
0b
0a
0`
0_
0^
$end
#10000
1!
10
11
1k
1]
1\
1,
1.
18
1$
1"
04
19
#20000
0!
00
01
#30000
1!
10
11
1j
0k
0:
09
08
14
1;
1:
19
0;
17
07
#40000
0!
00
01
#50000
1!
10
11
1k
18
04
0:
09
1;
17
#60000
0!
00
01
#70000
1!
10
11
0j
1i
0k
1:
19
1<
0;
08
14
0<
1;
1=
09
07
0=
17
1I
0I
#80000
0!
00
01
#90000
1!
10
11
1k
18
04
19
#100000
0!
00
01
#110000
1!
10
11
1j
0k
1W
0:
09
08
14
1<
0;
1:
19
1=
0<
1;
07
0=
1I
17
0I
#120000
0!
00
01
#130000
1!
10
11
1k
18
04
0:
09
1<
0;
1=
07
1I
#140000
0!
00
01
#150000
1!
10
11
1h
0j
0i
0k
0J
0=
1:
19
0<
1;
08
14
0;
1J
1=
09
1K
0I
17
0?
07
0K
1I
1?
#160000
0!
00
01
#170000
1!
10
11
1k
18
04
19
#180000
0!
00
01
#190000
1!
10
11
1j
0k
0:
09
08
14
1;
1:
19
0;
17
07
#200000
0!
00
01
#210000
1!
10
11
1k
18
04
0:
09
1;
1>
17
#220000
0!
00
01
#230000
1!
10
11
0j
1i
0k
1:
19
1<
0;
08
14
0<
1;
0>
0J
0=
09
07
1J
1=
17
1K
0I
0?
0K
1I
1?
#240000
0!
00
01
#250000
1!
10
11
1k
18
04
19
1>
0>
#260000
0!
00
01
#270000
1!
10
11
1j
0k
0:
09
08
14
1<
0;
1:
19
0J
0=
0<
1;
07
1J
1=
1K
0I
17
0?
0K
1I
1?
#280000
0!
00
01
#290000
1!
10
11
1k
18
04
0:
09
1<
0;
1>
0J
0=
0>
07
1K
0I
0?
#300000
0!
00
01
#310000
1!
10
11
1g
0h
0j
0i
0k
1L
1J
1=
1:
19
0<
1;
08
0K
14
0L
0;
0=
09
1?
1M
1K
1I
17
0?
0M
07
0I
#320000
0!
00
01
#330000
1!
10
11
1k
18
04
19
#340000
0!
00
01
#350000
1!
10
11
1j
0k
0:
09
08
14
1;
1:
19
0;
17
07
#360000
0!
00
01
#370000
1!
10
11
1k
18
04
0:
09
1;
17
#380000
0!
00
01
#390000
1!
10
11
0j
1i
0k
1:
19
1<
0;
08
14
0<
1;
1=
09
07
0=
17
1I
0I
#400000
0!
00
01
#410000
1!
10
11
1k
18
04
19
#420000
0!
00
01
#430000
1!
10
11
1j
0k
0:
09
08
14
1<
0;
1:
19
1=
0<
1;
07
0=
1I
17
0I
#440000
0!
00
01
#450000
1!
10
11
1k
18
04
0:
09
1<
0;
1=
07
1I
#460000
0!
00
01
#470000
1!
10
11
1h
0j
0i
0k
0J
0=
1:
19
0<
1;
08
14
1L
0;
1J
1=
09
0K
0I
17
0L
1?
1M
07
1K
1I
0?
0M
#480000
0!
00
01
#490000
1!
10
11
1k
18
04
19
#500000
0!
00
01
#510000
1!
10
11
1j
0k
0:
09
08
14
1;
1:
19
0;
17
07
#520000
0!
00
01
#530000
1!
10
11
1k
18
04
0:
09
1;
1>
17
#540000
0!
00
01
#550000
1!
10
11
0j
1i
0k
1:
19
1<
0;
08
14
0<
1;
0>
0J
0=
09
07
1J
1=
1L
17
0K
0I
0L
1?
1K
1I
1M
0?
0M
#560000
0!
00
01
#570000
1!
10
11
1k
18
04
19
1>
0>
#580000
0!
00
01
#590000
1!
10
11
1j
0k
0:
09
08
14
1<
0;
1:
19
0J
0=
0<
1;
07
1L
1J
1=
0K
0I
17
0L
1?
1M
1K
1I
0?
0M
#600000
0!
00
01
#610000
1!
10
11
1k
18
04
0:
09
1<
0;
1>
0J
0=
0>
07
1L
0K
0I
1?
1M
0?
#620000
0!
00
01
#630000
1!
10
11
1f
0g
0h
0j
0i
0k
1X
0N
0W
0L
1J
1=
1:
19
0<
1;
08
0M
1K
14
1O
0X
1N
0;
0=
09
1M
0K
1I
17
0O
1P
07
0I
0P
#640000
0!
00
01
#650000
1!
10
11
1k
18
04
19
#660000
0!
00
01
#670000
1!
10
11
1j
0k
0:
09
08
14
1;
1:
19
0;
17
07
#680000
0!
00
01
#690000
1!
10
11
1k
18
04
0:
09
1;
17
#700000
0!
00
01
#710000
1!
10
11
0j
1i
0k
1:
19
1<
0;
08
14
0<
1;
1=
09
07
0=
17
1I
0I
#720000
0!
00
01
#730000
1!
10
11
1k
18
04
19
#740000
0!
00
01
#750000
1!
10
11
1j
0k
1W
0:
09
08
14
1X
1<
0;
1:
19
1=
0<
1;
07
0=
1I
17
0I
#760000
0!
00
01
#770000
1!
10
11
1k
18
04
0:
09
1<
0;
1=
07
1I
#780000
0!
00
01
#790000
1!
10
11
1h
0j
0i
0k
0J
0=
1:
19
0<
1;
08
14
0;
1J
1=
09
1K
0I
17
07
0K
1I
#800000
0!
00
01
#810000
1!
10
11
1k
18
04
19
#820000
0!
00
01
#830000
1!
10
11
1j
0k
0:
09
08
14
1;
1:
19
0;
17
07
#840000
0!
00
01
#850000
1!
10
11
1k
18
04
0:
09
1;
1>
17
#860000
0!
00
01
#870000
1!
10
11
0j
1i
0k
1:
19
1<
0;
08
14
0<
1;
0>
0J
0=
09
07
1J
1=
17
1K
0I
0K
1I
#880000
0!
00
01
#890000
1!
10
11
1k
18
04
19
1>
0>
#900000
0!
00
01
#910000
1!
10
11
1j
0k
0:
09
08
14
1<
0;
1:
19
0J
0=
0<
1;
07
1J
1=
1K
0I
17
0K
1I
#920000
0!
00
01
#930000
1!
10
11
1k
18
04
0:
09
1<
0;
1>
0J
0=
0>
07
1K
0I
#940000
0!
00
01
#950000
1!
10
11
1g
0h
0j
0i
0k
1L
1J
1=
1:
19
0<
1;
08
0K
14
0N
0L
0;
0=
09
0M
1K
1I
17
1O
1N
1M
07
0I
0O
1P
0P
#960000
0!
00
01
#970000
1!
10
11
1k
18
04
19
#980000
0!
00
01
#990000
1!
10
11
1j
0k
0:
09
08
14
1;
1:
19
0;
17
07
#1000000
0!
00
01
#1010000
1!
10
11
1k
18
04
0:
09
1;
17
#1020000
0!
00
01
#1030000
1!
10
11
0j
1i
0k
1:
19
1<
0;
08
14
0<
1;
1=
09
07
0=
17
1I
0I
#1040000
0!
00
01
#1050000
1!
10
11
1k
18
04
19
#1060000
0!
00
01
#1070000
1!
10
11
1j
0k
0:
09
08
14
1<
0;
1:
19
1=
0<
1;
07
0=
1I
17
0I
#1080000
0!
00
01
#1090000
1!
10
11
1k
18
04
0:
09
1<
0;
1=
07
1I
#1100000
0!
00
01
#1110000
1!
10
11
1h
0j
0i
0k
0J
0=
1:
19
0<
1;
08
14
1L
0;
1J
1=
09
0K
0I
17
0N
0L
0M
07
1K
1I
1O
1N
1M
0O
1P
0P
#1120000
0!
00
01
#1130000
1!
10
11
1k
18
04
19
#1140000
0!
00
01
#1150000
1!
10
11
1j
0k
0:
09
08
14
1;
1:
19
0;
17
07
#1160000
0!
00
01
#1170000
1!
10
11
1k
18
04
0:
09
1;
1>
17
#1180000
0!
00
01
#1190000
1!
10
11
0j
1i
0k
1:
19
1<
0;
08
14
0<
1;
0>
0J
0=
09
07
1J
1=
1L
17
0K
0I
0L
0N
1K
1I
0M
1N
1O
1M
0O
1P
0P
#1200000
0!
00
01
#1210000
1!
10
11
1k
18
04
19
1>
0>
#1220000
0!
00
01
#1230000
1!
10
11
1j
0k
0:
09
08
14
1<
0;
1:
19
0J
0=
0<
1;
07
1L
1J
1=
0K
0I
17
0N
0L
0M
1K
1I
1O
1N
1M
0O
1P
0P
#1240000
0!
00
01
#1250000
1!
10
11
1k
18
04
0:
09
1<
0;
1>
0J
0=
0>
07
1L
0K
0I
0N
0M
1O
1?
1P
#1260000
0!
00
01
#1270000
1!
10
11
1e
0f
0g
0h
0j
0i
0k
1Q
0O
1N
0W
0L
1J
1=
1:
19
0<
1;
08
1M
1K
14
0Q
1O
0;
0=
09
0?
1R
0P
0M
0K
1I
17
1?
0R
1P
07
0I
#1280000
0!
00
01
#1290000
1!
10
11
1k
18
04
19
#1300000
0!
00
01
#1310000
1!
10
11
1j
0k
0:
09
08
14
1;
1:
19
0;
17
07
#1320000
0!
00
01
#1330000
1!
10
11
1k
18
04
0:
09
1;
17
#1340000
0!
00
01
#1350000
1!
10
11
0j
1i
0k
1:
19
1<
0;
08
14
0<
1;
1=
09
07
0=
17
1I
0I
#1360000
0!
00
01
#1370000
1!
10
11
1k
18
04
19
#1380000
0!
00
01
#1390000
1!
10
11
1j
0k
1W
0:
09
08
14
1<
0;
1:
19
1=
0<
1;
07
0=
1I
17
0I
#1400000
0!
00
01
#1410000
1!
10
11
1k
18
04
0:
09
1<
0;
1=
07
1I
#1420000
0!
00
01
#1430000
1!
10
11
1h
0j
0i
0k
0J
0=
1:
19
0<
1;
08
14
0;
1J
1=
09
1K
0I
17
0?
07
0K
1I
1?
#1440000
0!
00
01
#1450000
1!
10
11
1k
18
04
19
#1460000
0!
00
01
#1470000
1!
10
11
1j
0k
0:
09
08
14
1;
1:
19
0;
17
07
#1480000
0!
00
01
#1490000
1!
10
11
1k
18
04
0:
09
1;
1>
17
1@
0H
#1500000
0!
00
01
#1510000
1!
10
11
0j
1i
0k
1:
19
1<
0;
08
14
0<
1;
0>
0J
0=
09
07
1J
1=
0@
17
1K
0I
1H
0?
0K
1I
1?
#1520000
0!
00
01
#1530000
1!
10
11
1k
18
04
19
1>
0>
1@
0@
0H
1H
#1540000
0!
00
01
#1550000
1!
10
11
1j
0k
0:
09
08
14
1<
0;
1:
19
0J
0=
0<
1;
07
1J
1=
1K
0I
17
0?
0K
1I
1?
#1560000
0!
00
01
#1570000
1!
10
11
1k
18
04
0:
09
1<
0;
1>
0J
0=
0>
1@
07
0@
0H
1K
0I
1H
0?
#1580000
0!
00
01
#1590000
1!
10
11
1g
0h
0j
0i
0k
1L
1J
1=
1:
19
0<
1;
08
0K
14
0L
0;
0=
09
1?
1M
1K
1I
17
0?
0M
07
0I
#1600000
0!
00
01
#1610000
1!
10
11
1k
18
04
19
#1620000
0!
00
01
#1630000
1!
10
11
1j
0k
0:
09
08
14
1;
1:
19
0;
17
07
#1640000
0!
00
01
#1650000
1!
10
11
1k
18
04
0:
09
1;
17
#1660000
0!
00
01
#1670000
1!
10
11
0j
1i
0k
1:
19
1<
0;
08
14
0<
1;
1=
09
07
0=
17
1I
0I
#1680000
0!
00
01
#1690000
1!
10
11
1k
18
04
19
#1700000
0!
00
01
#1710000
1!
10
11
1j
0k
0:
09
08
14
1<
0;
1:
19
1=
0<
1;
07
0=
1I
17
0I
#1720000
0!
00
01
#1730000
1!
10
11
1k
18
04
0:
09
1<
0;
1=
07
1I
#1740000
0!
00
01
#1750000
1!
10
11
1h
0j
0i
0k
0J
0=
1:
19
0<
1;
08
14
1L
0;
1J
1=
09
0K
0I
17
0L
1?
1M
07
1K
1I
0?
0M
#1760000
0!
00
01
#1770000
1!
10
11
1k
18
04
19
#1780000
0!
00
01
#1790000
1!
10
11
1j
0k
0:
09
08
14
1;
1:
19
0;
17
07
#1800000
0!
00
01
#1810000
1!
10
11
1k
18
04
0:
09
1;
1>
17
#1820000
0!
00
01
#1830000
1!
10
11
0j
1i
0k
1:
19
1<
0;
08
14
0<
1;
0>
0J
0=
09
07
1J
1=
1L
17
0K
0I
0L
1?
1K
1I
1M
0?
0M
#1840000
0!
00
01
#1850000
1!
10
11
1k
18
04
19
1>
0>
#1860000
0!
00
01
#1870000
1!
10
11
1j
0k
0:
09
08
14
1<
0;
1:
19
0J
0=
0<
1;
07
1L
1J
1=
0K
0I
17
0L
1?
1M
1K
1I
0?
0M
#1880000
0!
00
01
#1890000
1!
10
11
1k
18
04
0:
09
1<
0;
1>
0J
0=
0>
07
1L
0K
0I
1?
1M
0?
#1900000
0!
00
01
#1910000
1!
10
11
1f
0g
0h
0j
0i
0k
0N
0W
0L
1J
1=
1:
19
0<
1;
08
0M
1K
14
1Q
0O
1N
0;
0=
09
1M
0K
1I
17
0Q
1O
1R
0P
07
0I
0R
1P
#1920000
0!
00
01
#1930000
1!
10
11
1k
18
04
19
#1940000
0!
00
01
#1950000
1!
10
11
1j
0k
0:
09
08
14
1;
1:
19
0;
17
07
#1960000
0!
00
01
#1970000
1!
10
11
1k
18
04
0:
09
1;
17
#1980000
0!
00
01
#1990000
1!
10
11
0j
1i
0k
1:
19
1<
0;
08
14
0<
1;
1=
09
07
0=
17
1I
0I
#2000000
0!
00
01
#2010000
1!
10
11
1k
18
04
19
#2020000
0!
00
01
#2030000
1!
10
11
1j
0k
1W
0:
09
08
14
1<
0;
1:
19
1=
0<
1;
07
0=
1I
17
0I
#2040000
0!
00
01
#2050000
1!
10
11
1k
18
04
0:
09
1<
0;
1=
07
1I
#2060000
0!
00
01
#2070000
1!
10
11
1h
0j
0i
0k
0J
0=
1:
19
0<
1;
08
14
0;
1J
1=
09
1K
0I
17
07
0K
1I
#2080000
0!
00
01
#2090000
1!
10
11
1k
18
04
19
#2100000
0!
00
01
#2110000
1!
10
11
1j
0k
0:
09
08
14
1;
1:
19
0;
17
07
#2120000
0!
00
01
#2130000
1!
10
11
1k
18
04
0:
09
1;
1>
17
#2140000
0!
00
01
#2150000
1!
10
11
0j
1i
0k
1:
19
1<
0;
08
14
0<
1;
0>
0J
0=
09
07
1J
1=
17
1K
0I
0K
1I
#2160000
0!
00
01
#2170000
1!
10
11
1k
18
04
19
1>
0>
#2180000
0!
00
01
#2190000
1!
10
11
1j
0k
0:
09
08
14
1<
0;
1:
19
0J
0=
0<
1;
07
1J
1=
1K
0I
17
0K
1I
#2200000
0!
00
01
#2210000
1!
10
11
1k
18
04
0:
09
1<
0;
1>
0J
0=
0>
07
1K
0I
#2220000
0!
00
01
#2230000
1!
10
11
1g
0h
0j
0i
0k
1L
1J
1=
1:
19
0<
1;
08
0K
14
0N
0L
0;
0=
09
0M
1K
1I
17
1Q
0O
1N
1M
07
0I
0Q
1O
1R
0P
0R
1P
#2240000
0!
00
01
#2250000
1!
10
11
1k
18
04
19
#2260000
0!
00
01
#2270000
1!
10
11
1j
0k
0:
09
08
14
1;
1:
19
0;
17
07
#2280000
0!
00
01
#2290000
1!
10
11
1k
18
04
0:
09
1;
17
#2300000
0!
00
01
#2310000
1!
10
11
0j
1i
0k
1:
19
1<
0;
08
14
0<
1;
1=
09
07
0=
17
1I
0I
#2320000
0!
00
01
#2330000
1!
10
11
1k
18
04
19
#2340000
0!
00
01
#2350000
1!
10
11
1j
0k
0:
09
08
14
1<
0;
1:
19
1=
0<
1;
07
0=
1I
17
0I
#2360000
0!
00
01
#2370000
1!
10
11
1k
18
04
0:
09
1<
0;
1=
07
1I
#2380000
0!
00
01
#2390000
1!
10
11
1h
0j
0i
0k
0J
0=
1:
19
0<
1;
08
14
1L
0;
1J
1=
09
0K
0I
17
0N
0L
0M
07
1K
1I
1Q
0O
1N
1M
0Q
1O
1R
0P
0R
1P
#2400000
0!
00
01
#2410000
1!
10
11
1k
18
04
19
#2420000
0!
00
01
#2430000
1!
10
11
1j
0k
0:
09
08
14
1;
1:
19
0;
17
07
#2440000
0!
00
01
#2450000
1!
10
11
1k
18
04
0:
09
1;
1>
17
#2460000
0!
00
01
#2470000
1!
10
11
0j
1i
0k
1:
19
1<
0;
08
14
0<
1;
0>
0J
0=
09
07
1J
1=
1L
17
0K
0I
0L
0N
1K
1I
0M
1N
1Q
0O
1M
0Q
1O
1R
0P
0R
1P
#2480000
0!
00
01
#2490000
1!
10
11
1k
18
04
19
1>
0>
#2500000
0!
00
01
#2510000
1!
10
11
1j
0k
0:
09
08
14
1<
0;
1:
19
0J
0=
0<
1;
07
1L
1J
1=
0K
0I
17
0N
0L
0M
1K
1I
1Q
0O
1N
1M
0Q
1O
1R
0P
0R
1P
#2520000
0!
00
01
#2530000
1!
10
11
1k
18
04
0:
09
1<
0;
1>
0J
0=
0>
07
1L
0K
0I
0N
0M
1Q
0O
1?
1R
0P
#2540000
0!
00
01
#2550000
1!
10
11
1d
0e
0f
0g
0h
0j
0i
0k
0S
0Q
1O
1N
0W
0L
1J
1=
1:
19
0<
1;
08
0R
1M
1K
14
1S
0O
0;
0=
09
0?
1T
1R
1P
0M
0K
1I
17
1?
0T
0P
07
0I
#2560000
0!
00
01
#2570000
1!
10
11
1k
18
04
19
#2580000
0!
00
01
#2590000
1!
10
11
1j
0k
0:
09
08
14
1;
1:
19
0;
17
07
#2600000
0!
00
01
#2610000
1!
10
11
1k
18
04
0:
09
1;
17
#2620000
0!
00
01
#2630000
1!
10
11
0j
1i
0k
1:
19
1<
0;
08
14
0<
1;
1=
09
07
0=
17
1I
0I
#2640000
0!
00
01
#2650000
1!
10
11
1k
18
04
19
#2660000
0!
00
01
#2670000
1!
10
11
1j
0k
1W
0:
09
08
14
1<
0;
1:
19
1=
0<
1;
07
0=
1I
17
0I
#2680000
0!
00
01
#2690000
1!
10
11
1k
18
04
0:
09
1<
0;
1=
07
1I
#2700000
0!
00
01
#2710000
1!
10
11
1h
0j
0i
0k
0J
0=
1:
19
0<
1;
08
14
0;
1J
1=
09
1K
0I
17
0?
07
0K
1I
1?
#2720000
0!
00
01
#2730000
1!
10
11
1k
18
04
19
#2740000
0!
00
01
#2750000
1!
10
11
1j
0k
0:
09
08
14
1;
1:
19
0;
17
07
#2760000
0!
00
01
#2770000
1!
10
11
1k
18
04
0:
09
1;
1>
17
#2780000
0!
00
01
#2790000
1!
10
11
0j
1i
0k
1:
19
1<
0;
08
14
0<
1;
0>
0J
0=
09
07
1J
1=
17
1K
0I
0?
0K
1I
1?
#2800000
0!
00
01
#2810000
1!
10
11
1k
18
04
19
1>
0>
#2820000
0!
00
01
#2830000
1!
10
11
1j
0k
0:
09
08
14
1<
0;
1:
19
0J
0=
0<
1;
07
1J
1=
1K
0I
17
0?
0K
1I
1?
#2840000
0!
00
01
#2850000
1!
10
11
1k
18
04
0:
09
1<
0;
1>
0J
0=
0>
07
1K
0I
0?
#2860000
0!
00
01
#2870000
1!
10
11
1g
0h
0j
0i
0k
1L
1J
1=
1:
19
0<
1;
08
0K
14
0L
0;
0=
09
1?
1M
1K
1I
17
0?
0M
07
0I
#2880000
0!
00
01
#2890000
1!
10
11
1k
18
04
19
#2900000
0!
00
01
#2910000
1!
10
11
1j
0k
0:
09
08
14
1;
1:
19
0;
17
07
#2920000
0!
00
01
#2930000
1!
10
11
1k
18
04
0:
09
1;
17
#2940000
0!
00
01
#2950000
1!
10
11
0j
1i
0k
1:
19
1<
0;
08
14
0<
1;
1=
09
07
0=
17
1I
0I
#2960000
0!
00
01
#2970000
1!
10
11
1k
18
04
19
#2980000
0!
00
01
#2990000
1!
10
11
1j
0k
0:
09
08
14
1<
0;
1:
19
1=
0<
1;
07
0=
1I
17
0I
#3000000
0!
00
01
#3010000
1!
10
11
1k
18
04
0:
09
1<
0;
1=
07
1I
#3020000
0!
00
01
#3030000
1!
10
11
1h
0j
0i
0k
0J
0=
1:
19
0<
1;
08
14
1L
0;
1J
1=
09
0K
0I
17
0L
1?
1M
07
1K
1I
0?
0M
#3040000
0!
00
01
#3050000
1!
10
11
1k
18
04
19
#3060000
0!
00
01
#3070000
1!
10
11
1j
0k
0:
09
08
14
1;
1:
19
0;
17
07
#3080000
0!
00
01
#3090000
1!
10
11
1k
18
04
0:
09
1;
1>
17
#3100000
0!
00
01
#3110000
1!
10
11
0j
1i
0k
1:
19
1<
0;
08
14
0<
1;
0>
0J
0=
09
07
1J
1=
1L
17
0K
0I
0L
1?
1K
1I
1M
0?
0M
#3120000
0!
00
01
#3130000
1!
10
11
1k
18
04
19
1>
0>
#3140000
0!
00
01
#3150000
1!
10
11
1j
0k
0:
09
08
14
1<
0;
1:
19
0J
0=
0<
1;
07
1L
1J
1=
0K
0I
17
0L
1?
1M
1K
1I
0?
0M
#3160000
0!
00
01
#3170000
1!
10
11
1k
18
04
0:
09
1<
0;
1>
0J
0=
0>
07
1L
0K
0I
1?
1M
0?
#3180000
0!
00
01
#3190000
1!
10
11
1f
0g
0h
0j
0i
0k
0N
0W
0L
1J
1=
1:
19
0<
1;
08
0M
1K
14
1O
1N
0;
0=
09
1M
0K
1I
17
0O
1P
07
0I
0P
#3200000
0!
00
01
#3210000
1!
10
11
1k
18
04
19
#3220000
0!
00
01
#3230000
1!
10
11
1j
0k
0:
09
08
14
1;
1:
19
0;
17
07
#3240000
0!
00
01
#3250000
1!
10
11
1k
18
04
0:
09
1;
17
#3260000
0!
00
01
#3270000
1!
10
11
0j
1i
0k
1:
19
1<
0;
08
14
0<
1;
1=
09
07
0=
17
1I
0I
#3280000
0!
00
01
#3290000
1!
10
11
1k
18
04
19
#3300000
0!
00
01
#3310000
1!
10
11
1j
0k
1W
0:
09
08
14
1<
0;
1:
19
1=
0<
1;
07
0=
1I
17
0I
#3320000
0!
00
01
#3330000
1!
10
11
1k
18
04
0:
09
1<
0;
1=
07
1I
#3340000
0!
00
01
#3350000
1!
10
11
1h
0j
0i
0k
0J
0=
1:
19
0<
1;
08
14
0;
1J
1=
09
1K
0I
17
07
0K
1I
#3360000
0!
00
01
#3370000
1!
10
11
1k
18
04
19
#3380000
0!
00
01
#3390000
1!
10
11
1j
0k
0:
09
08
14
1;
1:
19
0;
17
07
#3400000
0!
00
01
#3410000
1!
10
11
1k
18
04
0:
09
1;
1>
17
#3420000
0!
00
01
#3430000
1!
10
11
0j
1i
0k
1:
19
1<
0;
08
14
0<
1;
0>
0J
0=
09
07
1J
1=
17
1K
0I
0K
1I
#3440000
0!
00
01
#3450000
1!
10
11
1k
18
04
19
1>
0>
#3460000
0!
00
01
#3470000
1!
10
11
1j
0k
0:
09
08
14
1<
0;
1:
19
0J
0=
0<
1;
07
1J
1=
1K
0I
17
0K
1I
#3480000
0!
00
01
#3490000
1!
10
11
1k
18
04
0:
09
1<
0;
1>
0J
0=
0>
07
1K
0I
#3500000
0!
00
01
#3510000
1!
10
11
1g
0h
0j
0i
0k
1L
1J
1=
1:
19
0<
1;
08
0K
14
0N
0L
0;
0=
09
0M
1K
1I
17
1O
1N
1M
07
0I
0O
1P
0P
#3520000
0!
00
01
#3530000
1!
10
11
1k
18
04
19
#3540000
0!
00
01
#3550000
1!
10
11
1j
0k
0:
09
08
14
1;
1:
19
0;
17
07
#3560000
0!
00
01
#3570000
1!
10
11
1k
18
04
0:
09
1;
17
#3580000
0!
00
01
#3590000
1!
10
11
0j
1i
0k
1:
19
1<
0;
08
14
0<
1;
1=
09
07
0=
17
1I
0I
#3600000
0!
00
01
#3610000
1!
10
11
1k
18
04
19
#3620000
0!
00
01
#3630000
1!
10
11
1j
0k
0:
09
08
14
1<
0;
1:
19
1=
0<
1;
07
0=
1I
17
0I
#3640000
0!
00
01
#3650000
1!
10
11
1k
18
04
0:
09
1<
0;
1=
07
1I
#3660000
0!
00
01
#3670000
1!
10
11
1h
0j
0i
0k
0J
0=
1:
19
0<
1;
08
14
1L
0;
1J
1=
09
0K
0I
17
0N
0L
0M
07
1K
1I
1O
1N
1M
0O
1P
0P
#3680000
0!
00
01
#3690000
1!
10
11
1k
18
04
19
#3700000
0!
00
01
#3710000
1!
10
11
1j
0k
0:
09
08
14
1;
1:
19
0;
17
07
#3720000
0!
00
01
#3730000
1!
10
11
1k
18
04
0:
09
1;
1>
17
#3740000
0!
00
01
#3750000
1!
10
11
0j
1i
0k
1:
19
1<
0;
08
14
0<
1;
0>
0J
0=
09
07
1J
1=
1L
17
0K
0I
0L
0N
1K
1I
0M
1N
1O
1M
0O
1P
0P
#3760000
0!
00
01
#3770000
1!
10
11
1k
18
04
19
1>
0>
#3780000
0!
00
01
#3790000
1!
10
11
1j
0k
0:
09
08
14
1<
0;
1:
19
0J
0=
0<
1;
07
1L
1J
1=
0K
0I
17
0N
0L
0M
1K
1I
1O
1N
1M
0O
1P
0P
#3800000
0!
00
01
#3810000
1!
10
11
1k
18
04
0:
09
1<
0;
1>
0J
0=
0>
07
1L
0K
0I
0N
0M
1O
1?
1P
#3820000
0!
00
01
#3830000
1!
10
11
1e
0f
0g
0h
0j
0i
0k
1Q
0O
1N
0W
0L
1J
1=
1:
19
0<
1;
08
1M
1K
14
0S
0Q
1O
0;
0=
09
0?
0R
0P
0M
0K
1I
17
1S
1?
1T
1R
1P
07
0I
0T
#3840000
0!
00
01
#3850000
1!
10
11
1k
18
04
19
#3860000
0!
00
01
#3870000
1!
10
11
1j
0k
0:
09
08
14
1;
1:
19
0;
17
07
#3880000
0!
00
01
#3890000
1!
10
11
1k
18
04
0:
09
1;
17
#3900000
0!
00
01
#3910000
1!
10
11
0j
1i
0k
1:
19
1<
0;
08
14
0<
1;
1=
09
07
0=
17
1I
0I
#3920000
0!
00
01
#3930000
1!
10
11
1k
18
04
19
#3940000
0!
00
01
#3950000
1!
10
11
1j
0k
1W
0:
09
08
14
1<
0;
1:
19
1=
0<
1;
07
0=
1I
17
0I
#3960000
0!
00
01
#3970000
1!
10
11
1k
18
04
0:
09
1<
0;
1=
07
1I
#3980000
0!
00
01
#3990000
1!
10
11
1h
0j
0i
0k
0J
0=
1:
19
0<
1;
08
14
0;
1J
1=
09
1K
0I
17
0?
07
0K
1I
1?
#4000000
0!
00
01
#4010000
1!
10
11
1k
18
04
19
#4020000
0!
00
01
#4030000
1!
10
11
1j
0k
0:
09
08
14
1;
1:
19
0;
17
07
#4040000
0!
00
01
#4050000
1!
10
11
1k
18
04
0:
09
1;
1>
17
#4060000
0!
00
01
#4070000
1!
10
11
0j
1i
0k
1:
19
1<
0;
08
14
0<
1;
0>
0J
0=
09
07
1J
1=
17
1K
0I
0?
0K
1I
1?
#4080000
0!
00
01
#4090000
1!
10
11
1k
18
04
19
1>
0>
#4100000
0!
00
01
#4110000
1!
10
11
1j
0k
0:
09
08
14
1<
0;
1:
19
0J
0=
0<
1;
07
1J
1=
1K
0I
17
0?
0K
1I
1?
#4120000
0!
00
01
#4130000
1!
10
11
1k
18
04
0:
09
1<
0;
1>
0J
0=
0>
07
1K
0I
0?
#4140000
0!
00
01
#4150000
1!
10
11
1g
0h
0j
0i
0k
1L
1J
1=
1:
19
0<
1;
08
0K
14
0L
0;
0=
09
1?
1M
1K
1I
17
0?
0M
07
0I
#4160000
0!
00
01
#4170000
1!
10
11
1k
18
04
19
#4180000
0!
00
01
#4190000
1!
10
11
1j
0k
0:
09
08
14
1;
1:
19
0;
17
07
#4200000
0!
00
01
