SM_bot/simulation/qsim/SM_bot.msim.vcd
$comment
	File created using the following command:
		vcd file SM_bot.msim.vcd -direction
$end
$date
	Fri Jan 08 01:36:55 2021
$end
$version
	ModelSim Version 10.5b
$end
$timescale
	1ps
$end

$scope module color_sense_vlg_vec_tst $end
$var reg 1 ! c_clk $end
$var reg 1 " clk $end
$var wire 1 # color [2] $end
$var wire 1 $ color [1] $end
$var wire 1 % color [0] $end
$var wire 1 & s2 $end
$var wire 1 ' s3 $end

$scope module i1 $end
$var wire 1 ( gnd $end
$var wire 1 ) vcc $end
$var wire 1 * unknown $end
$var tri1 1 + devclrn $end
$var tri1 1 , devpor $end
$var tri1 1 - devoe $end
$var wire 1 . color[0]~output_o $end
$var wire 1 / color[1]~output_o $end
$var wire 1 0 color[2]~output_o $end
$var wire 1 1 s2~output_o $end
$var wire 1 2 s3~output_o $end
$var wire 1 3 clk~input_o $end
$var wire 1 4 clk~inputclkctrl_outclk $end
$var wire 1 5 counter[0]~9_combout $end
$var wire 1 6 LessThan0~0_combout $end
$var wire 1 7 LessThan0~2_combout $end
$var wire 1 8 counter[8]~24_combout $end
$var wire 1 9 r_state.BLUE_START~q $end
$var wire 1 : LessThan0~1_combout $end
$var wire 1 ; Selector6~0_combout $end
$var wire 1 < r_state.BLUE_READ~q $end
$var wire 1 = counter[8]~23_combout $end
$var wire 1 > r_state.IDLE~feeder_combout $end
$var wire 1 ? r_state.IDLE~q $end
$var wire 1 @ r_state.RED_START~0_combout $end
$var wire 1 A r_state.RED_START~q $end
$var wire 1 B Selector4~0_combout $end
$var wire 1 C r_state.RED_READ~q $end
$var wire 1 D counter[8]~25_combout $end
$var wire 1 E r_state.GREEN_START~q $end
$var wire 1 F WideOr0~combout $end
$var wire 1 G counter[8]~26_combout $end
$var wire 1 H counter[0]~10 $end
$var wire 1 I counter[1]~11_combout $end
$var wire 1 J counter[1]~12 $end
$var wire 1 K counter[2]~13_combout $end
$var wire 1 L counter[2]~14 $end
$var wire 1 M counter[3]~15_combout $end
$var wire 1 N counter[3]~16 $end
$var wire 1 O counter[4]~17_combout $end
$var wire 1 P counter[4]~18 $end
$var wire 1 Q counter[5]~19_combout $end
$var wire 1 R counter[5]~20 $end
$var wire 1 S counter[6]~21_combout $end
$var wire 1 T counter[6]~22 $end
$var wire 1 U counter[7]~27_combout $end
$var wire 1 V counter[7]~28 $end
$var wire 1 W counter[8]~29_combout $end
$var wire 1 X Selector5~0_combout $end
$var wire 1 Y r_state.GREEN_READ~q $end
$var wire 1 Z Selector1~0_combout $end
$var wire 1 [ c_clk~input_o $end
$var wire 1 \ c_clk~inputclkctrl_outclk $end
$var wire 1 ] c_counter[0]~9_combout $end
$var wire 1 ^ Equal0~1_combout $end
$var wire 1 _ Equal0~0_combout $end
$var wire 1 ` Equal0~2_combout $end
$var wire 1 a c_counter[0]~10 $end
$var wire 1 b c_counter[1]~11_combout $end
$var wire 1 c c_counter[1]~12 $end
$var wire 1 d c_counter[2]~13_combout $end
$var wire 1 e c_counter[2]~14 $end
$var wire 1 f c_counter[3]~15_combout $end
$var wire 1 g c_counter[3]~16 $end
$var wire 1 h c_counter[4]~17_combout $end
$var wire 1 i c_counter[4]~18 $end
$var wire 1 j c_counter[5]~19_combout $end
$var wire 1 k c_counter[5]~20 $end
$var wire 1 l c_counter[6]~21_combout $end
$var wire 1 m c_counter[6]~22 $end
$var wire 1 n c_counter[7]~23_combout $end
$var wire 1 o c_counter[7]~24 $end
$var wire 1 p c_counter[8]~25_combout $end
$var wire 1 q out_color~0_combout $end
$var wire 1 r out_color~1_combout $end
$var wire 1 s out_color~2_combout $end
$var wire 1 t out_color~3_combout $end
$var wire 1 u Selector1~1_combout $end
$var wire 1 v Selector0~0_combout $end
$var wire 1 w Selector0~1_combout $end
$var wire 1 x Selector2~0_combout $end
$var wire 1 y Selector2~1_combout $end
$var wire 1 z out_s2~q $end
$var wire 1 { Selector3~0_combout $end
$var wire 1 | Selector3~1_combout $end
$var wire 1 } out_s3~q $end
$var wire 1 ~ counter [8] $end
$var wire 1 !! counter [7] $end
$var wire 1 "! counter [6] $end
$var wire 1 #! counter [5] $end
$var wire 1 $! counter [4] $end
$var wire 1 %! counter [3] $end
$var wire 1 &! counter [2] $end
$var wire 1 '! counter [1] $end
$var wire 1 (! counter [0] $end
$var wire 1 )! c_counter [8] $end
$var wire 1 *! c_counter [7] $end
$var wire 1 +! c_counter [6] $end
$var wire 1 ,! c_counter [5] $end
$var wire 1 -! c_counter [4] $end
$var wire 1 .! c_counter [3] $end
$var wire 1 /! c_counter [2] $end
$var wire 1 0! c_counter [1] $end
$var wire 1 1! c_counter [0] $end
$var wire 1 2! out_color [1] $end
$var wire 1 3! out_color [0] $end
$upscope $end
$upscope $end
$enddefinitions $end
#0
$dumpvars
0!
0"
0%
0$
0#
1&
0'
0(
1)
x*
1+
1,
1-
0.
0/
00
11
02
03
04
15
06
07
08
09
0:
0;
0<
1=
1>
0?
1@
0A
0B
0C
0D
0E
0F
0G
0H
0I
1J
0K
0L
0M
1N
0O
0P
0Q
1R
0S
0T
0U
1V
0W
0X
0Y
0Z
0[
0\
1]
1^
1_
1`
0a
0b
1c
0d
0e
0f
1g
0h
0i
0j
1k
0l
0m
0n
1o
0p
0q
0r
0s
0t
0u
0v
0w
0x
0y
0z
0{
0|
0}
0(!
0'!
0&!
0%!
0$!
0#!
0"!
0!!
0~
01!
00!
0/!
0.!
0-!
0,!
0+!
0*!
0)!
03!
02!
$end
#10000
1"
13
14
1A
1?
1F
1G
1B
1y
0@
#20000
0"
03
04
#30000
1!
1"
1[
13
14
1\
1z
1C
0A
01
1Z
0F
0&
#40000
0"
03
04
#50000
1"
13
14
1(!
0`
1H
05
1I
#60000
0!
0"
0[
03
04
0\
#70000
1"
13
14
1'!
0(!
0^
0J
1`
0H
0I
15
0`
1J
1K
1I
0K
#80000
0"
03
04
#90000
1!
1"
1[
13
14
1\
1(!
11!
1H
1a
05
0]
0J
0I
1b
1K
#100000
0"
03
04
#110000
1"
13
14
1&!
0'!
0(!
0_
1L
1^
1J
0H
0K
1I
15
0L
1M
1K
0I
0M
#120000
0!
0"
0[
03
04
0\
#130000
1"
13
14
1(!
1H
05
1I
#140000
0"
03
04
#150000
1!
1"
1[
13
14
1\
1'!
0(!
10!
01!
0^
0J
0H
0c
0a
0I
15
0b
1]
1L
1J
1c
0K
1I
1d
1b
0L
1M
1K
0d
0M
#160000
0"
03
04
#170000
1"
13
14
1(!
1H
05
0J
0I
1L
0K
1M
#180000
0!
0"
0[
03
04
0\
#190000
1"
13
14
1%!
0&!
0'!
0(!
0N
0L
1^
1J
0H
0M
1K
1I
15
1N
1O
1M
0K
0I
0O
#200000
0"
03
04
#210000
1!
1"
1[
13
14
1\
1(!
11!
1H
1a
05
0]
0c
1I
0b
1d
#220000
0"
03
04
#230000
1"
13
14
1'!
0(!
0^
0J
0H
0I
15
1J
1K
1I
0K
#240000
0!
0"
0[
03
04
0\
#250000
1"
13
14
1(!
1H
05
0J
0I
1K
#260000
0"
03
04
#270000
1!
1"
1[
13
14
1\
1&!
0'!
0(!
1/!
00!
01!
1L
1^
1J
0H
1e
1c
0a
0K
1I
15
0d
1b
1]
0N
0L
0e
0M
1K
0I
1f
1d
0b
1N
1O
1M
0f
0O
#280000
0"
03
04
#290000
1"
13
14
1(!
1H
05
1I
#300000
0!
0"
0[
03
04
0\
#310000
1"
13
14
1'!
0(!
0^
0J
0H
0I
15
1L
1J
0K
1I
0N
0L
0M
1K
1N
1O
1M
0O
#320000
0"
03
04
#330000
1!
1"
1[
13
14
1\
1(!
11!
1H
1a
05
0]
0J
0I
1b
1L
0K
0N
0M
1O
#340000
0"
03
04
#350000
1"
13
14
1$!
0%!
0&!
0'!
0(!
1P
1_
1N
0L
1J
0H
0O
1M
1K
1I
15
0P
1Q
1O
0M
0K
0I
0Q
#360000
0!
0"
0[
03
04
0\
#370000
1"
13
14
1(!
1H
05
1I
#380000
0"
03
04
#390000
1!
1"
1[
13
14
1\
1'!
0(!
10!
01!
0J
0H
0c
0a
0I
15
0b
1]
1J
1e
1c
1K
1I
0d
1b
0e
0K
1f
1d
0f
#400000
0"
03
04
#410000
1"
13
14
1(!
1H
05
0J
0I
1K
#420000
0!
0"
0[
03
04
0\
#430000
1"
13
14
1&!
0'!
0(!
0_
1L
1J
0H
0K
1I
15
0L
1M
1K
0I
0M
#440000
0"
03
04
#450000
1!
1"
1[
13
14
1\
1(!
11!
1H
1a
05
0]
0c
1I
0b
1e
0d
1f
#460000
0"
03
04
#470000
1"
13
14
1'!
0(!
0J
0H
0I
15
1L
1J
0K
1I
0L
1M
1K
0M
#480000
0!
0"
0[
03
04
0\
#490000
1"
13
14
1(!
1H
05
0J
0I
1L
0K
1M
#500000
0"
03
04
#510000
1!
1"
1[
13
14
1\
1%!
0&!
0'!
0(!
1.!
0/!
00!
01!
0N
0L
1J
0H
0g
0e
1c
0a
0M
1K
1I
15
0f
1d
1b
1]
1P
1N
1g
0O
1M
0K
0I
1h
1f
0d
0b
0P
1Q
1O
0h
0Q
#520000
0"
03
04
#530000
1"
13
14
1(!
1H
05
1I
#540000
0!
0"
0[
03
04
0\
#550000
1"
13
14
1'!
0(!
0J
0H
0I
15
1J
1K
1I
0K
#560000
0"
03
04
#570000
1!
1"
1[
13
14
1\
1(!
11!
1H
1a
05
0]
0J
0I
1b
1K
#580000
0"
03
04
#590000
1"
13
14
1&!
0'!
0(!
1L
1J
0H
0K
1I
15
0N
0L
0M
1K
0I
1P
1N
0O
1M
0P
1Q
1O
0Q
#600000
0!
0"
0[
03
04
0\
#610000
1"
13
14
1(!
1H
05
1I
#620000
0"
03
04
#630000
1!
1"
1[
13
14
1\
1'!
0(!
10!
01!
0J
0H
1r
0c
0a
0I
15
0b
1]
1L
1J
1c
0K
1I
1d
1b
0N
0L
0M
1K
0d
1P
1N
0O
1M
0P
1Q
1O
0Q
#640000
0"
03
04
#650000
1"
13
14
1(!
1H
05
0J
0I
1L
0K
0N
0M
1P
0O
1Q
#660000
0!
0"
0[
03
04
0\
#670000
1"
13
14
1#!
0$!
0%!
0&!
0'!
0(!
0R
0P
1_
1N
0L
1J
0H
0Q
1O
1M
1K
1I
15
1R
1S
1Q
0O
0M
0K
0I
0S
#680000
0"
03
04
#690000
1!
1"
1[
13
14
1\
1(!
11!
1H
1a
05
0]
0c
1I
0b
1d
#700000
0"
03
04
#710000
1"
13
14
1'!
0(!
0J
0H
0I
15
1J
1K
1I
0K
#720000
0!
0"
0[
03
04
0\
#730000
1"
13
14
1(!
1H
05
0J
0I
1K
#740000
0"
03
04
#750000
1!
1"
1[
13
14
1\
1&!
0'!
0(!
1/!
00!
01!
0_
1L
1J
0H
1e
1c
0a
0K
1I
15
0d
1b
1]
0L
0g
0e
1M
1K
0I
0f
1d
0b
1g
0M
1h
1f
0h
#760000
0"
03
04
#770000
1"
13
14
1(!
1H
05
1I
#780000
0!
0"
0[
03
04
0\
#790000
1"
13
14
1'!
0(!
0J
0H
0I
15
1L
1J
0K
1I
0L
1M
1K
0M
#800000
0"
03
04
#810000
1!
1"
1[
13
14
1\
1(!
11!
1H
1a
05
0]
0J
0I
1b
1L
0K
1M
#820000
0"
03
04
#830000
1"
13
14
1%!
0&!
0'!
0(!
0N
0L
1J
0H
0M
1K
1I
15
1N
1O
1M
0K
0I
0O
#840000
0!
0"
0[
03
04
0\
#850000
1"
13
14
1(!
1H
05
1I
#860000
0"
03
04
#870000
1!
1"
1[
13
14
1\
1'!
0(!
10!
01!
0J
0H
0c
0a
0I
15
0b
1]
1J
1e
1c
1K
1I
0d
1b
0g
0e
0K
0f
1d
1g
1h
1f
0h
#880000
0"
03
04
#890000
1"
13
14
1(!
1H
05
0J
0I
1K
#900000
0!
0"
0[
03
04
0\
#910000
1"
13
14
1&!
0'!
0(!
1L
1:
17
1J
0H
0K
1I
15
0N
0L
0M
1K
0I
1N
1O
1M
0O
#920000
0"
03
04
#930000
1!
1"
1[
13
14
1\
1(!
11!
1H
1a
05
0]
0c
1I
0b
1e
0d
0g
0f
1h
#940000
0"
03
04
#950000
1"
13
14
1'!
0(!
0J
0H
0I
15
1L
1J
0K
1I
0N
0L
0M
1K
1N
1O
1M
0O
#960000
0!
0"
0[
03
04
0\
#970000
1"
13
14
1(!
1H
05
0J
0I
1L
0K
0N
0M
1O
#980000
0"
03
04
#990000
1!
1"
1[
13
14
1\
1$!
0%!
0&!
0'!
0(!
1-!
0.!
0/!
00!
01!
1P
16
1_
1N
0:
07
0L
1J
0H
1s
1i
0r
1g
0e
1c
0a
0O
1M
1K
1I
15
0h
1f
1d
1b
1]
0R
1:
0P
0s
0i
0Q
1O
0M
0K
0I
1j
1h
0f
0d
0b
1R
1S
1Q
0j
0S
#1000000
0"
03
04
#1010000
1"
13
14
1(!
1H
05
1I
#1020000
0!
0"
0[
03
04
0\
#1030000
1"
13
14
1'!
0(!
0J
0H
0I
15
1J
1K
1I
0K
#1040000
0"
03
04
#1050000
1!
1"
1[
13
14
1\
1(!
11!
1H
1a
05
0]
0J
0I
1b
1K
#1060000
0"
03
04
#1070000
1"
13
14
1&!
0'!
0(!
0_
1L
1J
0H
0K
1I
15
0L
1M
1K
0I
0M
#1080000
0!
0"
0[
03
04
0\
#1090000
1"
13
14
1(!
1H
05
1I
#1100000
0"
03
04
#1110000
1!
1"
1[
13
14
1\
1'!
0(!
10!
01!
0J
0H
0c
0a
0I
15
0b
1]
1L
1J
1c
0K
1I
1d
1b
0L
1M
1K
0d
0M
#1120000
0"
03
04
#1130000
1"
13
14
1(!
1H
05
0J
0I
1L
0K
1M
#1140000
0!
0"
0[
03
04
0\
#1150000
1"
13
14
1%!
0&!
0'!
0(!
0N
0L
1J
0H
0M
1K
1I
15
1P
1N
0O
1M
0K
0I
0R
0P
0Q
1O
1R
1S
1Q
0S
#1160000
0"
03
04
#1170000
1!
1"
1[
13
14
1\
1(!
11!
1H
1a
05
0]
0c
1I
0b
1d
#1180000
0"
03
04
#1190000
1"
13
14
1'!
0(!
0J
0H
0I
15
1J
1K
1I
0K
#1200000
0!
0"
0[
03
04
0\
#1210000
1"
13
14
1(!
1H
05
0J
0I
1K
#1220000
0"
03
04
#1230000
1!
1"
1[
13
14
1\
1&!
0'!
0(!
1/!
00!
01!
1L
17
1J
0H
1e
1c
0a
0K
1I
15
0d
1b
1]
0N
0L
0e
0M
1K
0I
1f
1d
0b
1P
1N
0O
1M
0f
0R
0P
0Q
1O
1R
1S
1Q
0S
#1240000
0"
03
04
#1250000
1"
13
14
1(!
1H
05
1I
#1260000
0!
0"
0[
03
04
0\
#1270000
1"
13
14
1'!
0(!
0J
0H
0I
15
1L
1J
0K
1I
0N
0L
0M
1K
1P
1N
0O
1M
0R
0P
0Q
1O
1R
1S
1Q
0S
#1280000
0"
03
04
#1290000
1!
1"
1[
13
14
1\
1(!
11!
1H
1a
05
0]
0J
0I
1b
1L
0K
0N
0M
1P
0O
0R
0Q
1S
#1300000
0"
03
04
#1310000
1"
13
14
1"!
0#!
0$!
0%!
0&!
0'!
0(!
1T
1^
1R
07
0P
1N
0L
1J
0H
0S
1Q
1O
1M
1K
1I
15
0T
1U
1S
0Q
0O
0M
0K
0I
0U
#1320000
0!
0"
0[
03
04
0\
#1330000
1"
13
14
1(!
1H
05
1I
#1340000
0"
03
04
#1350000
1!
1"
1[
13
14
1\
1'!
0(!
10!
01!
0^
0J
0H
0c
0a
0I
15
0b
1]
1J
1e
1c
1K
1I
0d
1b
0e
0K
1f
1d
0f
#1360000
0"
03
04
#1370000
1"
13
14
1(!
1H
05
0J
0I
1K
#1380000
0!
0"
0[
03
04
0\
#1390000
1"
13
14
1&!
0'!
0(!
1L
1^
1J
0H
0K
1I
15
0L
1M
1K
0I
0M
#1400000
0"
03
04
#1410000
1!
1"
1[
13
14
1\
1(!
11!
1H
1a
05
0]
0c
1I
0b
1e
0d
1f
#1420000
0"
03
04
#1430000
1"
13
14
1'!
0(!
0^
0J
0H
0I
15
1L
1J
0K
1I
0L
1M
1K
0M
#1440000
0!
0"
0[
03
04
0\
#1450000
1"
13
14
1(!
1H
05
0J
0I
1L
0K
1M
#1460000
0"
03
04
#1470000
1!
1"
1[
13
14
1\
1%!
0&!
0'!
0(!
1.!
0/!
00!
01!
0N
0L
1^
1J
0H
0g
0e
1c
0a
0M
1K
1I
15
0f
1d
1b
1]
1N
1i
1g
1O
1M
0K
0I
0h
1f
0d
0b
0i
0O
1j
1h
0j
#1480000
0"
03
04
#1490000
1"
13
14
1(!
1H
05
1I
#1500000
0!
0"
0[
03
04
0\
#1510000
1"
13
14
1'!
0(!
0^
0J
0H
0I
15
1J
1K
1I
0K
#1520000
0"
03
04
#1530000
1!
1"
1[
13
14
1\
1(!
11!
1H
1a
05
0]
0J
0I
1b
1K
#1540000
0"
03
04
#1550000
1"
13
14
1&!
0'!
0(!
1L
1^
1J
0H
0K
1I
15
0N
0L
0M
1K
0I
1N
1O
1M
0O
#1560000
0!
0"
0[
03
04
0\
#1570000
1"
13
14
1(!
1H
05
1I
#1580000
0"
03
04
#1590000
1!
1"
1[
13
14
1\
1'!
0(!
10!
01!
0^
0J
0H
1r
0c
0a
0I
15
0b
1]
1L
1J
1s
1c
0K
1I
1d
1b
0N
0L
0M
1K
0d
1N
1O
1M
0O
#1600000
0"
03
04
#1610000
1"
13
14
1(!
1H
05
0J
0I
1L
0K
0N
0M
1O
#1620000
0!
0"
0[
03
04
0\
#1630000
1"
13
14
1$!
0%!
0&!
0'!
0(!
1P
1N
0L
1J
0H
0O
1M
1K
1I
15
0P
1Q
1O
0M
0K
0I
0Q
#1640000
0"
03
04
#1650000
1!
1"
1[
13
14
1\
1(!
11!
1H
1a
05
0]
0c
1I
0b
1d
#1660000
0"
03
04
#1670000
1"
13
14
1'!
0(!
0J
0H
0I
15
1J
1K
1I
0K
#1680000
0!
0"
0[
03
04
0\
#1690000
1"
13
14
1(!
1H
05
0J
0I
1K
#1700000
0"
03
04
#1710000
1!
1"
1[
13
14
1\
1&!
0'!
0(!
1/!
00!
01!
1L
1J
0H
1e
1c
0a
0K
1I
15
0d
1b
1]
0L
0g
0e
1M
1K
0I
0f
1d
0b
1i
1g
0M
0h
1f
0i
1j
1h
0j
#1720000
0"
03
04
#1730000
1"
13
14
1(!
1H
05
1I
#1740000
0!
0"
0[
03
04
0\
#1750000
1"
13
14
1'!
0(!
0J
0H
0I
15
1L
1J
0K
1I
0L
1M
1K
0M
#1760000
0"
03
04
#1770000
1!
1"
1[
13
14
1\
1(!
11!
1H
1a
05
0]
0J
0I
1b
1L
0K
1M
#1780000
0"
03
04
#1790000
1"
13
14
1%!
0&!
0'!
0(!
0N
0L
1J
0H
0M
1K
1I
15
1P
1N
0O
1M
0K
0I
0P
1Q
1O
0Q
#1800000
0!
0"
0[
03
04
0\
#1810000
1"
13
14
1(!
1H
05
1I
#1820000
0"
03
04
#1830000
1!
1"
1[
13
14
1\
1'!
0(!
10!
01!
0J
0H
0c
0a
0I
15
0b
1]
1J
1e
1c
1K
1I
0d
1b
0g
0e
0K
0f
1d
1i
1g
0h
1f
0i
1j
1h
0j
#1840000
0"
03
04
#1850000
1"
13
14
1(!
1H
05
0J
0I
1K
#1860000
0!
0"
0[
03
04
0\
#1870000
1"
13
14
1&!
0'!
0(!
1L
1J
0H
0K
1I
15
0N
0L
0M
1K
0I
1P
1N
0O
1M
0P
1Q
1O
0Q
#1880000
0"
03
04
#1890000
1!
1"
1[
13
14
1\
1(!
11!
1H
1a
05
0]
0c
1I
0b
1e
0d
0g
0f
1i
0h
1j
#1900000
0"
03
04
#1910000
1"
13
14
1'!
0(!
0J
0H
0I
15
1L
1J
0K
1I
0N
0L
0M
1K
1P
1N
0O
1M
0P
1Q
1O
0Q
#1920000
0!
0"
0[
03
04
0\
#1930000
1"
13
14
1(!
1H
05
0J
0I
1L
0K
0N
0M
1P
0O
1Q
#1940000
0"
03
04
#1950000
1!
1"
1[
13
14
1\
1#!
0$!
0%!
0&!
0'!
0(!
1,!
0-!
0.!
0/!
00!
01!
0R
0P
1N
0L
1J
0H
0r
0k
0i
1g
0e
1c
0a
0Q
1O
1M
1K
1I
15
0j
1h
1f
1d
1b
1]
1T
1R
1k
0S
1Q
0O
0M
0K
0I
1l
1j
0h
0f
0d
0b
0T
1U
1S
0l
0U
#1960000
0"
03
04
#1970000
1"
13
14
1(!
1H
05
1I
#1980000
0!
0"
0[
03
04
0\
#1990000
1"
13
14
1'!
0(!
0J
0H
0I
15
1J
1K
1I
0K
#2000000
0"
03
04
#2010000
1!
1"
1[
13
14
1\
1(!
11!
1H
1a
05
0]
0J
0I
1b
1K
#2020000
0"
03
04
#2030000
1"
13
14
1&!
0'!
0(!
1L
1J
0H
0K
1I
15
0L
1M
1K
0I
0M
#2040000
0!
0"
0[
03
04
0\
#2050000
1"
13
14
1(!
1H
05
1I
#2060000
0"
03
04
#2070000
1!
1"
1[
13
14
1\
1'!
0(!
10!
01!
0J
0H
0c
0a
0I
15
0b
1]
1L
1J
1c
0K
1I
1d
1b
0L
1M
1K
0d
0M
#2080000
0"
03
04
#2090000
1"
13
14
1(!
1H
05
0J
0I
1L
0K
1M
#2100000
0!
0"
0[
03
04
0\
#2110000
1"
13
14
1%!
0&!
0'!
0(!
0N
0L
1J
0H
0M
1K
1I
15
1N
1O
1M
0K
0I
0O
#2120000
0"
03
04
#2130000
1!
1"
1[
13
14
1\
1(!
11!
1H
1a
05
0]
0c
1I
0b
1d
#2140000
0"
03
04
#2150000
1"
13
14
1'!
0(!
0J
0H
0I
15
1J
1K
1I
0K
#2160000
0!
0"
0[
03
04
0\
#2170000
1"
13
14
1(!
1H
05
0J
0I
1K
#2180000
0"
03
04
#2190000
1!
1"
1[
13
14
1\
1&!
0'!
0(!
1/!
00!
01!
1L
17
1J
0H
1e
1c
0a
0K
1I
15
0d
1b
1]
0N
0L
0e
0M
1K
0I
1f
1d
0b
1N
1O
1M
0f
0O
#2200000
0"
03
04
#2210000
1"
13
14
1(!
1H
05
1I
#2220000
0!
0"
0[
03
04
0\
#2230000
1"
13
14
1'!
0(!
0J
0H
0I
15
1L
1J
0K
1I
0N
0L
0M
1K
1N
1O
1M
0O
#2240000
0"
03
04
#2250000
1!
1"
1[
13
14
1\
1(!
11!
1H
1a
05
0]
0J
0I
1b
1L
0K
0N
0M
1O
#2260000
0"
03
04
#2270000
1"
13
14
1$!
0%!
0&!
0'!
0(!
1P
1N
07
0L
1J
0H
0O
1M
1K
1I
15
0R
0P
0Q
1O
0M
0K
0I
1T
1R
0S
1Q
0T
1U
1S
0U
#2280000
0!
0"
0[
03
04
0\
#2290000
1"
13
14
1(!
1H
05
1I
#2300000
0"
03
04
#2310000
1!
1"
1[
13
14
1\
1'!
0(!
10!
01!
0J
0H
0c
0a
0I
15
0b
1]
1J
1e
1c
1K
1I
0d
1b
0e
0K
1f
1d
0f
#2320000
0"
03
04
#2330000
1"
13
14
1(!
1H
05
0J
0I
1K
#2340000
0!
0"
0[
03
04
0\
#2350000
1"
13
14
1&!
0'!
0(!
1L
1J
0H
0K
1I
15
0L
1M
1K
0I
0M
#2360000
0"
03
04
#2370000
1!
1"
1[
13
14
1\
1(!
11!
1H
1a
05
0]
0c
1I
0b
1e
0d
1f
#2380000
0"
03
04
#2390000
1"
13
14
1'!
0(!
0J
0H
0I
15
1L
1J
0K
1I
0L
1M
1K
0M
#2400000
0!
0"
0[
03
04
0\
#2410000
1"
13
14
1(!
1H
05
0J
0I
1L
0K
1M
#2420000
0"
03
04
#2430000
1!
1"
1[
13
14
1\
1%!
0&!
0'!
0(!
1.!
0/!
00!
01!
0N
0L
1J
0H
1r
0g
0e
1c
0a
0M
1K
1I
15
0f
1d
1b
1]
1P
1N
1g
0O
1M
0K
0I
1h
1f
0d
0b
0R
0P
0Q
1O
0h
1T
1R
0S
1Q
0T
1U
1S
0U
#2440000
0"
03
04
#2450000
1"
13
14
1(!
1H
05
1I
#2460000
0!
0"
0[
03
04
0\
#2470000
1"
13
14
1'!
0(!
0J
0H
0I
15
1J
1K
1I
0K
#2480000
0"
03
04
#2490000
1!
1"
1[
13
14
1\
1(!
11!
1H
1a
05
0]
0J
0I
1b
1K
#2500000
0"
03
04
#2510000
1"
13
14
1&!
0'!
0(!
1L
17
1J
0H
0K
1I
15
0N
0L
0M
1K
0I
1P
1N
0O
1M
0R
0P
0Q
1O
1T
1R
0S
1Q
0T
1U
1S
0U
#2520000
0!
0"
0[
03
04
0\
#2530000
1"
13
14
1(!
1H
05
1I
#2540000
0"
03
04
#2550000
1!
1"
1[
13
14
1\
1'!
0(!
10!
01!
0J
0H
0c
0a
0I
15
0b
1]
1L
1J
1c
0K
1I
1d
1b
0N
0L
0M
1K
0d
1P
1N
0O
1M
0R
0P
0Q
1O
1T
1R
0S
1Q
0T
1U
1S
0U
#2560000
0"
03
04
#2570000
1"
13
14
1(!
1H
05
0J
0I
1L
0K
0N
0M
1P
0O
0R
0Q
1T
0S
1U
#2580000
0!
0"
0[
03
04
0\
#2590000
1"
13
14
1!!
0"!
0#!
0$!
0%!
0&!
0'!
0(!
0V
0T
1^
1R
07
0P
1N
0L
1J
0H
0U
1S
1Q
1O
1M
1K
1I
15
1V
1W
1U
0S
0Q
0O
0M
0K
0I
0W
#2600000
0"
03
04
#2610000
1!
1"
1[
13
14
1\
1(!
11!
1H
1a
05
0]
0c
1I
0b
1d
#2620000
0"
03
04
#2630000
1"
13
14
1'!
0(!
0^
0J
0H
0I
15
1J
1K
1I
0K
#2640000
0!
0"
0[
03
04
0\
#2650000
1"
13
14
1(!
1H
05
0J
0I
1K
#2660000
0"
03
04
#2670000
1!
1"
1[
13
14
1\
1&!
0'!
0(!
1/!
00!
01!
1L
1^
1J
0H
1e
1c
0a
0K
1I
15
0d
1b
1]
0L
0g
0e
1M
1K
0I
0f
1d
0b
1g
0M
1h
1f
0h
#2680000
0"
03
04
#2690000
1"
13
14
1(!
1H
05
1I
#2700000
0!
0"
0[
03
04
0\
#2710000
1"
13
14
1'!
0(!
0^
0J
0H
0I
15
1L
1J
0K
1I
0L
1M
1K
0M
#2720000
0"
03
04
#2730000
1!
1"
1[
13
14
1\
1(!
11!
1H
1a
05
0]
0J
0I
1b
1L
0K
1M
#2740000
0"
03
04
#2750000
1"
13
14
1%!
0&!
0'!
0(!
0N
0L
1^
1J
0H
0M
1K
1I
15
1N
1O
1M
0K
0I
0O
#2760000
0!
0"
0[
03
04
0\
#2770000
1"
13
14
1(!
1H
05
1I
#2780000
0"
03
04
#2790000
1!
1"
1[
13
14
1\
1'!
0(!
10!
01!
0^
0J
0H
0c
0a
0I
15
0b
1]
1J
1e
1c
1K
1I
0d
1b
0g
0e
0K
0f
1d
1g
1h
1f
0h
#2800000
0"
03
04
#2810000
1"
13
14
1(!
1H
05
0J
0I
1K
#2820000
0!
0"
0[
03
04
0\
#2830000
1"
13
14
1&!
0'!
0(!
1L
1^
1J
0H
0K
1I
15
0N
0L
0M
1K
0I
1N
1O
1M
0O
#2840000
0"
03
04
#2850000
1!
1"
1[
13
14
1\
1(!
11!
1H
1a
05
0]
0c
1I
0b
1e
0d
0g
0f
1h
#2860000
0"
03
04
#2870000
1"
13
14
1'!
0(!
0^
0J
0H
0I
15
1L
1J
0K
1I
0N
0L
0M
1K
1N
1O
1M
0O
#2880000
0!
0"
0[
03
04
0\
#2890000
1"
13
14
1(!
1H
05
0J
0I
1L
0K
0N
0M
1O
#2900000
0"
03
04
#2910000
1!
1"
1[
13
14
1\
1$!
0%!
0&!
0'!
0(!
1-!
0.!
0/!
00!
01!
1P
1N
0L
1J
0H
1i
0r
1g
0e
1c
0a
0O
1M
1K
1I
15
0h
1f
1d
1b
1]
0P
0k
0i
1Q
1O
0M
0K
0I
0j
1h
0f
0d
0b
1k
0Q
1l
1j
0l
#2920000
0"
03
04
#2930000
1"
13
14
1(!
1H
05
1I
#2940000
0!
0"
0[
03
04
0\
#2950000
1"
13
14
1'!
0(!
0J
0H
0I
15
1J
1K
1I
0K
#2960000
0"
03
04
#2970000
1!
1"
1[
13
14
1\
1(!
11!
1H
1a
05
0]
0J
0I
1b
1K
#2980000
0"
03
04
#2990000
1"
13
14
1&!
0'!
0(!
1L
1J
0H
0K
1I
15
0L
1M
1K
0I
0M
#3000000
0!
0"
0[
03
04
0\
#3010000
1"
13
14
1(!
1H
05
1I
#3020000
0"
03
04
#3030000
1!
1"
1[
13
14
1\
1'!
0(!
10!
01!
0J
0H
0c
0a
0I
15
0b
1]
1L
1J
1c
0K
1I
1d
1b
0L
1M
1K
0d
0M
#3040000
0"
03
04
#3050000
1"
13
14
1(!
1H
05
0J
0I
1L
0K
1M
#3060000
0!
0"
0[
03
04
0\
#3070000
1"
13
14
1%!
0&!
0'!
0(!
0N
0L
1J
0H
0M
1K
1I
15
1P
1N
0O
1M
0K
0I
0P
1Q
1O
0Q
#3080000
0"
03
04
#3090000
1!
1"
1[
13
14
1\
1(!
11!
1H
1a
05
0]
0c
1I
0b
1d
#3100000
0"
03
04
#3110000
1"
13
14
1'!
0(!
0J
0H
0I
15
1J
1K
1I
0K
#3120000
0!
0"
0[
03
04
0\
#3130000
1"
13
14
1(!
1H
05
0J
0I
1K
#3140000
0"
03
04
#3150000
1!
1"
1[
13
14
1\
1&!
0'!
0(!
1/!
00!
01!
1L
1J
0H
1e
1c
0a
0K
1I
15
0d
1b
1]
0N
0L
0e
0M
1K
0I
1f
1d
0b
1P
1N
0O
1M
0f
0P
1Q
1O
0Q
#3160000
0"
03
04
#3170000
1"
13
14
1(!
1H
05
1I
#3180000
0!
0"
0[
03
04
0\
