SM_bot/simulation/qsim/SM_bot.msim.vcd
$comment
	File created using the following command:
		vcd file SM_bot.msim.vcd -direction
$end
$date
	Sat Jan 02 21:15:13 2021
$end
$version
	ModelSim Version 10.5b
$end
$timescale
	1ps
$end

$scope module pwm_vlg_vec_tst $end
$var reg 1 ! clk $end
$var reg 1 " dir_l $end
$var reg 1 # dir_r $end
$var reg 14 $ speed_l [13:0] $end
$var reg 14 % speed_r [13:0] $end
$var wire 1 & l_1 $end
$var wire 1 ' l_2 $end
$var wire 1 ( r_1 $end
$var wire 1 ) r_2 $end

$scope module i1 $end
$var wire 1 * gnd $end
$var wire 1 + vcc $end
$var wire 1 , unknown $end
$var tri1 1 - devclrn $end
$var tri1 1 . devpor $end
$var tri1 1 / devoe $end
$var wire 1 0 l_1~output_o $end
$var wire 1 1 l_2~output_o $end
$var wire 1 2 r_1~output_o $end
$var wire 1 3 r_2~output_o $end
$var wire 1 4 clk~input_o $end
$var wire 1 5 clk~inputclkctrl_outclk $end
$var wire 1 6 speed_l[13]~input_o $end
$var wire 1 7 Equal0~1_combout $end
$var wire 1 8 counter~1_combout $end
$var wire 1 9 counter~2_combout $end
$var wire 1 : Add0~0_combout $end
$var wire 1 ; Add0~1 $end
$var wire 1 < Add0~2_combout $end
$var wire 1 = Add0~3 $end
$var wire 1 > Add0~4_combout $end
$var wire 1 ? Add0~5 $end
$var wire 1 @ Add0~6_combout $end
$var wire 1 A Equal0~2_combout $end
$var wire 1 B Equal0~3_combout $end
$var wire 1 C Equal0~0_combout $end
$var wire 1 D counter~0_combout $end
$var wire 1 E Add0~7 $end
$var wire 1 F Add0~8_combout $end
$var wire 1 G Add0~9 $end
$var wire 1 H Add0~10_combout $end
$var wire 1 I Add0~11 $end
$var wire 1 J Add0~12_combout $end
$var wire 1 K Add0~13 $end
$var wire 1 L Add0~14_combout $end
$var wire 1 M Add0~15 $end
$var wire 1 N Add0~16_combout $end
$var wire 1 O Add0~17 $end
$var wire 1 P Add0~18_combout $end
$var wire 1 Q Add0~19 $end
$var wire 1 R Add0~20_combout $end
$var wire 1 S Add0~21 $end
$var wire 1 T Add0~22_combout $end
$var wire 1 U Add0~23 $end
$var wire 1 V Add0~24_combout $end
$var wire 1 W Add0~25 $end
$var wire 1 X Add0~26_combout $end
$var wire 1 Y speed_l[12]~input_o $end
$var wire 1 Z speed_l[11]~input_o $end
$var wire 1 [ speed_l[10]~input_o $end
$var wire 1 \ speed_l[9]~input_o $end
$var wire 1 ] speed_l[8]~input_o $end
$var wire 1 ^ speed_l[7]~input_o $end
$var wire 1 _ speed_l[6]~input_o $end
$var wire 1 ` speed_l[5]~input_o $end
$var wire 1 a speed_l[4]~input_o $end
$var wire 1 b speed_l[3]~input_o $end
$var wire 1 c speed_l[2]~input_o $end
$var wire 1 d speed_l[1]~input_o $end
$var wire 1 e speed_l[0]~input_o $end
$var wire 1 f LessThan0~1_cout $end
$var wire 1 g LessThan0~3_cout $end
$var wire 1 h LessThan0~5_cout $end
$var wire 1 i LessThan0~7_cout $end
$var wire 1 j LessThan0~9_cout $end
$var wire 1 k LessThan0~11_cout $end
$var wire 1 l LessThan0~13_cout $end
$var wire 1 m LessThan0~15_cout $end
$var wire 1 n LessThan0~17_cout $end
$var wire 1 o LessThan0~19_cout $end
$var wire 1 p LessThan0~21_cout $end
$var wire 1 q LessThan0~23_cout $end
$var wire 1 r LessThan0~25_cout $end
$var wire 1 s LessThan0~26_combout $end
$var wire 1 t dir_l~input_o $end
$var wire 1 u l_1~0_combout $end
$var wire 1 v l_1~reg0_q $end
$var wire 1 w l_2~0_combout $end
$var wire 1 x l_2~reg0_q $end
$var wire 1 y dir_r~input_o $end
$var wire 1 z speed_r[13]~input_o $end
$var wire 1 { speed_r[12]~input_o $end
$var wire 1 | speed_r[11]~input_o $end
$var wire 1 } speed_r[10]~input_o $end
$var wire 1 ~ speed_r[9]~input_o $end
$var wire 1 !! speed_r[8]~input_o $end
$var wire 1 "! speed_r[7]~input_o $end
$var wire 1 #! speed_r[6]~input_o $end
$var wire 1 $! speed_r[5]~input_o $end
$var wire 1 %! speed_r[4]~input_o $end
$var wire 1 &! speed_r[3]~input_o $end
$var wire 1 '! speed_r[2]~input_o $end
$var wire 1 (! speed_r[1]~input_o $end
$var wire 1 )! speed_r[0]~input_o $end
$var wire 1 *! LessThan1~1_cout $end
$var wire 1 +! LessThan1~3_cout $end
$var wire 1 ,! LessThan1~5_cout $end
$var wire 1 -! LessThan1~7_cout $end
$var wire 1 .! LessThan1~9_cout $end
$var wire 1 /! LessThan1~11_cout $end
$var wire 1 0! LessThan1~13_cout $end
$var wire 1 1! LessThan1~15_cout $end
$var wire 1 2! LessThan1~17_cout $end
$var wire 1 3! LessThan1~19_cout $end
$var wire 1 4! LessThan1~21_cout $end
$var wire 1 5! LessThan1~23_cout $end
$var wire 1 6! LessThan1~25_cout $end
$var wire 1 7! LessThan1~26_combout $end
$var wire 1 8! r_1~0_combout $end
$var wire 1 9! r_1~reg0_q $end
$var wire 1 :! r_2~0_combout $end
$var wire 1 ;! r_2~reg0_q $end
$var wire 1 <! counter [13] $end
$var wire 1 =! counter [12] $end
$var wire 1 >! counter [11] $end
$var wire 1 ?! counter [10] $end
$var wire 1 @! counter [9] $end
$var wire 1 A! counter [8] $end
$var wire 1 B! counter [7] $end
$var wire 1 C! counter [6] $end
$var wire 1 D! counter [5] $end
$var wire 1 E! counter [4] $end
$var wire 1 F! counter [3] $end
$var wire 1 G! counter [2] $end
$var wire 1 H! counter [1] $end
$var wire 1 I! counter [0] $end
$upscope $end
$upscope $end
$enddefinitions $end
#0
$dumpvars
0!
1"
0#
b100 $
b100 %
0&
0'
0(
0)
0*
1+
x,
1-
1.
1/
00
01
02
03
04
05
06
17
08
09
1:
0;
0<
1=
0>
0?
0@
0A
0B
1C
0D
1E
0F
0G
0H
1I
0J
0K
0L
1M
0N
0O
0P
1Q
0R
0S
0T
1U
0V
0W
0X
0Y
0Z
0[
0\
0]
0^
0_
0`
0a
0b
1c
0d
0e
0f
1g
1h
0i
1j
0k
1l
0m
1n
0o
1p
0q
1r
1s
1t
1u
0v
0w
0x
0y
0z
0{
0|
0}
0~
0!!
0"!
0#!
0$!
0%!
0&!
1'!
0(!
0)!
0*!
1+!
1,!
0-!
1.!
0/!
10!
01!
12!
03!
14!
05!
16!
17!
08!
09!
1:!
0;!
0I!
0H!
0G!
0F!
0E!
0D!
0C!
0B!
0A!
0@!
0?!
0>!
0=!
0<!
$end
#10000
1!
14
15
1I!
1;!
1v
10
13
1;
0:
1)
1&
1<
19
#20000
0!
04
05
#30000
1!
14
15
0I!
1H!
0;
1:
0=
0<
1=
1<
1>
09
0>
19
#40000
0!
04
05
#50000
1!
14
15
1I!
1;
0:
0=
0<
1>
09
#60000
0!
04
05
#70000
1!
14
15
1G!
0I!
0H!
0,!
0h
1?
0;
1:
1=
1<
0>
1-!
1i
1@
0<
0?
1>
19
0.!
0j
0@
1D
09
1/!
1k
0D
00!
0l
11!
1m
02!
0n
13!
1o
04!
0p
15!
1q
06!
0r
07!
0s
0:!
0u
#80000
0!
04
05
#90000
1!
14
15
1I!
0;!
0v
00
03
1;
0:
0)
0&
1<
19
#100000
0!
04
05
#110000
1!
14
15
0I!
1H!
0;
1:
0=
0<
1=
1<
1?
0>
09
0?
1@
1>
19
0@
1D
0D
#120000
0!
04
05
#130000
1!
14
15
1I!
1;
0:
0=
0<
1?
0>
09
1@
1A
1D
#140000
0!
04
05
#150000
1!
14
15
1F!
0G!
0I!
0H!
0E
0@
1,!
1h
0?
0;
1:
1=
1<
1>
0A
1E
1@
0<
1F
0D
0>
19
0F
1D
09
#160000
0!
04
05
#170000
1!
14
15
1I!
1;
0:
1<
1A
1B
19
0D
09
#180000
0!
04
05
#190000
1!
14
15
0F!
0I!
0-!
0i
0@
0;
1:
1.!
1j
0A
0<
0/!
0k
0B
10!
1l
01!
0m
12!
1n
03!
0o
14!
1p
05!
0q
16!
1r
17!
1s
1:!
1u
#200000
0!
04
05
#210000
1!
14
15
1I!
1;!
1v
10
13
1;
0:
1)
1&
1<
19
#220000
0!
04
05
#230000
1!
14
15
0I!
1H!
0;
1:
0=
0<
1=
1<
1>
09
0>
19
#240000
0!
04
05
#250000
1!
14
15
1I!
1;
0:
0=
0<
1>
09
#260000
0!
04
05
#270000
1!
14
15
1G!
0I!
0H!
0,!
0h
1?
0;
1:
1=
1<
0>
1-!
1i
1@
0<
0?
1>
19
0.!
0j
0@
1D
09
1/!
1k
0D
00!
0l
11!
1m
02!
0n
13!
1o
04!
0p
15!
1q
06!
0r
07!
0s
0:!
0u
#280000
0!
04
05
#290000
1!
14
15
1I!
0;!
0v
00
03
1;
0:
0)
0&
1<
19
#300000
0!
04
05
#310000
1!
14
15
0I!
1H!
0;
1:
0=
0<
1=
1<
1?
0>
09
0?
1@
1>
19
0@
1D
0D
#320000
0!
04
05
#330000
1!
14
15
1I!
1;
0:
0=
0<
1?
0>
09
1@
1A
1D
#340000
0!
04
05
#350000
1!
14
15
1F!
0G!
0I!
0H!
0E
0@
1,!
1h
0?
0;
1:
1=
1<
1>
0A
1E
1@
0<
1F
0D
0>
19
0F
1D
09
#360000
0!
04
05
#370000
1!
14
15
1I!
1;
0:
1<
1A
1B
19
0D
09
#380000
0!
04
05
#390000
1!
14
15
0F!
0I!
0-!
0i
0@
0;
1:
1.!
1j
0A
0<
0/!
0k
0B
10!
1l
01!
0m
12!
1n
03!
0o
14!
1p
05!
0q
16!
1r
17!
1s
1:!
1u
#400000
0!
04
05
#410000
1!
14
15
1I!
1;!
1v
10
13
1;
0:
1)
1&
1<
19
#420000
0!
04
05
#430000
1!
14
15
0I!
1H!
0;
1:
0=
0<
1=
1<
1>
09
0>
19
#440000
0!
04
05
#450000
1!
14
15
1I!
1;
0:
0=
0<
1>
09
#460000
0!
04
05
#470000
1!
14
15
1G!
0I!
0H!
0,!
0h
1?
0;
1:
1=
1<
0>
1-!
1i
1@
0<
0?
1>
19
0.!
0j
0@
1D
09
1/!
1k
0D
00!
0l
11!
1m
02!
0n
13!
1o
04!
0p
15!
1q
06!
0r
07!
0s
0:!
0u
#480000
0!
04
05
#490000
1!
14
15
1I!
0;!
0v
00
03
1;
0:
0)
0&
1<
19
#500000
0!
04
05
#510000
1!
14
15
0I!
1H!
0;
1:
0=
0<
1=
1<
1?
0>
09
0?
1@
1>
19
0@
1D
0D
#520000
0!
04
05
#530000
1!
14
15
1I!
1;
0:
0=
0<
1?
0>
09
1@
1A
1D
#540000
0!
04
05
#550000
1!
14
15
1F!
0G!
0I!
0H!
0E
0@
1,!
1h
0?
0;
1:
1=
1<
1>
0A
1E
1@
0<
1F
0D
0>
19
0F
1D
09
#560000
0!
04
05
#570000
1!
14
15
1I!
1;
0:
1<
1A
1B
19
0D
09
#580000
0!
04
05
#590000
1!
14
15
0F!
0I!
0-!
0i
0@
0;
1:
1.!
1j
0A
0<
0/!
0k
0B
10!
1l
01!
0m
12!
1n
03!
0o
14!
1p
05!
0q
16!
1r
17!
1s
1:!
1u
#600000
0!
04
05
#610000
1!
14
15
1I!
1;!
1v
10
13
1;
0:
1)
1&
1<
19
#620000
0!
04
05
#630000
1!
14
15
0I!
1H!
0;
1:
0=
0<
1=
1<
1>
09
0>
19
#640000
0!
04
05
#650000
1!
14
15
1I!
1;
0:
0=
0<
1>
09
#660000
0!
04
05
#670000
1!
14
15
1G!
0I!
0H!
0,!
0h
1?
0;
1:
1=
1<
0>
1-!
1i
1@
0<
0?
1>
19
0.!
0j
0@
1D
09
1/!
1k
0D
00!
0l
11!
1m
02!
0n
13!
1o
04!
0p
15!
1q
06!
0r
07!
0s
0:!
0u
#680000
0!
04
05
#690000
1!
14
15
1I!
0;!
0v
00
03
1;
0:
0)
0&
1<
19
#700000
0!
04
05
#710000
1!
14
15
0I!
1H!
0;
1:
0=
0<
1=
1<
1?
0>
09
0?
1@
1>
19
0@
1D
0D
#720000
0!
04
05
#730000
1!
14
15
1I!
1;
0:
0=
0<
1?
0>
09
1@
1A
1D
#740000
0!
04
05
#750000
1!
14
15
1F!
0G!
0I!
0H!
0E
0@
1,!
1h
0?
0;
1:
1=
1<
1>
0A
1E
1@
0<
1F
0D
0>
19
0F
1D
09
#760000
0!
04
05
#770000
1!
14
15
1I!
1;
0:
1<
1A
1B
19
0D
09
#780000
0!
04
05
#790000
1!
14
15
0F!
0I!
0-!
0i
0@
0;
1:
1.!
1j
0A
0<
0/!
0k
0B
10!
1l
01!
0m
12!
1n
03!
0o
14!
1p
05!
0q
16!
1r
17!
1s
1:!
1u
#800000
0!
04
05
#810000
1!
14
15
1I!
1;!
1v
10
13
1;
0:
1)
1&
1<
19
#820000
0!
04
05
#830000
1!
14
15
0I!
1H!
0;
1:
0=
0<
1=
1<
1>
09
0>
19
#840000
0!
04
05
#850000
1!
14
15
1I!
1;
0:
0=
0<
1>
09
#860000
0!
04
05
#870000
1!
14
15
1G!
0I!
0H!
0,!
0h
1?
0;
1:
1=
1<
0>
1-!
1i
1@
0<
0?
1>
19
0.!
0j
0@
1D
09
1/!
1k
0D
00!
0l
11!
1m
02!
0n
13!
1o
04!
0p
15!
1q
06!
0r
07!
0s
0:!
0u
#880000
0!
04
05
#890000
1!
14
15
1I!
0;!
0v
00
03
1;
0:
0)
0&
1<
19
#900000
0!
04
05
#910000
1!
14
15
0I!
1H!
0;
1:
0=
0<
1=
1<
1?
0>
09
0?
1@
1>
19
0@
1D
0D
#920000
0!
04
05
#930000
1!
14
15
1I!
1;
0:
0=
0<
1?
0>
09
1@
1A
1D
#940000
0!
04
05
#950000
1!
14
15
1F!
0G!
0I!
0H!
0E
0@
1,!
1h
0?
0;
1:
1=
1<
1>
0A
1E
1@
0<
1F
0D
0>
19
0F
1D
09
#960000
0!
04
05
#970000
1!
14
15
1I!
1;
0:
1<
1A
1B
19
0D
09
#980000
0!
04
05
#990000
1!
14
15
0F!
0I!
0-!
0i
0@
0;
1:
1.!
1j
0A
0<
0/!
0k
0B
10!
1l
01!
0m
12!
1n
03!
0o
14!
1p
05!
0q
16!
1r
17!
1s
1:!
1u
#1000000
0!
04
05
#1010000
1!
14
15
1I!
1;!
1v
10
13
1;
0:
1)
1&
1<
19
#1020000
0!
04
05
#1030000
1!
14
15
0I!
1H!
0;
1:
0=
0<
1=
1<
1>
09
0>
19
#1040000
0!
04
05
#1050000
1!
14
15
1I!
1;
0:
0=
0<
1>
09
#1060000
0!
04
05
#1070000
1!
14
15
1G!
0I!
0H!
0,!
0h
1?
0;
1:
1=
1<
0>
1-!
1i
1@
0<
0?
1>
19
0.!
0j
0@
1D
09
1/!
1k
0D
00!
0l
11!
1m
02!
0n
13!
1o
04!
0p
15!
1q
06!
0r
07!
0s
0:!
0u
#1080000
0!
04
05
#1090000
1!
14
15
1I!
0;!
0v
00
03
1;
0:
0)
0&
1<
19
#1100000
0!
04
05
#1110000
1!
14
15
0I!
1H!
0;
1:
0=
0<
1=
1<
1?
0>
09
0?
1@
1>
19
0@
1D
0D
#1120000
0!
04
05
#1130000
1!
14
15
1I!
1;
0:
0=
0<
1?
0>
09
1@
1A
1D
#1140000
0!
04
05
#1150000
1!
14
15
1F!
0G!
0I!
0H!
0E
0@
1,!
1h
0?
0;
1:
1=
1<
1>
0A
1E
1@
0<
1F
0D
0>
19
0F
1D
09
#1160000
0!
04
05
#1170000
1!
14
15
1I!
1;
0:
1<
1A
1B
19
0D
09
#1180000
0!
04
05
#1190000
1!
14
15
0F!
0I!
0-!
0i
0@
0;
1:
1.!
1j
0A
0<
0/!
0k
0B
10!
1l
01!
0m
12!
1n
03!
0o
14!
1p
05!
0q
16!
1r
17!
1s
1:!
1u
#1200000
0!
04
05
#1210000
1!
14
15
1I!
1;!
1v
10
13
1;
0:
1)
1&
1<
19
#1220000
0!
04
05
#1230000
1!
14
15
0I!
1H!
0;
1:
0=
0<
1=
1<
1>
09
0>
19
#1240000
0!
04
05
#1250000
1!
14
15
1I!
1;
0:
0=
0<
1>
09
#1260000
0!
04
05
#1270000
1!
14
15
1G!
0I!
0H!
0,!
0h
1?
0;
1:
1=
1<
0>
1-!
1i
1@
0<
0?
1>
19
0.!
0j
0@
1D
09
1/!
1k
0D
00!
0l
11!
1m
02!
0n
13!
1o
04!
0p
15!
1q
06!
0r
07!
0s
0:!
0u
#1280000
0!
04
05
#1290000
1!
14
15
1I!
0;!
0v
00
03
1;
0:
0)
0&
1<
19
#1300000
0!
04
05
#1310000
1!
14
15
0I!
1H!
0;
1:
0=
0<
1=
1<
1?
0>
09
0?
1@
1>
19
0@
1D
0D
#1320000
0!
04
05
#1330000
1!
14
15
1I!
1;
0:
0=
0<
1?
0>
09
1@
1A
1D
#1340000
0!
04
05
#1350000
1!
14
15
1F!
0G!
0I!
0H!
0E
0@
1,!
1h
0?
0;
1:
1=
1<
1>
0A
1E
1@
0<
1F
0D
0>
19
0F
1D
09
#1360000
0!
04
05
#1370000
1!
14
15
1I!
1;
0:
1<
1A
1B
19
0D
09
#1380000
0!
04
05
#1390000
1!
14
15
0F!
0I!
0-!
0i
0@
0;
1:
1.!
1j
0A
0<
0/!
0k
0B
10!
1l
01!
0m
12!
1n
03!
0o
14!
1p
05!
0q
16!
1r
17!
1s
1:!
1u
#1400000
0!
04
05
#1410000
1!
14
15
1I!
1;!
1v
10
13
1;
0:
1)
1&
1<
19
#1420000
0!
04
05
#1430000
1!
14
15
0I!
1H!
0;
1:
0=
0<
1=
1<
1>
09
0>
19
#1440000
0!
04
05
#1450000
1!
14
15
1I!
1;
0:
0=
0<
1>
09
#1460000
0!
04
05
#1470000
1!
14
15
1G!
0I!
0H!
0,!
0h
1?
0;
1:
1=
1<
0>
1-!
1i
1@
0<
0?
1>
19
0.!
0j
0@
1D
09
1/!
1k
0D
00!
0l
11!
1m
02!
0n
13!
1o
04!
0p
15!
1q
06!
0r
07!
0s
0:!
0u
#1480000
0!
04
05
#1490000
1!
14
15
1I!
0;!
0v
00
03
1;
0:
0)
0&
1<
19
#1500000
0!
04
05
#1510000
1!
14
15
0I!
1H!
0;
1:
0=
0<
1=
1<
1?
0>
09
0?
1@
1>
19
0@
1D
0D
#1520000
0!
04
05
#1530000
1!
14
15
1I!
1;
0:
0=
0<
1?
0>
09
1@
1A
1D
#1540000
0!
04
05
#1550000
1!
14
15
1F!
0G!
0I!
0H!
0E
0@
1,!
1h
0?
0;
1:
1=
1<
1>
0A
1E
1@
0<
1F
0D
0>
19
0F
1D
09
#1560000
0!
04
05
#1570000
1!
14
15
1I!
1;
0:
1<
1A
1B
19
0D
09
#1580000
0!
04
05
#1590000
1!
14
15
0F!
0I!
0-!
0i
0@
0;
1:
1.!
1j
0A
0<
0/!
0k
0B
10!
1l
01!
0m
12!
1n
03!
0o
14!
1p
05!
0q
16!
1r
17!
1s
1:!
1u
#1600000
0!
04
05
#1610000
1!
14
15
1I!
1;!
1v
10
13
1;
0:
1)
1&
1<
19
#1620000
0!
04
05
#1630000
1!
14
15
0I!
1H!
0;
1:
0=
0<
1=
1<
1>
09
0>
19
#1640000
0!
04
05
#1650000
1!
14
15
1I!
1;
0:
0=
0<
1>
09
#1660000
0!
04
05
#1670000
1!
14
15
1G!
0I!
0H!
0,!
0h
1?
0;
1:
1=
1<
0>
1-!
1i
1@
0<
0?
1>
19
0.!
0j
0@
1D
09
1/!
1k
0D
00!
0l
11!
1m
02!
0n
13!
1o
04!
0p
15!
1q
06!
0r
07!
0s
0:!
0u
#1680000
0!
04
05
#1690000
1!
14
15
1I!
0;!
0v
00
03
1;
0:
0)
0&
1<
19
#1700000
0!
04
05
#1710000
1!
14
15
0I!
1H!
0;
1:
0=
0<
1=
1<
1?
0>
09
0?
1@
1>
19
0@
1D
0D
#1720000
0!
04
05
#1730000
1!
14
15
1I!
1;
0:
0=
0<
1?
0>
09
1@
1A
1D
#1740000
0!
04
05
#1750000
1!
14
15
1F!
0G!
0I!
0H!
0E
0@
1,!
1h
0?
0;
1:
1=
1<
1>
0A
1E
1@
0<
1F
0D
0>
19
0F
1D
09
#1760000
0!
04
05
#1770000
1!
14
15
1I!
1;
0:
1<
1A
1B
19
0D
09
#1780000
0!
04
05
#1790000
1!
14
15
0F!
0I!
0-!
0i
0@
0;
1:
1.!
1j
0A
0<
0/!
0k
0B
10!
1l
01!
0m
12!
1n
03!
0o
14!
1p
05!
0q
16!
1r
17!
1s
1:!
1u
#1800000
0!
04
05
#1810000
1!
14
15
1I!
1;!
1v
10
13
1;
0:
1)
1&
1<
19
#1820000
0!
04
05
#1830000
1!
14
15
0I!
1H!
0;
1:
0=
0<
1=
1<
1>
09
0>
19
#1840000
0!
04
05
#1850000
1!
14
15
1I!
1;
0:
0=
0<
1>
09
#1860000
0!
04
05
#1870000
1!
14
15
1G!
0I!
0H!
0,!
0h
1?
0;
1:
1=
1<
0>
1-!
1i
1@
0<
0?
1>
19
0.!
0j
0@
1D
09
1/!
1k
0D
00!
0l
11!
1m
02!
0n
13!
1o
04!
0p
15!
1q
06!
0r
07!
0s
0:!
0u
#1880000
0!
04
05
#1890000
1!
14
15
1I!
0;!
0v
00
03
1;
0:
0)
0&
1<
19
#1900000
0!
04
05
#1910000
1!
14
15
0I!
1H!
0;
1:
0=
0<
1=
1<
1?
0>
09
0?
1@
1>
19
0@
1D
0D
#1920000
0!
04
05
#1930000
1!
14
15
1I!
1;
0:
0=
0<
1?
0>
09
1@
1A
1D
#1940000
0!
04
05
#1950000
1!
14
15
1F!
0G!
0I!
0H!
0E
0@
1,!
1h
0?
0;
1:
1=
1<
1>
0A
1E
1@
0<
1F
0D
0>
19
0F
1D
09
#1960000
0!
04
05
#1970000
1!
14
15
1I!
1;
0:
1<
1A
1B
19
0D
09
#1980000
0!
04
05
#1990000
1!
14
15
0F!
0I!
0-!
0i
0@
0;
1:
1.!
1j
0A
0<
0/!
0k
0B
10!
1l
01!
0m
12!
1n
03!
0o
14!
1p
05!
0q
16!
1r
17!
1s
1:!
1u
#2000000
0!
04
05
#2010000
1!
14
15
1I!
1;!
1v
10
13
1;
0:
1)
1&
1<
19
#2020000
0!
04
05
#2030000
1!
14
15
0I!
1H!
0;
1:
0=
0<
1=
1<
1>
09
0>
19
#2040000
0!
04
05
#2050000
1!
14
15
1I!
1;
0:
0=
0<
1>
09
#2060000
0!
04
05
#2070000
1!
14
15
1G!
0I!
0H!
0,!
0h
1?
0;
1:
1=
1<
0>
1-!
1i
1@
0<
0?
1>
19
0.!
0j
0@
1D
09
1/!
1k
0D
00!
0l
11!
1m
02!
0n
13!
1o
04!
0p
15!
1q
06!
0r
07!
0s
0:!
0u
#2080000
0!
04
05
#2090000
1!
14
15
1I!
0;!
0v
00
03
1;
0:
0)
0&
1<
19
#2100000
0!
04
05
#2110000
1!
14
15
0I!
1H!
0;
1:
0=
0<
1=
1<
1?
0>
09
0?
1@
1>
19
0@
1D
0D
#2120000
0!
04
05
#2130000
1!
14
15
1I!
1;
0:
0=
0<
1?
0>
09
1@
1A
1D
#2140000
0!
04
05
#2150000
1!
14
15
1F!
0G!
0I!
0H!
0E
0@
1,!
1h
0?
0;
1:
1=
1<
1>
0A
1E
1@
0<
1F
0D
0>
19
0F
1D
09
#2160000
0!
04
05
#2170000
1!
14
15
1I!
1;
0:
1<
1A
1B
19
0D
09
#2180000
0!
04
05
#2190000
1!
14
15
0F!
0I!
0-!
0i
0@
0;
1:
1.!
1j
0A
0<
0/!
0k
0B
10!
1l
01!
0m
12!
1n
03!
0o
14!
1p
05!
0q
16!
1r
17!
1s
1:!
1u
#2200000
0!
04
05
#2210000
1!
14
15
1I!
1;!
1v
10
13
1;
0:
1)
1&
1<
19
#2220000
0!
04
05
#2230000
1!
14
15
0I!
1H!
0;
1:
0=
0<
1=
1<
1>
09
0>
19
#2240000
0!
04
05
#2250000
1!
14
15
1I!
1;
0:
0=
0<
1>
09
#2260000
0!
04
05
#2270000
1!
14
15
1G!
0I!
0H!
0,!
0h
1?
0;
1:
1=
1<
0>
1-!
1i
1@
0<
0?
1>
19
0.!
0j
0@
1D
09
1/!
1k
0D
00!
0l
11!
1m
02!
0n
13!
1o
04!
0p
15!
1q
06!
0r
07!
0s
0:!
0u
#2280000
0!
04
05
#2290000
1!
14
15
1I!
0;!
0v
00
03
1;
0:
0)
0&
1<
19
#2300000
0!
04
05
#2310000
1!
14
15
0I!
1H!
0;
1:
0=
0<
1=
1<
1?
0>
09
0?
1@
1>
19
0@
1D
0D
#2320000
0!
04
05
#2330000
1!
14
15
1I!
1;
0:
0=
0<
1?
0>
09
1@
1A
1D
#2340000
0!
04
05
#2350000
1!
14
15
1F!
0G!
0I!
0H!
0E
0@
1,!
1h
0?
0;
1:
1=
1<
1>
0A
1E
1@
0<
1F
0D
0>
19
0F
1D
09
#2360000
0!
04
05
#2370000
1!
14
15
1I!
1;
0:
1<
1A
1B
19
0D
09
#2380000
0!
04
05
#2390000
1!
14
15
0F!
0I!
0-!
0i
0@
0;
1:
1.!
1j
0A
0<
0/!
0k
0B
10!
1l
01!
0m
12!
1n
03!
0o
14!
1p
05!
0q
16!
1r
17!
1s
1:!
1u
#2400000
0!
04
05
#2410000
1!
14
15
1I!
1;!
1v
10
13
1;
0:
1)
1&
1<
19
#2420000
0!
04
05
#2430000
1!
14
15
0I!
1H!
0;
1:
0=
0<
1=
1<
1>
09
0>
19
#2440000
0!
04
05
#2450000
1!
14
15
1I!
1;
0:
0=
0<
1>
09
#2460000
0!
04
05
#2470000
1!
14
15
1G!
0I!
0H!
0,!
0h
1?
0;
1:
1=
1<
0>
1-!
1i
1@
0<
0?
1>
19
0.!
0j
0@
1D
09
1/!
1k
0D
00!
0l
11!
1m
02!
0n
13!
1o
04!
0p
15!
1q
06!
0r
07!
0s
0:!
0u
#2480000
0!
04
05
#2490000
1!
14
15
1I!
0;!
0v
00
03
1;
0:
0)
0&
1<
19
#2500000
0!
04
05
#2510000
1!
14
15
0I!
1H!
0;
1:
0=
0<
1=
1<
1?
0>
09
0?
1@
1>
19
0@
1D
0D
#2520000
0!
04
05
#2530000
1!
14
15
1I!
1;
0:
0=
0<
1?
0>
09
1@
1A
1D
#2540000
0!
04
05
#2550000
1!
14
15
1F!
0G!
0I!
0H!
0E
0@
1,!
1h
0?
0;
1:
1=
1<
1>
0A
1E
1@
0<
1F
0D
0>
19
0F
1D
09
#2560000
0!
04
05
#2570000
1!
14
15
1I!
1;
0:
1<
1A
1B
19
0D
09
#2580000
0!
04
05
#2590000
1!
14
15
0F!
0I!
0-!
0i
0@
0;
1:
1.!
1j
0A
0<
0/!
0k
0B
10!
1l
01!
0m
12!
1n
03!
0o
14!
1p
05!
0q
16!
1r
17!
1s
1:!
1u
#2600000
0!
04
05
#2610000
1!
14
15
1I!
1;!
1v
10
13
1;
0:
1)
1&
1<
19
#2620000
0!
04
05
#2630000
1!
14
15
0I!
1H!
0;
1:
0=
0<
1=
1<
1>
09
0>
19
#2640000
0!
04
05
#2650000
1!
14
15
1I!
1;
0:
0=
0<
1>
09
#2660000
0!
04
05
#2670000
1!
14
15
1G!
0I!
0H!
0,!
0h
1?
0;
1:
1=
1<
0>
1-!
1i
1@
0<
0?
1>
19
0.!
0j
0@
1D
09
1/!
1k
0D
00!
0l
11!
1m
02!
0n
13!
1o
04!
0p
15!
1q
06!
0r
07!
0s
0:!
0u
#2680000
0!
04
05
#2690000
1!
14
15
1I!
0;!
0v
00
03
1;
0:
0)
0&
1<
19
#2700000
0!
04
05
#2710000
1!
14
15
0I!
1H!
0;
1:
0=
0<
1=
1<
1?
0>
09
0?
1@
1>
19
0@
1D
0D
#2720000
0!
04
05
#2730000
1!
14
15
1I!
1;
0:
0=
0<
1?
0>
09
1@
1A
1D
#2740000
0!
04
05
#2750000
1!
14
15
1F!
0G!
0I!
0H!
0E
0@
1,!
1h
0?
0;
1:
1=
1<
1>
0A
1E
1@
0<
1F
0D
0>
19
0F
1D
09
#2760000
0!
04
05
#2770000
1!
14
15
1I!
1;
0:
1<
1A
1B
19
0D
09
#2780000
0!
04
05
#2790000
1!
14
15
0F!
0I!
0-!
0i
0@
0;
1:
1.!
1j
0A
0<
0/!
0k
0B
10!
1l
01!
0m
12!
1n
03!
0o
14!
1p
05!
0q
16!
1r
17!
1s
1:!
1u
#2800000
0!
04
05
#2810000
1!
14
15
1I!
1;!
1v
10
13
1;
0:
1)
1&
1<
19
#2820000
0!
04
05
#2830000
1!
14
15
0I!
1H!
0;
1:
0=
0<
1=
1<
1>
09
0>
19
#2840000
0!
04
05
#2850000
1!
14
15
1I!
1;
0:
0=
0<
1>
09
#2860000
0!
04
05
#2870000
1!
14
15
1G!
0I!
0H!
0,!
0h
1?
0;
1:
1=
1<
0>
1-!
1i
1@
0<
0?
1>
19
0.!
0j
0@
1D
09
1/!
1k
0D
00!
0l
11!
1m
02!
0n
13!
1o
04!
0p
15!
1q
06!
0r
07!
0s
0:!
0u
#2880000
0!
04
05
#2890000
1!
14
15
1I!
0;!
0v
00
03
1;
0:
0)
0&
1<
19
#2900000
0!
04
05
#2910000
1!
14
15
0I!
1H!
0;
1:
0=
0<
1=
1<
1?
0>
09
0?
1@
1>
19
0@
1D
0D
#2920000
0!
04
05
#2930000
1!
14
15
1I!
1;
0:
0=
0<
1?
0>
09
1@
1A
1D
#2940000
0!
04
05
#2950000
1!
14
15
1F!
0G!
0I!
0H!
0E
0@
1,!
1h
0?
0;
1:
1=
1<
1>
0A
1E
1@
0<
1F
0D
0>
19
0F
1D
09
#2960000
0!
04
05
#2970000
1!
14
15
1I!
1;
0:
1<
1A
1B
19
0D
09
#2980000
0!
04
05
